^C:\USERS\MOURAD\DESKTOP\VRFINAL_VRAIMENT\VR_PROJECT\SOURCES\AUDIO\AUDIOMASTER.CPP|C:\USERS\MOURAD\DESKTOP\VRFINAL_VRAIMENT\VR_PROJECT\SOURCES\EASYWSCLIENT.CPP|C:\USERS\MOURAD\DESKTOP\VRFINAL_VRAIMENT\VR_PROJECT\SOURCES\EVENTS.CPP|C:\USERS\MOURAD\DESKTOP\VRFINAL_VRAIMENT\VR_PROJECT\SOURCES\GOGAME.CPP|C:\USERS\MOURAD\DESKTOP\VRFINAL_VRAIMENT\VR_PROJECT\SOURCES\MAIN.CPP|C:\USERS\MOURAD\DESKTOP\VRFINAL_VRAIMENT\VR_PROJECT\SOURCES\RAYPICKER.CPP|C:\USERS\MOURAD\DESKTOP\VRFINAL_VRAIMENT\VR_PROJECT\SOURCES\SHADER.CPP
C:\USERS\MOURAD\DESKTOP\VRFINAL_VRAIMENT\VR_PROJECT\GLITTER2017\GLITTER2017\X64\DEBUG\VC141.PDB
C:\USERS\MOURAD\DESKTOP\VRFINAL_VRAIMENT\VR_PROJECT\GLITTER2017\GLITTER2017\X64\DEBUG\VC141.IDB
C:\USERS\MOURAD\DESKTOP\VRFINAL_VRAIMENT\VR_PROJECT\GLITTER2017\GLITTER2017\X64\DEBUG\AUDIOMASTER.OBJ
C:\USERS\MOURAD\DESKTOP\VRFINAL_VRAIMENT\VR_PROJECT\GLITTER2017\GLITTER2017\X64\DEBUG\EASYWSCLIENT.OBJ
C:\USERS\MOURAD\DESKTOP\VRFINAL_VRAIMENT\VR_PROJECT\GLITTER2017\GLITTER2017\X64\DEBUG\EVENTS.OBJ
C:\USERS\MOURAD\DESKTOP\VRFINAL_VRAIMENT\VR_PROJECT\GLITTER2017\GLITTER2017\X64\DEBUG\GOGAME.OBJ
C:\USERS\MOURAD\DESKTOP\VRFINAL_VRAIMENT\VR_PROJECT\GLITTER2017\GLITTER2017\X64\DEBUG\MAIN.OBJ
C:\USERS\MOURAD\DESKTOP\VRFINAL_VRAIMENT\VR_PROJECT\GLITTER2017\GLITTER2017\X64\DEBUG\RAYPICKER.OBJ
C:\USERS\MOURAD\DESKTOP\VRFINAL_VRAIMENT\VR_PROJECT\GLITTER2017\GLITTER2017\X64\DEBUG\SHADER.OBJ
^C:\USERS\MOURAD\DESKTOP\VRFINAL_VRAIMENT\VR_PROJECT\SOURCES\AUDIO\AUDIOMASTER.CPP
C:\USERS\MOURAD\DESKTOP\VRFINAL_VRAIMENT\VR_PROJECT\GLITTER2017\GLITTER2017\X64\DEBUG\VC141.PDB
^C:\USERS\MOURAD\DESKTOP\VRFINAL_VRAIMENT\VR_PROJECT\SOURCES\EASYWSCLIENT.CPP
C:\USERS\MOURAD\DESKTOP\VRFINAL_VRAIMENT\VR_PROJECT\GLITTER2017\GLITTER2017\X64\DEBUG\VC141.PDB
^C:\USERS\MOURAD\DESKTOP\VRFINAL_VRAIMENT\VR_PROJECT\SOURCES\EVENTS.CPP
C:\USERS\MOURAD\DESKTOP\VRFINAL_VRAIMENT\VR_PROJECT\GLITTER2017\GLITTER2017\X64\DEBUG\VC141.PDB
^C:\USERS\MOURAD\DESKTOP\VRFINAL_VRAIMENT\VR_PROJECT\SOURCES\GOGAME.CPP
C:\USERS\MOURAD\DESKTOP\VRFINAL_VRAIMENT\VR_PROJECT\GLITTER2017\GLITTER2017\X64\DEBUG\VC141.PDB
C:\USERS\MOURAD\DESKTOP\VRFINAL_VRAIMENT\VR_PROJECT\GLITTER2017\GLITTER2017\X64\DEBUG\VC141.IDB
C:\USERS\MOURAD\DESKTOP\VRFINAL_VRAIMENT\VR_PROJECT\GLITTER2017\GLITTER2017\X64\DEBUG\GOGAME.OBJ
^C:\USERS\MOURAD\DESKTOP\VRFINAL_VRAIMENT\VR_PROJECT\SOURCES\MAIN.CPP
C:\USERS\MOURAD\DESKTOP\VRFINAL_VRAIMENT\VR_PROJECT\GLITTER2017\GLITTER2017\X64\DEBUG\VC141.PDB
C:\USERS\MOURAD\DESKTOP\VRFINAL_VRAIMENT\VR_PROJECT\GLITTER2017\GLITTER2017\X64\DEBUG\VC141.IDB
C:\USERS\MOURAD\DESKTOP\VRFINAL_VRAIMENT\VR_PROJECT\GLITTER2017\GLITTER2017\X64\DEBUG\MAIN.OBJ
^C:\USERS\MOURAD\DESKTOP\VRFINAL_VRAIMENT\VR_PROJECT\SOURCES\RAYPICKER.CPP
C:\USERS\MOURAD\DESKTOP\VRFINAL_VRAIMENT\VR_PROJECT\GLITTER2017\GLITTER2017\X64\DEBUG\VC141.PDB
C:\USERS\MOURAD\DESKTOP\VRFINAL_VRAIMENT\VR_PROJECT\GLITTER2017\GLITTER2017\X64\DEBUG\VC141.IDB
C:\USERS\MOURAD\DESKTOP\VRFINAL_VRAIMENT\VR_PROJECT\GLITTER2017\GLITTER2017\X64\DEBUG\RAYPICKER.OBJ
^C:\USERS\MOURAD\DESKTOP\VRFINAL_VRAIMENT\VR_PROJECT\SOURCES\SHADER.CPP
C:\USERS\MOURAD\DESKTOP\VRFINAL_VRAIMENT\VR_PROJECT\GLITTER2017\GLITTER2017\X64\DEBUG\VC141.PDB
^C:\USERS\MOURAD\DESKTOP\VRFINAL_VRAIMENT\VR_PROJECT\SOURCES\GLAD.C
C:\USERS\MOURAD\DESKTOP\VRFINAL_VRAIMENT\VR_PROJECT\GLITTER2017\GLITTER2017\X64\DEBUG\VC141.PDB
C:\USERS\MOURAD\DESKTOP\VRFINAL_VRAIMENT\VR_PROJECT\GLITTER2017\GLITTER2017\X64\DEBUG\VC141.IDB
C:\USERS\MOURAD\DESKTOP\VRFINAL_VRAIMENT\VR_PROJECT\GLITTER2017\GLITTER2017\X64\DEBUG\GLAD.OBJ
^C:\USERS\MOURAD\DESKTOP\VRFINAL_VRAIMENT\VR_PROJECT\SOURCES\EVENTS.CPP|C:\USERS\MOURAD\DESKTOP\VRFINAL_VRAIMENT\VR_PROJECT\SOURCES\MAIN.CPP|C:\USERS\MOURAD\DESKTOP\VRFINAL_VRAIMENT\VR_PROJECT\SOURCES\RAYPICKER.CPP
C:\USERS\MOURAD\DESKTOP\VRFINAL_VRAIMENT\VR_PROJECT\GLITTER2017\GLITTER2017\X64\DEBUG\VC141.PDB
C:\USERS\MOURAD\DESKTOP\VRFINAL_VRAIMENT\VR_PROJECT\GLITTER2017\GLITTER2017\X64\DEBUG\VC141.IDB
C:\USERS\MOURAD\DESKTOP\VRFINAL_VRAIMENT\VR_PROJECT\GLITTER2017\GLITTER2017\X64\DEBUG\EVENTS.OBJ
C:\USERS\MOURAD\DESKTOP\VRFINAL_VRAIMENT\VR_PROJECT\GLITTER2017\GLITTER2017\X64\DEBUG\RAYPICKER.OBJ
C:\USERS\MOURAD\DESKTOP\VRFINAL_VRAIMENT\VR_PROJECT\GLITTER2017\GLITTER2017\X64\DEBUG\MAIN.OBJ
