^D:\INFOH502\GLITTER2015_2017\GLITTER2015\GLITTER2015\X64\DEBUG\GLAD.OBJ|D:\INFOH502\GLITTER2015_2017\GLITTER2015\GLITTER2015\X64\DEBUG\MAIN.OBJ|D:\INFOH502\GLITTER2015_2017\GLITTER2015\GLITTER2015\X64\DEBUG\SHADER.OBJ
/OUT:"D:\INFOH502\GLITTER2015_2017\GLITTER2015\X64\DEBUG\GLITTER2015.EXE" /INCREMENTAL /NOLOGO "..\..\VENDORS\LIBS\2015\DEBUG\LIB\ASSIMP-VC140-MT.LIB" ..\..\VENDORS\LIBS\2015\DEBUG\LIB\GLFW3DLL.LIB ..\..\VENDORS\LIBS\2015\DEBUG\LIB\IRRXML.LIB KERNEL32.LIB USER32.LIB GDI32.LIB WINSPOOL.LIB COMDLG32.LIB ADVAPI32.LIB SHELL32.LIB OLE32.LIB OLEAUT32.LIB UUID.LIB ODBC32.LIB ODBCCP32.LIB /MANIFEST /MANIFESTUAC:"level='asInvoker' uiAccess='false'" /manifest:embed /DEBUG:FASTLINK /PDB:"D:\INFOH502\GLITTER2015_2017\GLITTER2015\X64\DEBUG\GLITTER2015.PDB" /TLBID:1 /DYNAMICBASE /NXCOMPAT /IMPLIB:"D:\INFOH502\GLITTER2015_2017\GLITTER2015\X64\DEBUG\GLITTER2015.LIB" /MACHINE:X64 X64\DEBUG\GLAD.OBJX64\DEBUG\MAIN.OBJX64\DEBUG\SHADER.OBJ
^H:\INFOH502\GLITTER2015_2017\GLITTER2015\GLITTER2015\X64\DEBUG\GLAD.OBJ|H:\INFOH502\GLITTER2015_2017\GLITTER2015\GLITTER2015\X64\DEBUG\MAIN.OBJ|H:\INFOH502\GLITTER2015_2017\GLITTER2015\GLITTER2015\X64\DEBUG\SHADER.OBJ
/OUT:"H:\INFOH502\GLITTER2015_2017\GLITTER2015\X64\DEBUG\GLITTER2015.EXE" /INCREMENTAL /NOLOGO "..\..\VENDORS\LIBS\2015\DEBUG\LIB\ASSIMP-VC140-MT.LIB" ..\..\VENDORS\LIBS\2015\DEBUG\LIB\GLFW3DLL.LIB ..\..\VENDORS\LIBS\2015\DEBUG\LIB\IRRXML.LIB KERNEL32.LIB USER32.LIB GDI32.LIB WINSPOOL.LIB COMDLG32.LIB ADVAPI32.LIB SHELL32.LIB OLE32.LIB OLEAUT32.LIB UUID.LIB ODBC32.LIB ODBCCP32.LIB /MANIFEST /MANIFESTUAC:"level='asInvoker' uiAccess='false'" /manifest:embed /DEBUG:FASTLINK /PDB:"H:\INFOH502\GLITTER2015_2017\GLITTER2015\X64\DEBUG\GLITTER2015.PDB" /TLBID:1 /DYNAMICBASE /NXCOMPAT /IMPLIB:"H:\INFOH502\GLITTER2015_2017\GLITTER2015\X64\DEBUG\GLITTER2015.LIB" /MACHINE:X64 X64\DEBUG\GLAD.OBJX64\DEBUG\MAIN.OBJX64\DEBUG\SHADER.OBJ
^D:\USERS\ADMINISTRATEUR\DESKTOP\VR_PROJECT-MASTER-085C6C963735BEA82F5EE6348630D382B56BFB80\GLITTER2015\GLITTER2015\X64\DEBUG\EVENTS.OBJ|D:\USERS\ADMINISTRATEUR\DESKTOP\VR_PROJECT-MASTER-085C6C963735BEA82F5EE6348630D382B56BFB80\GLITTER2015\GLITTER2015\X64\DEBUG\GLAD.OBJ|D:\USERS\ADMINISTRATEUR\DESKTOP\VR_PROJECT-MASTER-085C6C963735BEA82F5EE6348630D382B56BFB80\GLITTER2015\GLITTER2015\X64\DEBUG\MAIN.OBJ|D:\USERS\ADMINISTRATEUR\DESKTOP\VR_PROJECT-MASTER-085C6C963735BEA82F5EE6348630D382B56BFB80\GLITTER2015\GLITTER2015\X64\DEBUG\SHADER.OBJ
/OUT:"D:\USERS\ADMINISTRATEUR\DESKTOP\VR_PROJECT-MASTER-085C6C963735BEA82F5EE6348630D382B56BFB80\GLITTER2015\X64\DEBUG\GLITTER2015.EXE" /INCREMENTAL /NOLOGO "..\..\VENDORS\LIBS\2015\DEBUG\LIB\ASSIMP-VC140-MT.LIB" ..\..\VENDORS\LIBS\2015\DEBUG\LIB\GLFW3DLL.LIB ..\..\VENDORS\LIBS\2015\DEBUG\LIB\IRRXML.LIB KERNEL32.LIB USER32.LIB GDI32.LIB WINSPOOL.LIB COMDLG32.LIB ADVAPI32.LIB SHELL32.LIB OLE32.LIB OLEAUT32.LIB UUID.LIB ODBC32.LIB ODBCCP32.LIB /MANIFEST /MANIFESTUAC:"level='asInvoker' uiAccess='false'" /manifest:embed /DEBUG:FASTLINK /PDB:"D:\USERS\ADMINISTRATEUR\DESKTOP\VR_PROJECT-MASTER-085C6C963735BEA82F5EE6348630D382B56BFB80\GLITTER2015\X64\DEBUG\GLITTER2015.PDB" /TLBID:1 /DYNAMICBASE /NXCOMPAT /IMPLIB:"D:\USERS\ADMINISTRATEUR\DESKTOP\VR_PROJECT-MASTER-085C6C963735BEA82F5EE6348630D382B56BFB80\GLITTER2015\X64\DEBUG\GLITTER2015.LIB" /MACHINE:X64 X64\DEBUG\EVENTS.OBJX64\DEBUG\GLAD.OBJX64\DEBUG\MAIN.OBJX64\DEBUG\SHADER.OBJ
^D:\USERS\ADMINISTRATEUR\DESKTOP\VR\GLITTER2015\GLITTER2015\X64\DEBUG\EVENTS.OBJ|D:\USERS\ADMINISTRATEUR\DESKTOP\VR\GLITTER2015\GLITTER2015\X64\DEBUG\GLAD.OBJ|D:\USERS\ADMINISTRATEUR\DESKTOP\VR\GLITTER2015\GLITTER2015\X64\DEBUG\MAIN.OBJ|D:\USERS\ADMINISTRATEUR\DESKTOP\VR\GLITTER2015\GLITTER2015\X64\DEBUG\SHADER.OBJ
/OUT:"D:\USERS\ADMINISTRATEUR\DESKTOP\VR\GLITTER2015\X64\DEBUG\GLITTER2015.EXE" /INCREMENTAL /NOLOGO "..\..\VENDORS\LIBS\2015\DEBUG\LIB\ASSIMP-VC140-MT.LIB" ..\..\VENDORS\LIBS\2015\DEBUG\LIB\GLFW3DLL.LIB ..\..\VENDORS\LIBS\2015\DEBUG\LIB\IRRXML.LIB KERNEL32.LIB USER32.LIB GDI32.LIB WINSPOOL.LIB COMDLG32.LIB ADVAPI32.LIB SHELL32.LIB OLE32.LIB OLEAUT32.LIB UUID.LIB ODBC32.LIB ODBCCP32.LIB /MANIFEST /MANIFESTUAC:"level='asInvoker' uiAccess='false'" /manifest:embed /DEBUG:FASTLINK /PDB:"D:\USERS\ADMINISTRATEUR\DESKTOP\VR\GLITTER2015\X64\DEBUG\GLITTER2015.PDB" /TLBID:1 /DYNAMICBASE /NXCOMPAT /IMPLIB:"D:\USERS\ADMINISTRATEUR\DESKTOP\VR\GLITTER2015\X64\DEBUG\GLITTER2015.LIB" /MACHINE:X64 X64\DEBUG\EVENTS.OBJX64\DEBUG\GLAD.OBJX64\DEBUG\MAIN.OBJX64\DEBUG\SHADER.OBJ
