# Blender v2.79 (sub 0) OBJ File: 'goboardv2blend.blend'
# www.blender.org
o White_Stone_Sphere
v 1833.244873 -298.487549 1628.418701
v 1833.244873 -307.630920 1630.147339
v 1833.582153 -298.487549 1628.451904
v 1833.911011 -298.656067 1626.798340
v 1834.223511 -298.932281 1625.227173
v 1834.511963 -299.309448 1623.777100
v 1834.769165 -299.778229 1622.483887
v 1834.988892 -300.327087 1621.379517
v 1835.165649 -300.942566 1620.490845
v 1835.295166 -301.609436 1619.840088
v 1835.374023 -302.311340 1619.443115
v 1835.400635 -303.030914 1619.309692
v 1835.374023 -303.750519 1619.443115
v 1835.295166 -304.452393 1619.840088
v 1835.165649 -305.119263 1620.490845
v 1834.988892 -305.734741 1621.379517
v 1834.769165 -306.283630 1622.484009
v 1834.511963 -306.752380 1623.777100
v 1834.223511 -307.129547 1625.227173
v 1833.911011 -307.405762 1626.798340
v 1833.582153 -307.574280 1628.451904
v 1833.906372 -298.487549 1628.550293
v 1834.551636 -298.656067 1626.992676
v 1835.164673 -298.932281 1625.512573
v 1835.730469 -299.309448 1624.146729
v 1836.234985 -299.778229 1622.928589
v 1836.665894 -300.327087 1621.888184
v 1837.012573 -300.942566 1621.051147
v 1837.266602 -301.609436 1620.438110
v 1837.421509 -302.311340 1620.064209
v 1837.473511 -303.030914 1619.938477
v 1837.421509 -303.750519 1620.064209
v 1837.266602 -304.452393 1620.438110
v 1837.012573 -305.119263 1621.051147
v 1836.665894 -305.734741 1621.888184
v 1836.234985 -306.283630 1622.928589
v 1835.730469 -306.752380 1624.146729
v 1835.164673 -307.129547 1625.512573
v 1834.551636 -307.405762 1626.992676
v 1833.906372 -307.574280 1628.550293
v 1834.205200 -298.487549 1628.710083
v 1835.141968 -298.656067 1627.308228
v 1836.031982 -298.932281 1625.976196
v 1836.853271 -299.309448 1624.746948
v 1837.585815 -299.778229 1623.650635
v 1838.211426 -300.327087 1622.714355
v 1838.714844 -300.942566 1621.961060
v 1839.083496 -301.609436 1621.409302
v 1839.308350 -302.311340 1621.072754
v 1839.383911 -303.030914 1620.959595
v 1839.308350 -303.750519 1621.072754
v 1839.083496 -304.452393 1621.409302
v 1838.714844 -305.119263 1621.961060
v 1838.211426 -305.734741 1622.714355
v 1837.585815 -306.283630 1623.650635
v 1836.853271 -306.752380 1624.746948
v 1836.031982 -307.129547 1625.976196
v 1835.141968 -307.405762 1627.308228
v 1834.205200 -307.574280 1628.710083
v 1834.467163 -298.487549 1628.925049
v 1835.659424 -298.656067 1627.732788
v 1836.792114 -298.932281 1626.600098
v 1837.837524 -299.309448 1625.554688
v 1838.769897 -299.778229 1624.622314
v 1839.566162 -300.327087 1623.826050
v 1840.206787 -300.942566 1623.185425
v 1840.676025 -301.609436 1622.716187
v 1840.962158 -302.311340 1622.430054
v 1841.058350 -303.030914 1622.333862
v 1840.962158 -303.750519 1622.430054
v 1840.676025 -304.452393 1622.716187
v 1840.206787 -305.119263 1623.185425
v 1839.566162 -305.734741 1623.826050
v 1838.769897 -306.283630 1624.622314
v 1837.837524 -306.752380 1625.554688
v 1836.792114 -307.129547 1626.600098
v 1835.659424 -307.405762 1627.732788
v 1834.467163 -307.574280 1628.925049
v 1834.682129 -298.487549 1629.187012
v 1836.084106 -298.656067 1628.250244
v 1837.416016 -298.932281 1627.360229
v 1838.645264 -299.309448 1626.538940
v 1839.741577 -299.778229 1625.806396
v 1840.677856 -300.327087 1625.180786
v 1841.431152 -300.942566 1624.677368
v 1841.982910 -301.609436 1624.308716
v 1842.319458 -302.311340 1624.083862
v 1842.432617 -303.030914 1624.008301
v 1842.319458 -303.750519 1624.083862
v 1841.982910 -304.452393 1624.308716
v 1841.431152 -305.119263 1624.677368
v 1840.677856 -305.734741 1625.180786
v 1839.741577 -306.283630 1625.806396
v 1838.645264 -306.752380 1626.538940
v 1837.416016 -307.129547 1627.360229
v 1836.083984 -307.405762 1628.250244
v 1834.682129 -307.574280 1629.187012
v 1834.841919 -298.487549 1629.485840
v 1836.399536 -298.656067 1628.840576
v 1837.879639 -298.932281 1628.227539
v 1839.245483 -299.309448 1627.661865
v 1840.463623 -299.778229 1627.157227
v 1841.504028 -300.327087 1626.726318
v 1842.341064 -300.942566 1626.379639
v 1842.954102 -301.609436 1626.125610
v 1843.328003 -302.311340 1625.970703
v 1843.453735 -303.030914 1625.918701
v 1843.328003 -303.750519 1625.970703
v 1842.954102 -304.452393 1626.125610
v 1842.341064 -305.119263 1626.379639
v 1841.504028 -305.734741 1626.726318
v 1840.463623 -306.283630 1627.157227
v 1839.245483 -306.752380 1627.661865
v 1837.879639 -307.129547 1628.227539
v 1836.399536 -307.405762 1628.840576
v 1834.841919 -307.574280 1629.485840
v 1834.940308 -298.487549 1629.810059
v 1836.593872 -298.656067 1629.481201
v 1838.165039 -298.932281 1629.168701
v 1839.615112 -299.309448 1628.880249
v 1840.908325 -299.778229 1628.623047
v 1842.012695 -300.327087 1628.403320
v 1842.901367 -300.942566 1628.226562
v 1843.552124 -301.609436 1628.097168
v 1843.949097 -302.311340 1628.018188
v 1844.082520 -303.030914 1627.991577
v 1843.949097 -303.750519 1628.018188
v 1843.552124 -304.452393 1628.097168
v 1842.901367 -305.119263 1628.226562
v 1842.012695 -305.734741 1628.403320
v 1840.908325 -306.283630 1628.623047
v 1839.615112 -306.752380 1628.880249
v 1838.165039 -307.129547 1629.168701
v 1836.593872 -307.405762 1629.481201
v 1834.940308 -307.574280 1629.810059
v 1834.973511 -298.487549 1630.147339
v 1836.659546 -298.656067 1630.147339
v 1838.261475 -298.932281 1630.147339
v 1839.739868 -299.309448 1630.147339
v 1841.058350 -299.778229 1630.147339
v 1842.184570 -300.327087 1630.147339
v 1843.090454 -300.942566 1630.147339
v 1843.754028 -301.609436 1630.147339
v 1844.158813 -302.311340 1630.147339
v 1844.294922 -303.030914 1630.147339
v 1844.158813 -303.750519 1630.147339
v 1843.754028 -304.452393 1630.147339
v 1843.090454 -305.119263 1630.147339
v 1842.184570 -305.734741 1630.147339
v 1841.058350 -306.283630 1630.147339
v 1839.739868 -306.752380 1630.147339
v 1838.261475 -307.129547 1630.147339
v 1836.659546 -307.405762 1630.147339
v 1834.973511 -307.574280 1630.147339
v 1834.940308 -298.487549 1630.484619
v 1836.593872 -298.656067 1630.813477
v 1838.165039 -298.932281 1631.126099
v 1839.615112 -299.309448 1631.414429
v 1840.908325 -299.778229 1631.671753
v 1842.012695 -300.327087 1631.891357
v 1842.901367 -300.942566 1632.068115
v 1843.552124 -301.609436 1632.197632
v 1843.949097 -302.311340 1632.276611
v 1844.082520 -303.030914 1632.303101
v 1843.949097 -303.750519 1632.276611
v 1843.552124 -304.452393 1632.197632
v 1842.901367 -305.119263 1632.068115
v 1842.012695 -305.734741 1631.891357
v 1840.908325 -306.283630 1631.671753
v 1839.615112 -306.752380 1631.414429
v 1838.165039 -307.129547 1631.125977
v 1836.593872 -307.405762 1630.813477
v 1834.940308 -307.574280 1630.484619
v 1834.841919 -298.487549 1630.808838
v 1836.399536 -298.656067 1631.454102
v 1837.879639 -298.932281 1632.067139
v 1839.245483 -299.309448 1632.632935
v 1840.463623 -299.778229 1633.137451
v 1841.504028 -300.327087 1633.568359
v 1842.341064 -300.942566 1633.915161
v 1842.954102 -301.609436 1634.169067
v 1843.328003 -302.311340 1634.323975
v 1843.453735 -303.030914 1634.375977
v 1843.328003 -303.750519 1634.323975
v 1842.954102 -304.452393 1634.169067
v 1842.341064 -305.119263 1633.915161
v 1841.504028 -305.734741 1633.568359
v 1840.463623 -306.283630 1633.137451
v 1839.245483 -306.752380 1632.632935
v 1837.879639 -307.129547 1632.067139
v 1836.399536 -307.405762 1631.454102
v 1834.841919 -307.574280 1630.808838
v 1834.682129 -298.487549 1631.107666
v 1836.083984 -298.656067 1632.044434
v 1837.416016 -298.932281 1632.934448
v 1838.645264 -299.309448 1633.755737
v 1839.741577 -299.778229 1634.488281
v 1840.677856 -300.327087 1635.113892
v 1841.431152 -300.942566 1635.617310
v 1841.982910 -301.609436 1635.985962
v 1842.319458 -302.311340 1636.210815
v 1842.432617 -303.030914 1636.286377
v 1842.319458 -303.750519 1636.210815
v 1841.982910 -304.452393 1635.985962
v 1841.431152 -305.119263 1635.617310
v 1840.677856 -305.734741 1635.113892
v 1839.741577 -306.283630 1634.488281
v 1838.645264 -306.752380 1633.755737
v 1837.416016 -307.129547 1632.934448
v 1836.083984 -307.405762 1632.044434
v 1834.682129 -307.574280 1631.107666
v 1834.467163 -298.487549 1631.369629
v 1835.659424 -298.656067 1632.561890
v 1836.792114 -298.932281 1633.694580
v 1837.837524 -299.309448 1634.739990
v 1838.769897 -299.778229 1635.672363
v 1839.566162 -300.327087 1636.468628
v 1840.206787 -300.942566 1637.109253
v 1840.676025 -301.609436 1637.578491
v 1840.962158 -302.311340 1637.864746
v 1841.058350 -303.030914 1637.960938
v 1840.962158 -303.750519 1637.864624
v 1840.676025 -304.452393 1637.578491
v 1840.206787 -305.119263 1637.109253
v 1839.566162 -305.734741 1636.468628
v 1838.769897 -306.283630 1635.672363
v 1837.837524 -306.752380 1634.739990
v 1836.792114 -307.129547 1633.694580
v 1835.659424 -307.405762 1632.561890
v 1834.467163 -307.574280 1631.369629
v 1834.205200 -298.487549 1631.584595
v 1835.141968 -298.656067 1632.986572
v 1836.031982 -298.932281 1634.318481
v 1836.853271 -299.309448 1635.547729
v 1837.585815 -299.778229 1636.644043
v 1838.211426 -300.327087 1637.580444
v 1838.714844 -300.942566 1638.333740
v 1839.083496 -301.609436 1638.885376
v 1839.308350 -302.311340 1639.221924
v 1839.383911 -303.030914 1639.335083
v 1839.308350 -303.750519 1639.221924
v 1839.083496 -304.452393 1638.885376
v 1838.714844 -305.119263 1638.333740
v 1838.211426 -305.734741 1637.580444
v 1837.585815 -306.283630 1636.644043
v 1836.853271 -306.752380 1635.547729
v 1836.031982 -307.129547 1634.318481
v 1835.141968 -307.405762 1632.986572
v 1834.205200 -307.574280 1631.584595
v 1833.906372 -298.487549 1631.744385
v 1834.551636 -298.656067 1633.302124
v 1835.164673 -298.932281 1634.782104
v 1835.730469 -299.309448 1636.147949
v 1836.234985 -299.778229 1637.366089
v 1836.665894 -300.327087 1638.406494
v 1837.012573 -300.942566 1639.243530
v 1837.266602 -301.609436 1639.856567
v 1837.421509 -302.311340 1640.230591
v 1837.473511 -303.030914 1640.356201
v 1837.421509 -303.750519 1640.230591
v 1837.266602 -304.452393 1639.856567
v 1837.012573 -305.119263 1639.243530
v 1836.665894 -305.734741 1638.406494
v 1836.234985 -306.283630 1637.366089
v 1835.730469 -306.752380 1636.147949
v 1835.164673 -307.129547 1634.782104
v 1834.551636 -307.405762 1633.302002
v 1833.906372 -307.574280 1631.744385
v 1833.582153 -298.487549 1631.842773
v 1833.911011 -298.656067 1633.496338
v 1834.223511 -298.932281 1635.067505
v 1834.511963 -299.309448 1636.517578
v 1834.769165 -299.778229 1637.810791
v 1834.988892 -300.327087 1638.915161
v 1835.165649 -300.942566 1639.803833
v 1835.295166 -301.609436 1640.454590
v 1835.374023 -302.311340 1640.851562
v 1835.400635 -303.030914 1640.984985
v 1835.374023 -303.750519 1640.851562
v 1835.295166 -304.452393 1640.454590
v 1835.165649 -305.119263 1639.803833
v 1834.988892 -305.734741 1638.915161
v 1834.769165 -306.283630 1637.810791
v 1834.511963 -306.752380 1636.517578
v 1834.223511 -307.129547 1635.067505
v 1833.911011 -307.405762 1633.496338
v 1833.582153 -307.574280 1631.842773
v 1833.244873 -298.487549 1631.875977
v 1833.244873 -298.656067 1633.562012
v 1833.244873 -298.932281 1635.163940
v 1833.244873 -299.309448 1636.642334
v 1833.244873 -299.778229 1637.960938
v 1833.244873 -300.327087 1639.087036
v 1833.244873 -300.942566 1639.992920
v 1833.244873 -301.609436 1640.656494
v 1833.244873 -302.311340 1641.061279
v 1833.244873 -303.030914 1641.197388
v 1833.244873 -303.750519 1641.061279
v 1833.244873 -304.452393 1640.656494
v 1833.244873 -305.119263 1639.992920
v 1833.244873 -305.734741 1639.087036
v 1833.244873 -306.283630 1637.960938
v 1833.244873 -306.752380 1636.642334
v 1833.244873 -307.129547 1635.163940
v 1833.244873 -307.405762 1633.562012
v 1833.244873 -307.574280 1631.875977
v 1832.907593 -298.487549 1631.842773
v 1832.578735 -298.656067 1633.496338
v 1832.266235 -298.932281 1635.067505
v 1831.977783 -299.309448 1636.517578
v 1831.720581 -299.778229 1637.810791
v 1831.500854 -300.327087 1638.915161
v 1831.324097 -300.942566 1639.803833
v 1831.194580 -301.609436 1640.454590
v 1831.115723 -302.311340 1640.851562
v 1831.089111 -303.030914 1640.984985
v 1831.115723 -303.750519 1640.851562
v 1831.194580 -304.452393 1640.454590
v 1831.324097 -305.119263 1639.803833
v 1831.500854 -305.734741 1638.915161
v 1831.720581 -306.283630 1637.810791
v 1831.977783 -306.752380 1636.517578
v 1832.266235 -307.129547 1635.067505
v 1832.578735 -307.405762 1633.496338
v 1832.907593 -307.574280 1631.842773
v 1832.583374 -298.487549 1631.744385
v 1831.938110 -298.656067 1633.302124
v 1831.325073 -298.932281 1634.782104
v 1830.759277 -299.309448 1636.147949
v 1830.254761 -299.778229 1637.366089
v 1829.823853 -300.327087 1638.406494
v 1829.477173 -300.942566 1639.243530
v 1829.223145 -301.609436 1639.856567
v 1829.068237 -302.311340 1640.230591
v 1829.016235 -303.030914 1640.356201
v 1829.068237 -303.750519 1640.230469
v 1829.223145 -304.452393 1639.856567
v 1829.477173 -305.119263 1639.243530
v 1829.823853 -305.734741 1638.406494
v 1830.254761 -306.283630 1637.366089
v 1830.759277 -306.752380 1636.147949
v 1831.325073 -307.129547 1634.782104
v 1831.938110 -307.405762 1633.302002
v 1832.583374 -307.574280 1631.744385
v 1832.284546 -298.487549 1631.584595
v 1831.347778 -298.656067 1632.986572
v 1830.457764 -298.932281 1634.318481
v 1829.636475 -299.309448 1635.547729
v 1828.903931 -299.778229 1636.644043
v 1828.278320 -300.327087 1637.580444
v 1827.774902 -300.942566 1638.333740
v 1827.406250 -301.609436 1638.885376
v 1827.181396 -302.311340 1639.221924
v 1827.105835 -303.030914 1639.335083
v 1827.181396 -303.750519 1639.221924
v 1827.406250 -304.452393 1638.885376
v 1827.774902 -305.119263 1638.333740
v 1828.278320 -305.734741 1637.580444
v 1828.903931 -306.283630 1636.644043
v 1829.636475 -306.752380 1635.547729
v 1830.457764 -307.129547 1634.318481
v 1831.347778 -307.405762 1632.986572
v 1832.284546 -307.574280 1631.584595
v 1833.244873 -298.430908 1630.147339
v 1832.022583 -298.487549 1631.369629
v 1830.830322 -298.656067 1632.561890
v 1829.697632 -298.932281 1633.694580
v 1828.652222 -299.309448 1634.739990
v 1827.719849 -299.778229 1635.672363
v 1826.923584 -300.327087 1636.468628
v 1826.282959 -300.942566 1637.109253
v 1825.813721 -301.609436 1637.578491
v 1825.527588 -302.311340 1637.864624
v 1825.431396 -303.030914 1637.960938
v 1825.527588 -303.750519 1637.864624
v 1825.813721 -304.452393 1637.578491
v 1826.282959 -305.119263 1637.109253
v 1826.923584 -305.734741 1636.468628
v 1827.719849 -306.283630 1635.672363
v 1828.652222 -306.752380 1634.739990
v 1829.697632 -307.129547 1633.694580
v 1830.830322 -307.405762 1632.561890
v 1832.022583 -307.574280 1631.369629
v 1831.807617 -298.487549 1631.107666
v 1830.405640 -298.656067 1632.044434
v 1829.073730 -298.932281 1632.934448
v 1827.844482 -299.309448 1633.755737
v 1826.748169 -299.778229 1634.488281
v 1825.811890 -300.327087 1635.113892
v 1825.058594 -300.942566 1635.617310
v 1824.506836 -301.609436 1635.985962
v 1824.170288 -302.311340 1636.210815
v 1824.057129 -303.030914 1636.286377
v 1824.170288 -303.750519 1636.210815
v 1824.506836 -304.452393 1635.985962
v 1825.058594 -305.119263 1635.617310
v 1825.811890 -305.734741 1635.113892
v 1826.748169 -306.283630 1634.488281
v 1827.844482 -306.752380 1633.755737
v 1829.073730 -307.129547 1632.934448
v 1830.405762 -307.405762 1632.044434
v 1831.807617 -307.574280 1631.107666
v 1831.647827 -298.487549 1630.808838
v 1830.090210 -298.656067 1631.454102
v 1828.610107 -298.932281 1632.067139
v 1827.244263 -299.309448 1632.632935
v 1826.026123 -299.778229 1633.137451
v 1824.985718 -300.327087 1633.568359
v 1824.148682 -300.942566 1633.915161
v 1823.535645 -301.609436 1634.169067
v 1823.161743 -302.311340 1634.323975
v 1823.036011 -303.030914 1634.375977
v 1823.161743 -303.750519 1634.323975
v 1823.535645 -304.452393 1634.169067
v 1824.148682 -305.119263 1633.915161
v 1824.985718 -305.734741 1633.568359
v 1826.026123 -306.283630 1633.137451
v 1827.244263 -306.752380 1632.632935
v 1828.610107 -307.129547 1632.067139
v 1830.090210 -307.405762 1631.454102
v 1831.647827 -307.574280 1630.808838
v 1831.549438 -298.487549 1630.484619
v 1829.895874 -298.656067 1630.813477
v 1828.324707 -298.932281 1631.125977
v 1826.874634 -299.309448 1631.414429
v 1825.581421 -299.778229 1631.671631
v 1824.477051 -300.327087 1631.891357
v 1823.588379 -300.942566 1632.068115
v 1822.937622 -301.609436 1632.197632
v 1822.540649 -302.311340 1632.276611
v 1822.407227 -303.030914 1632.303101
v 1822.540649 -303.750519 1632.276611
v 1822.937622 -304.452393 1632.197632
v 1823.588379 -305.119263 1632.068115
v 1824.477051 -305.734741 1631.891357
v 1825.581421 -306.283630 1631.671631
v 1826.874634 -306.752380 1631.414429
v 1828.324707 -307.129547 1631.125977
v 1829.895874 -307.405762 1630.813477
v 1831.549438 -307.574280 1630.484619
v 1831.516235 -298.487549 1630.147339
v 1829.830200 -298.656067 1630.147339
v 1828.228271 -298.932281 1630.147339
v 1826.749878 -299.309448 1630.147339
v 1825.431396 -299.778229 1630.147339
v 1824.305298 -300.327087 1630.147339
v 1823.399292 -300.942566 1630.147339
v 1822.735718 -301.609436 1630.147339
v 1822.330933 -302.311340 1630.147339
v 1822.194824 -303.030914 1630.147339
v 1822.330933 -303.750519 1630.147339
v 1822.735718 -304.452393 1630.147339
v 1823.399292 -305.119263 1630.147339
v 1824.305298 -305.734741 1630.147339
v 1825.431396 -306.283630 1630.147339
v 1826.749878 -306.752380 1630.147339
v 1828.228271 -307.129547 1630.147339
v 1829.830200 -307.405762 1630.147339
v 1831.516235 -307.574280 1630.147339
v 1831.549438 -298.487549 1629.810059
v 1829.895874 -298.656067 1629.481201
v 1828.324707 -298.932281 1629.168701
v 1826.874634 -299.309448 1628.880249
v 1825.581421 -299.778229 1628.623047
v 1824.477051 -300.327087 1628.403320
v 1823.588379 -300.942566 1628.226562
v 1822.937622 -301.609436 1628.097168
v 1822.540649 -302.311340 1628.018188
v 1822.407227 -303.030914 1627.991577
v 1822.540649 -303.750519 1628.018188
v 1822.937622 -304.452393 1628.097168
v 1823.588379 -305.119263 1628.226562
v 1824.477051 -305.734741 1628.403320
v 1825.581543 -306.283630 1628.623047
v 1826.874634 -306.752380 1628.880249
v 1828.324707 -307.129547 1629.168701
v 1829.895874 -307.405762 1629.481201
v 1831.549438 -307.574280 1629.810059
v 1831.647827 -298.487549 1629.485840
v 1830.090210 -298.656067 1628.840576
v 1828.610107 -298.932281 1628.227539
v 1827.244263 -299.309448 1627.661865
v 1826.026123 -299.778229 1627.157227
v 1824.985718 -300.327087 1626.726318
v 1824.148682 -300.942566 1626.379639
v 1823.535645 -301.609436 1626.125610
v 1823.161743 -302.311340 1625.970703
v 1823.036011 -303.030914 1625.918701
v 1823.161743 -303.750519 1625.970703
v 1823.535645 -304.452393 1626.125610
v 1824.148682 -305.119263 1626.379639
v 1824.985718 -305.734741 1626.726318
v 1826.026123 -306.283630 1627.157227
v 1827.244263 -306.752380 1627.661865
v 1828.610107 -307.129547 1628.227539
v 1830.090210 -307.405762 1628.840576
v 1831.647827 -307.574280 1629.485840
v 1831.807617 -298.487549 1629.187012
v 1830.405762 -298.656067 1628.250244
v 1829.073730 -298.932281 1627.360229
v 1827.844482 -299.309448 1626.538940
v 1826.748169 -299.778229 1625.806396
v 1825.811890 -300.327087 1625.180786
v 1825.058594 -300.942566 1624.677368
v 1824.506836 -301.609436 1624.308716
v 1824.170288 -302.311340 1624.083862
v 1824.057129 -303.030914 1624.008301
v 1824.170288 -303.750519 1624.083862
v 1824.506836 -304.452393 1624.308716
v 1825.058594 -305.119263 1624.677368
v 1825.811890 -305.734741 1625.180786
v 1826.748169 -306.283630 1625.806396
v 1827.844482 -306.752380 1626.538940
v 1829.073730 -307.129547 1627.360229
v 1830.405762 -307.405762 1628.250244
v 1831.807617 -307.574280 1629.187012
v 1832.022583 -298.487549 1628.925049
v 1830.830322 -298.656067 1627.732788
v 1829.697632 -298.932281 1626.600098
v 1828.652222 -299.309448 1625.554688
v 1827.719849 -299.778229 1624.622314
v 1826.923584 -300.327087 1623.826050
v 1826.282959 -300.942566 1623.185425
v 1825.813721 -301.609436 1622.716187
v 1825.527588 -302.311340 1622.430054
v 1825.431396 -303.030914 1622.333862
v 1825.527588 -303.750519 1622.430054
v 1825.813721 -304.452393 1622.716187
v 1826.282959 -305.119263 1623.185425
v 1826.923584 -305.734741 1623.826050
v 1827.719849 -306.283630 1624.622314
v 1828.652222 -306.752380 1625.554688
v 1829.697632 -307.129547 1626.600098
v 1830.830322 -307.405762 1627.732788
v 1832.022583 -307.574280 1628.925049
v 1832.284546 -298.487549 1628.710083
v 1831.347778 -298.656067 1627.308228
v 1830.457764 -298.932281 1625.976196
v 1829.636475 -299.309448 1624.746948
v 1828.903931 -299.778229 1623.650635
v 1828.278320 -300.327087 1622.714355
v 1827.774902 -300.942566 1621.961060
v 1827.406250 -301.609436 1621.409302
v 1827.181396 -302.311340 1621.072754
v 1827.105835 -303.030914 1620.959595
v 1827.181396 -303.750519 1621.072754
v 1827.406250 -304.452393 1621.409302
v 1827.774902 -305.119263 1621.961060
v 1828.278320 -305.734741 1622.714355
v 1828.903931 -306.283630 1623.650635
v 1829.636475 -306.752380 1624.746948
v 1830.457764 -307.129547 1625.976196
v 1831.347778 -307.405762 1627.308228
v 1832.284546 -307.574280 1628.710083
v 1832.583374 -298.487549 1628.550293
v 1831.938110 -298.656067 1626.992676
v 1831.325073 -298.932281 1625.512573
v 1830.759277 -299.309448 1624.146729
v 1830.254761 -299.778229 1622.928589
v 1829.823853 -300.327087 1621.888184
v 1829.477173 -300.942566 1621.051147
v 1829.223145 -301.609436 1620.438110
v 1829.068237 -302.311340 1620.064209
v 1829.016235 -303.030914 1619.938477
v 1829.068237 -303.750519 1620.064209
v 1829.223145 -304.452393 1620.438110
v 1829.477173 -305.119263 1621.051147
v 1829.823853 -305.734741 1621.888184
v 1830.254761 -306.283630 1622.928589
v 1830.759277 -306.752380 1624.146729
v 1831.325073 -307.129547 1625.512573
v 1831.938110 -307.405762 1626.992676
v 1832.583374 -307.574280 1628.550293
v 1832.907593 -298.487549 1628.451904
v 1832.578735 -298.656067 1626.798340
v 1832.266235 -298.932281 1625.227173
v 1831.977783 -299.309448 1623.777100
v 1831.720581 -299.778229 1622.484009
v 1831.500854 -300.327087 1621.379517
v 1831.324097 -300.942566 1620.490967
v 1831.194580 -301.609436 1619.840088
v 1831.115723 -302.311340 1619.443115
v 1831.089111 -303.030914 1619.309692
v 1831.115723 -303.750519 1619.443115
v 1831.194580 -304.452393 1619.840088
v 1831.324097 -305.119263 1620.490967
v 1831.500854 -305.734741 1621.379517
v 1831.720581 -306.283630 1622.484009
v 1831.977783 -306.752380 1623.777100
v 1832.266235 -307.129547 1625.227173
v 1832.578735 -307.405762 1626.798340
v 1832.907593 -307.574280 1628.451904
v 1833.244873 -298.656067 1626.732666
v 1833.244873 -298.932281 1625.130737
v 1833.244873 -299.309448 1623.652344
v 1833.244873 -299.778229 1622.333862
v 1833.244873 -300.327087 1621.207764
v 1833.244873 -300.942566 1620.301758
v 1833.244873 -301.609436 1619.638184
v 1833.244873 -302.311340 1619.233398
v 1833.244873 -303.030914 1619.097412
v 1833.244873 -303.750519 1619.233398
v 1833.244873 -304.452393 1619.638184
v 1833.244873 -305.119263 1620.301758
v 1833.244873 -305.734741 1621.207764
v 1833.244873 -306.283630 1622.333862
v 1833.244873 -306.752380 1623.652344
v 1833.244873 -307.129547 1625.130737
v 1833.244873 -307.405762 1626.732666
v 1833.244873 -307.574280 1628.418701
vn 0.0000 0.9906 -0.1369
vn 0.0411 0.9775 -0.2070
vn 0.0000 0.9774 -0.2111
vn 0.0000 -0.9906 -0.1369
vn 0.0411 -0.9775 -0.2070
vn 0.0267 -0.9906 -0.1343
vn 0.0000 0.0000 -1.0000
vn 0.1831 -0.3442 -0.9208
vn 0.0000 -0.3442 -0.9389
vn 0.0000 0.9558 -0.2940
vn 0.0573 0.9558 -0.2884
vn 0.0000 -0.9977 -0.0682
vn 0.0133 -0.9977 -0.0669
vn 0.0000 -0.6037 -0.7972
vn 0.1555 -0.6037 -0.7819
vn 0.0000 0.9207 -0.3901
vn 0.0761 0.9207 -0.3826
vn 0.0000 -1.0000 0.0000
vn 0.1252 -0.7668 -0.6295
vn -0.0000 -0.7669 -0.6418
vn 0.0000 0.8633 -0.5046
vn 0.0984 0.8633 -0.4949
vn 0.0984 -0.8633 -0.4949
vn 0.0000 -0.8633 -0.5046
vn -0.0000 0.7669 -0.6418
vn 0.1252 0.7668 -0.6295
vn 0.0761 -0.9207 -0.3826
vn 0.0000 -0.9207 -0.3901
vn 0.0000 0.6037 -0.7972
vn 0.1555 0.6037 -0.7819
vn 0.0000 0.9977 -0.0681
vn 0.0000 1.0000 0.0000
vn 0.0133 0.9977 -0.0669
vn 0.0000 -0.9558 -0.2940
vn 0.0573 -0.9558 -0.2884
vn 0.1831 0.3442 -0.9208
vn 0.0000 0.3442 -0.9389
vn 0.0267 0.9906 -0.1343
vn 0.0000 -0.9774 -0.2111
vn 0.1951 0.0000 -0.9808
vn 0.0261 -0.9977 -0.0630
vn 0.2456 -0.7668 -0.5929
vn 0.1931 0.8633 -0.4662
vn 0.1931 -0.8633 -0.4662
vn 0.2456 0.7668 -0.5930
vn 0.1493 -0.9207 -0.3604
vn 0.3051 0.6037 -0.7365
vn 0.0261 0.9977 -0.0630
vn 0.1125 -0.9558 -0.2716
vn 0.3593 0.3442 -0.8674
vn 0.0524 0.9906 -0.1265
vn 0.0808 -0.9774 -0.1950
vn 0.3827 0.0000 -0.9239
vn 0.0808 0.9774 -0.1950
vn 0.0524 -0.9906 -0.1265
vn 0.3593 -0.3441 -0.8674
vn 0.1125 0.9558 -0.2716
vn 0.3051 -0.6037 -0.7365
vn 0.1493 0.9207 -0.3604
vn 0.1633 -0.9558 -0.2445
vn 0.4429 0.6037 -0.6628
vn 0.5216 0.3442 -0.7806
vn 0.0761 0.9906 -0.1138
vn 0.1173 -0.9774 -0.1755
vn 0.5555 -0.0000 -0.8315
vn 0.1173 0.9774 -0.1755
vn 0.0761 -0.9906 -0.1138
vn 0.5216 -0.3443 -0.7806
vn 0.1633 0.9558 -0.2445
vn 0.0379 -0.9977 -0.0567
vn 0.4429 -0.6037 -0.6628
vn 0.2167 0.9207 -0.3244
vn 0.3565 -0.7668 -0.5336
vn 0.2804 0.8633 -0.4196
vn 0.2804 -0.8633 -0.4196
vn 0.3565 0.7668 -0.5336
vn 0.2167 -0.9207 -0.3244
vn 0.0379 0.9977 -0.0567
vn 0.6639 -0.3441 -0.6639
vn 0.5637 -0.6037 -0.5637
vn 0.2079 0.9558 -0.2079
vn 0.2759 0.9207 -0.2759
vn 0.0482 -0.9977 -0.0482
vn 0.4538 -0.7668 -0.4538
vn 0.3569 0.8633 -0.3568
vn 0.3569 -0.8633 -0.3568
vn 0.4538 0.7668 -0.4538
vn 0.2759 -0.9207 -0.2759
vn 0.5637 0.6037 -0.5637
vn 0.0482 0.9977 -0.0482
vn 0.2079 -0.9558 -0.2079
vn 0.6639 0.3441 -0.6639
vn 0.0968 0.9906 -0.0968
vn 0.1493 -0.9774 -0.1493
vn 0.7071 0.0000 -0.7071
vn 0.1492 0.9774 -0.1492
vn 0.0968 -0.9906 -0.0968
vn 0.6628 0.6037 -0.4429
vn 0.0567 0.9977 -0.0379
vn 0.3243 -0.9208 -0.2167
vn 0.2444 -0.9558 -0.1633
vn 0.7806 0.3442 -0.5216
vn 0.1139 0.9906 -0.0761
vn 0.1755 -0.9774 -0.1173
vn 0.8314 0.0000 -0.5556
vn 0.1755 0.9774 -0.1173
vn 0.1139 -0.9906 -0.0761
vn 0.7806 -0.3443 -0.5216
vn 0.2445 0.9558 -0.1633
vn 0.0567 -0.9977 -0.0379
vn 0.6628 -0.6037 -0.4429
vn 0.3243 0.9208 -0.2167
vn 0.5337 -0.7668 -0.3565
vn 0.4196 0.8633 -0.2803
vn 0.4196 -0.8633 -0.2803
vn 0.5336 0.7668 -0.3565
vn 0.1950 0.9774 -0.0808
vn 0.2716 0.9558 -0.1125
vn 0.1265 -0.9906 -0.0524
vn 0.0630 -0.9977 -0.0261
vn 0.8674 -0.3441 -0.3593
vn 0.7365 -0.6037 -0.3051
vn 0.3605 0.9207 -0.1493
vn 0.5929 -0.7669 -0.2456
vn 0.4662 0.8633 -0.1931
vn 0.4662 -0.8633 -0.1931
vn 0.5929 0.7669 -0.2456
vn 0.3604 -0.9207 -0.1493
vn 0.7365 0.6037 -0.3051
vn 0.0630 0.9977 -0.0261
vn 0.2716 -0.9558 -0.1125
vn 0.8674 0.3441 -0.3593
vn 0.1265 0.9906 -0.0524
vn 0.1950 -0.9774 -0.0808
vn 0.9239 0.0000 -0.3826
vn 0.3826 -0.9207 -0.0761
vn 0.7819 0.6037 -0.1555
vn 0.0669 0.9977 -0.0133
vn 0.2883 -0.9558 -0.0573
vn 0.9209 0.3442 -0.1832
vn 0.1343 0.9906 -0.0267
vn 0.2070 -0.9774 -0.0412
vn 0.9808 0.0000 -0.1951
vn 0.2070 0.9774 -0.0412
vn 0.1343 -0.9906 -0.0267
vn 0.9208 -0.3442 -0.1831
vn 0.2883 0.9558 -0.0573
vn 0.0669 -0.9977 -0.0133
vn 0.7819 -0.6037 -0.1555
vn 0.3826 0.9207 -0.0761
vn 0.6295 -0.7668 -0.1252
vn 0.4949 0.8633 -0.0985
vn 0.4949 -0.8633 -0.0985
vn 0.6295 0.7668 -0.1252
vn 1.0000 0.0000 0.0000
vn 0.9388 -0.3443 0.0000
vn 0.2940 0.9558 0.0000
vn 0.0682 -0.9977 0.0000
vn 0.7972 -0.6037 0.0000
vn 0.3901 0.9207 0.0000
vn 0.6418 -0.7668 0.0000
vn 0.5047 0.8633 0.0000
vn 0.5047 -0.8633 0.0000
vn 0.6418 0.7668 0.0000
vn 0.3901 -0.9207 0.0000
vn 0.7972 0.6036 0.0000
vn 0.0682 0.9977 0.0000
vn 0.2940 -0.9558 0.0000
vn 0.9389 0.3442 0.0000
vn 0.1369 0.9906 0.0000
vn 0.2111 -0.9774 0.0000
vn 0.2111 0.9774 0.0000
vn 0.1369 -0.9906 0.0000
vn 0.6294 0.7668 0.1252
vn 0.4949 -0.8633 0.0985
vn 0.3826 -0.9207 0.0761
vn 0.7819 0.6037 0.1555
vn 0.0669 0.9977 0.0133
vn 0.2883 -0.9558 0.0573
vn 0.9208 0.3442 0.1831
vn 0.1343 0.9906 0.0267
vn 0.2070 -0.9774 0.0412
vn 0.9808 0.0000 0.1951
vn 0.2070 0.9774 0.0412
vn 0.1343 -0.9906 0.0267
vn 0.9208 -0.3442 0.1831
vn 0.2883 0.9558 0.0573
vn 0.0669 -0.9977 0.0133
vn 0.7819 -0.6037 0.1555
vn 0.3826 0.9208 0.0761
vn 0.6294 -0.7668 0.1252
vn 0.4949 0.8633 0.0984
vn 0.1265 0.9906 0.0524
vn 0.1950 0.9774 0.0808
vn 0.1265 -0.9906 0.0524
vn 0.8675 -0.3441 0.3593
vn 0.2717 0.9558 0.1125
vn 0.0630 -0.9977 0.0261
vn 0.7365 -0.6037 0.3051
vn 0.3604 0.9207 0.1493
vn 0.5929 -0.7669 0.2456
vn 0.4662 0.8633 0.1931
vn 0.4662 -0.8633 0.1931
vn 0.5929 0.7669 0.2456
vn 0.3604 -0.9207 0.1493
vn 0.7365 0.6037 0.3051
vn 0.0630 0.9977 0.0261
vn 0.2717 -0.9558 0.1125
vn 0.8675 0.3440 0.3593
vn 0.1950 -0.9774 0.0808
vn 0.9239 0.0000 0.3827
vn 0.4196 -0.8633 0.2803
vn 0.4196 0.8633 0.2803
vn 0.5337 0.7668 0.3566
vn 0.3243 -0.9208 0.2167
vn 0.6628 0.6037 0.4429
vn 0.0567 0.9977 0.0379
vn 0.2445 -0.9558 0.1633
vn 0.7807 0.3442 0.5216
vn 0.1139 0.9906 0.0761
vn 0.1755 -0.9774 0.1173
vn 0.8315 0.0000 0.5555
vn 0.1755 0.9774 0.1173
vn 0.1138 -0.9906 0.0761
vn 0.7807 -0.3442 0.5216
vn 0.2445 0.9558 0.1633
vn 0.0567 -0.9977 0.0379
vn 0.6629 -0.6036 0.4429
vn 0.3243 0.9208 0.2167
vn 0.5337 -0.7668 0.3566
vn 0.2079 -0.9558 0.2079
vn 0.1493 -0.9774 0.1493
vn 0.7071 -0.0001 0.7071
vn 0.0968 0.9906 0.0968
vn 0.1492 0.9774 0.1492
vn 0.0968 -0.9906 0.0968
vn 0.6638 -0.3443 0.6639
vn 0.2079 0.9558 0.2079
vn 0.0482 -0.9977 0.0482
vn 0.5637 -0.6037 0.5637
vn 0.2758 0.9207 0.2759
vn 0.4538 -0.7668 0.4538
vn 0.3568 0.8633 0.3568
vn 0.3569 -0.8633 0.3568
vn 0.4538 0.7668 0.4538
vn 0.2759 -0.9207 0.2759
vn 0.5636 0.6037 0.5637
vn 0.0482 0.9977 0.0482
vn 0.6639 0.3441 0.6639
vn 0.4429 -0.6037 0.6628
vn 0.3566 -0.7668 0.5336
vn 0.2803 0.8633 0.4196
vn 0.2803 -0.8633 0.4196
vn 0.3566 0.7668 0.5336
vn 0.2167 -0.9207 0.3244
vn 0.4429 0.6037 0.6628
vn 0.0379 0.9977 0.0567
vn 0.1633 -0.9558 0.2445
vn 0.5216 0.3442 0.7806
vn 0.0761 0.9906 0.1139
vn 0.1173 -0.9774 0.1755
vn 0.5556 -0.0000 0.8314
vn 0.1173 0.9774 0.1755
vn 0.0761 -0.9906 0.1138
vn 0.5216 -0.3442 0.7806
vn 0.1633 0.9558 0.2445
vn 0.0379 -0.9977 0.0567
vn 0.2167 0.9207 0.3244
vn 0.3051 0.6037 0.7365
vn 0.3593 0.3442 0.8674
vn 0.0261 0.9977 0.0630
vn 0.0524 0.9906 0.1265
vn 0.0808 -0.9774 0.1950
vn 0.3827 0.0000 0.9239
vn 0.0808 0.9774 0.1950
vn 0.0524 -0.9906 0.1265
vn 0.3593 -0.3441 0.8674
vn 0.1125 0.9558 0.2716
vn 0.0261 -0.9977 0.0630
vn 0.3050 -0.6037 0.7365
vn 0.1493 0.9207 0.3604
vn 0.2456 -0.7668 0.5930
vn 0.1931 0.8633 0.4662
vn 0.1931 -0.8633 0.4662
vn 0.2456 0.7668 0.5930
vn 0.1493 -0.9207 0.3604
vn 0.1125 -0.9558 0.2716
vn 0.0573 0.9558 0.2884
vn 0.0761 0.9207 0.3826
vn 0.0133 -0.9977 0.0669
vn 0.1555 -0.6037 0.7819
vn 0.1252 -0.7668 0.6295
vn 0.0984 0.8633 0.4949
vn 0.0985 -0.8633 0.4949
vn 0.1252 0.7668 0.6295
vn 0.0761 -0.9207 0.3826
vn 0.1555 0.6037 0.7819
vn 0.0133 0.9977 0.0669
vn 0.0573 -0.9558 0.2884
vn 0.1831 0.3442 0.9208
vn 0.0267 0.9906 0.1343
vn 0.0411 -0.9775 0.2069
vn 0.1950 0.0000 0.9808
vn 0.0411 0.9775 0.2070
vn 0.0267 -0.9906 0.1343
vn 0.1831 -0.3442 0.9208
vn 0.0000 0.9977 0.0682
vn 0.0000 -0.9558 0.2940
vn 0.0000 0.6037 0.7972
vn 0.0000 0.3442 0.9389
vn 0.0000 0.9906 0.1369
vn 0.0000 -0.9774 0.2111
vn 0.0000 0.0000 1.0000
vn 0.0000 0.9774 0.2111
vn 0.0000 -0.9906 0.1369
vn 0.0000 -0.3442 0.9389
vn 0.0000 0.9558 0.2940
vn 0.0000 -0.9977 0.0682
vn 0.0000 -0.6037 0.7972
vn 0.0000 0.9207 0.3901
vn 0.0000 -0.7668 0.6418
vn 0.0000 0.8633 0.5047
vn 0.0000 -0.8633 0.5047
vn 0.0000 0.7668 0.6418
vn 0.0000 -0.9208 0.3901
vn -0.1832 -0.3442 0.9208
vn -0.1555 -0.6037 0.7819
vn -0.0573 0.9558 0.2884
vn -0.0761 0.9207 0.3826
vn -0.0133 -0.9977 0.0669
vn -0.1252 -0.7668 0.6295
vn -0.0985 0.8633 0.4949
vn -0.0985 -0.8633 0.4949
vn -0.1252 0.7668 0.6295
vn -0.0761 -0.9207 0.3826
vn -0.1555 0.6037 0.7819
vn -0.0133 0.9977 0.0669
vn -0.0573 -0.9558 0.2884
vn -0.1831 0.3441 0.9209
vn -0.0267 0.9906 0.1343
vn -0.0412 -0.9774 0.2070
vn -0.1951 -0.0000 0.9808
vn -0.0412 0.9774 0.2070
vn -0.0267 -0.9906 0.1343
vn -0.2456 0.7668 0.5930
vn -0.3051 0.6037 0.7365
vn -0.0261 0.9977 0.0630
vn -0.1493 -0.9207 0.3604
vn -0.1125 -0.9558 0.2716
vn -0.3593 0.3442 0.8674
vn -0.0524 0.9906 0.1265
vn -0.0808 -0.9774 0.1950
vn -0.3826 -0.0001 0.9239
vn -0.0808 0.9774 0.1950
vn -0.0524 -0.9906 0.1265
vn -0.3593 -0.3442 0.8674
vn -0.1125 0.9558 0.2716
vn -0.0261 -0.9977 0.0630
vn -0.3051 -0.6037 0.7365
vn -0.1493 0.9207 0.3604
vn -0.2456 -0.7668 0.5930
vn -0.1931 0.8633 0.4662
vn -0.1931 -0.8633 0.4662
vn -0.1173 0.9774 0.1755
vn -0.1633 0.9558 0.2445
vn -0.0761 -0.9906 0.1138
vn -0.0379 -0.9977 0.0567
vn -0.4429 -0.6037 0.6628
vn -0.2167 0.9207 0.3244
vn -0.3566 -0.7668 0.5336
vn -0.2803 0.8633 0.4196
vn -0.2803 -0.8633 0.4196
vn -0.3566 0.7668 0.5336
vn -0.2167 -0.9207 0.3244
vn -0.4429 0.6036 0.6629
vn -0.0379 0.9977 0.0567
vn -0.1633 -0.9558 0.2445
vn -0.5217 0.3442 0.7806
vn -0.0761 0.9906 0.1138
vn -0.1173 -0.9774 0.1755
vn -0.5556 0.0000 0.8314
vn -0.5216 -0.3442 0.7807
vn -0.3569 -0.8633 0.3568
vn -0.2759 -0.9207 0.2759
vn -0.4538 0.7668 0.4538
vn -0.5637 0.6036 0.5637
vn -0.0482 0.9977 0.0482
vn -0.2079 -0.9558 0.2079
vn -0.6639 0.3442 0.6639
vn -0.0968 0.9906 0.0968
vn -0.1493 -0.9774 0.1492
vn -0.7071 0.0000 0.7071
vn -0.1493 0.9774 0.1492
vn -0.0968 -0.9906 0.0968
vn -0.6639 -0.3442 0.6639
vn -0.2079 0.9558 0.2079
vn -0.0482 -0.9977 0.0482
vn -0.5637 -0.6036 0.5637
vn -0.2759 0.9207 0.2759
vn -0.4538 -0.7668 0.4538
vn -0.3569 0.8633 0.3568
vn -0.1139 -0.9906 0.0761
vn -0.8314 0.0000 0.5556
vn -0.7806 -0.3442 0.5216
vn -0.2445 0.9558 0.1633
vn -0.0567 -0.9977 0.0379
vn -0.6628 -0.6037 0.4429
vn -0.3243 0.9207 0.2167
vn -0.5336 -0.7668 0.3565
vn -0.4196 0.8633 0.2804
vn -0.4196 -0.8633 0.2803
vn -0.5336 0.7668 0.3565
vn -0.3243 -0.9207 0.2167
vn -0.6628 0.6037 0.4429
vn -0.0567 0.9977 0.0379
vn -0.2445 -0.9558 0.1633
vn -0.7806 0.3442 0.5216
vn -0.1139 0.9906 0.0761
vn -0.1755 -0.9774 0.1173
vn -0.1755 0.9774 0.1173
vn -0.5929 -0.7668 0.2456
vn -0.4662 -0.8633 0.1931
vn -0.5929 0.7669 0.2456
vn -0.3604 -0.9207 0.1493
vn -0.7365 0.6037 0.3051
vn -0.0630 0.9977 0.0261
vn -0.2716 -0.9558 0.1125
vn -0.8674 0.3441 0.3593
vn -0.1265 0.9906 0.0524
vn -0.1950 -0.9774 0.0808
vn -0.9239 0.0000 0.3827
vn -0.1950 0.9774 0.0808
vn -0.1265 -0.9906 0.0524
vn -0.8674 -0.3441 0.3593
vn -0.2716 0.9558 0.1125
vn -0.0630 -0.9977 0.0261
vn -0.7365 -0.6037 0.3051
vn -0.3604 0.9207 0.1493
vn -0.4662 0.8633 0.1931
vn -0.9209 0.3441 0.1831
vn -0.9808 0.0000 0.1951
vn -0.1343 0.9906 0.0267
vn -0.2070 0.9774 0.0411
vn -0.1343 -0.9906 0.0267
vn -0.9209 -0.3441 0.1832
vn -0.2883 0.9558 0.0573
vn -0.0669 -0.9977 0.0133
vn -0.7819 -0.6037 0.1555
vn -0.3826 0.9207 0.0761
vn -0.6294 -0.7669 0.1252
vn -0.4949 0.8633 0.0984
vn -0.4949 -0.8633 0.0984
vn -0.6295 0.7668 0.1252
vn -0.3826 -0.9207 0.0761
vn -0.7819 0.6036 0.1555
vn -0.0669 0.9977 0.0133
vn -0.2883 -0.9558 0.0573
vn -0.2070 -0.9774 0.0412
vn -0.5047 0.8633 0.0000
vn -0.6418 -0.7668 0.0000
vn -0.5047 -0.8633 0.0000
vn -0.6418 0.7668 0.0000
vn -0.3901 -0.9207 0.0000
vn -0.7972 0.6037 0.0000
vn -0.0681 0.9977 0.0000
vn -0.2940 -0.9558 0.0000
vn -0.9388 0.3443 0.0000
vn -0.1369 0.9906 0.0000
vn -0.2111 -0.9774 0.0000
vn -1.0000 0.0000 0.0000
vn -0.2111 0.9774 0.0000
vn -0.1369 -0.9906 0.0000
vn -0.9388 -0.3443 0.0000
vn -0.2940 0.9558 0.0000
vn -0.0681 -0.9977 0.0000
vn -0.7972 -0.6037 0.0000
vn -0.3901 0.9207 0.0000
vn -0.0669 0.9977 -0.0133
vn -0.1343 0.9906 -0.0267
vn -0.2070 -0.9774 -0.0412
vn -0.9208 0.3442 -0.1831
vn -0.9808 0.0000 -0.1951
vn -0.2070 0.9774 -0.0412
vn -0.1343 -0.9906 -0.0267
vn -0.9208 -0.3442 -0.1831
vn -0.2883 0.9558 -0.0573
vn -0.0669 -0.9977 -0.0133
vn -0.7819 -0.6037 -0.1555
vn -0.3826 0.9207 -0.0761
vn -0.6294 -0.7669 -0.1252
vn -0.4949 0.8633 -0.0984
vn -0.4949 -0.8633 -0.0984
vn -0.6295 0.7668 -0.1252
vn -0.3826 -0.9207 -0.0761
vn -0.7819 0.6037 -0.1555
vn -0.2884 -0.9558 -0.0573
vn -0.7365 -0.6036 -0.3051
vn -0.5929 -0.7668 -0.2456
vn -0.3604 0.9207 -0.1493
vn -0.4662 0.8633 -0.1931
vn -0.4662 -0.8633 -0.1931
vn -0.5929 0.7669 -0.2456
vn -0.3604 -0.9207 -0.1493
vn -0.7365 0.6037 -0.3051
vn -0.0630 0.9977 -0.0261
vn -0.2716 -0.9558 -0.1125
vn -0.8675 0.3441 -0.3593
vn -0.1265 0.9906 -0.0524
vn -0.1950 -0.9774 -0.0808
vn -0.9239 0.0000 -0.3826
vn -0.1950 0.9774 -0.0808
vn -0.1265 -0.9906 -0.0524
vn -0.8675 -0.3441 -0.3593
vn -0.2716 0.9558 -0.1125
vn -0.0630 -0.9977 -0.0261
vn -0.7806 0.3442 -0.5216
vn -0.0567 0.9977 -0.0379
vn -0.1139 0.9906 -0.0761
vn -0.2444 -0.9558 -0.1633
vn -0.1755 -0.9774 -0.1173
vn -0.8314 0.0000 -0.5556
vn -0.1755 0.9774 -0.1173
vn -0.1139 -0.9906 -0.0761
vn -0.7806 -0.3442 -0.5216
vn -0.2445 0.9558 -0.1633
vn -0.0567 -0.9977 -0.0379
vn -0.6629 -0.6037 -0.4429
vn -0.3244 0.9207 -0.2167
vn -0.5336 -0.7668 -0.3565
vn -0.4196 0.8633 -0.2803
vn -0.4196 -0.8633 -0.2804
vn -0.5336 0.7668 -0.3566
vn -0.3244 -0.9207 -0.2167
vn -0.6628 0.6037 -0.4429
vn -0.2079 0.9558 -0.2079
vn -0.2759 0.9207 -0.2759
vn -0.0482 -0.9977 -0.0482
vn -0.4538 -0.7669 -0.4538
vn -0.3568 0.8633 -0.3568
vn -0.3569 -0.8633 -0.3568
vn -0.4538 0.7669 -0.4538
vn -0.2759 -0.9207 -0.2759
vn -0.5637 0.6036 -0.5637
vn -0.0482 0.9977 -0.0482
vn -0.2079 -0.9558 -0.2079
vn -0.6639 0.3441 -0.6639
vn -0.0968 0.9906 -0.0968
vn -0.1493 -0.9774 -0.1492
vn -0.7071 0.0000 -0.7071
vn -0.1492 0.9774 -0.1492
vn -0.0968 -0.9906 -0.0969
vn -0.6639 -0.3441 -0.6639
vn -0.5637 -0.6037 -0.5637
vn -0.0379 0.9977 -0.0567
vn -0.1633 -0.9558 -0.2445
vn -0.5216 0.3442 -0.7806
vn -0.0761 0.9906 -0.1139
vn -0.1173 -0.9774 -0.1755
vn -0.5555 0.0000 -0.8315
vn -0.1173 0.9774 -0.1755
vn -0.0761 -0.9906 -0.1138
vn -0.5216 -0.3442 -0.7806
vn -0.1633 0.9558 -0.2445
vn -0.0379 -0.9977 -0.0567
vn -0.4429 -0.6037 -0.6628
vn -0.2167 0.9207 -0.3244
vn -0.3565 -0.7669 -0.5336
vn -0.2804 0.8633 -0.4196
vn -0.2804 -0.8633 -0.4196
vn -0.3565 0.7668 -0.5336
vn -0.2167 -0.9207 -0.3244
vn -0.4429 0.6037 -0.6628
vn -0.0261 -0.9977 -0.0630
vn -0.3593 -0.3442 -0.8674
vn -0.3051 -0.6037 -0.7365
vn -0.1493 0.9207 -0.3604
vn -0.2456 -0.7668 -0.5930
vn -0.1931 0.8633 -0.4662
vn -0.1931 -0.8633 -0.4662
vn -0.2456 0.7668 -0.5930
vn -0.1493 -0.9207 -0.3604
vn -0.3051 0.6037 -0.7365
vn -0.0261 0.9977 -0.0630
vn -0.1125 -0.9558 -0.2716
vn -0.3593 0.3442 -0.8674
vn -0.0524 0.9906 -0.1265
vn -0.0808 -0.9774 -0.1950
vn -0.3827 0.0000 -0.9239
vn -0.0808 0.9774 -0.1950
vn -0.0524 -0.9906 -0.1265
vn -0.1125 0.9558 -0.2716
vn -0.0984 -0.8633 -0.4950
vn -0.0761 -0.9207 -0.3826
vn -0.1555 0.6037 -0.7819
vn -0.0133 0.9977 -0.0669
vn -0.0573 -0.9558 -0.2884
vn -0.1831 0.3442 -0.9209
vn -0.0267 0.9906 -0.1343
vn -0.0411 -0.9774 -0.2070
vn -0.1951 0.0000 -0.9808
vn -0.0412 0.9774 -0.2070
vn -0.0267 -0.9906 -0.1343
vn -0.1832 -0.3442 -0.9208
vn -0.0573 0.9558 -0.2884
vn -0.0133 -0.9977 -0.0669
vn -0.1555 -0.6037 -0.7819
vn -0.0761 0.9207 -0.3826
vn -0.1252 -0.7668 -0.6295
vn -0.0984 0.8633 -0.4949
vn -0.1252 0.7668 -0.6295
s 1
f 593//1 5//2 594//3
f 609//4 19//5 20//6
f 601//7 13//8 602//9
f 595//10 5//2 6//11
f 610//12 20//6 21//13
f 603//14 13//8 14//15
f 596//16 6//11 7//17
f 2//18 610//12 21//13
f 603//14 15//19 604//20
f 597//21 7//17 8//22
f 604//20 16//23 605//24
f 598//25 8//22 9//26
f 605//24 17//27 606//28
f 599//29 9//26 10//30
f 1//31 364//32 3//33
f 607//34 17//27 18//35
f 599//29 11//36 600//37
f 1//31 4//38 593//1
f 607//34 19//5 608//39
f 600//37 12//40 601//7
f 2//18 21//13 40//41
f 14//15 34//42 15//19
f 7//17 27//43 8//22
f 15//19 35//44 16//23
f 9//26 27//43 28//45
f 16//23 36//46 17//27
f 10//30 28//45 29//47
f 3//33 364//32 22//48
f 18//35 36//46 37//49
f 10//30 30//50 11//36
f 3//33 23//51 4//38
f 18//35 38//52 19//5
f 11//36 31//53 12//40
f 5//2 23//51 24//54
f 19//5 39//55 20//6
f 13//8 31//53 32//56
f 6//11 24//54 25//57
f 21//13 39//55 40//41
f 14//15 32//56 33//58
f 6//11 26//59 7//17
f 36//46 56//60 37//49
f 30//50 48//61 49//62
f 22//48 42//63 23//51
f 38//52 56//60 57//64
f 30//50 50//65 31//53
f 23//51 43//66 24//54
f 39//55 57//64 58//67
f 31//53 51//68 32//56
f 24//54 44//69 25//57
f 40//41 58//67 59//70
f 32//56 52//71 33//58
f 25//57 45//72 26//59
f 2//18 40//41 59//70
f 33//58 53//73 34//42
f 27//43 45//72 46//74
f 35//44 53//73 54//75
f 27//43 47//76 28//45
f 35//44 55//77 36//46
f 29//47 47//76 48//61
f 22//48 364//32 41//78
f 52//71 70//79 71//80
f 45//72 63//81 64//82
f 2//18 59//70 78//83
f 52//71 72//84 53//73
f 46//74 64//82 65//85
f 53//73 73//86 54//75
f 47//76 65//85 66//87
f 55//77 73//86 74//88
f 48//61 66//87 67//89
f 41//78 364//32 60//90
f 55//77 75//91 56//60
f 48//61 68//92 49//62
f 42//63 60//90 61//93
f 57//64 75//91 76//94
f 50//65 68//92 69//95
f 42//63 62//96 43//66
f 57//64 77//97 58//67
f 50//65 70//79 51//68
f 43//66 63//81 44//69
f 58//67 78//83 59//70
f 66//87 86//98 67//89
f 60//90 364//32 79//99
f 75//91 93//100 94//101
f 67//89 87//102 68//92
f 61//93 79//99 80//103
f 75//91 95//104 76//94
f 69//95 87//102 88//105
f 61//93 81//106 62//96
f 77//97 95//104 96//107
f 70//79 88//105 89//108
f 62//96 82//109 63//81
f 78//83 96//107 97//110
f 71//80 89//108 90//111
f 63//81 83//112 64//82
f 2//18 78//83 97//110
f 72//84 90//111 91//113
f 64//82 84//114 65//85
f 73//86 91//113 92//115
f 65//85 85//116 66//87
f 74//88 92//115 93//100
f 82//109 100//117 101//118
f 97//110 115//119 116//120
f 90//111 108//121 109//122
f 83//112 101//118 102//123
f 2//18 97//110 116//120
f 90//111 110//124 91//113
f 84//114 102//123 103//125
f 92//115 110//124 111//126
f 85//116 103//125 104//127
f 92//115 112//128 93//100
f 86//98 104//127 105//129
f 79//99 364//32 98//130
f 94//101 112//128 113//131
f 86//98 106//132 87//102
f 79//99 99//133 80//103
f 94//101 114//134 95//104
f 88//105 106//132 107//135
f 80//103 100//117 81//106
f 96//107 114//134 115//119
f 88//105 108//121 89//108
f 111//126 131//136 112//128
f 104//127 124//137 105//129
f 98//130 364//32 117//138
f 112//128 132//139 113//131
f 105//129 125//140 106//132
f 99//133 117//138 118//141
f 113//131 133//142 114//134
f 107//135 125//140 126//143
f 99//133 119//144 100//117
f 115//119 133//142 134//145
f 108//121 126//143 127//146
f 101//118 119//144 120//147
f 115//119 135//148 116//120
f 108//121 128//149 109//122
f 102//123 120//147 121//150
f 2//18 116//120 135//148
f 110//124 128//149 129//151
f 103//125 121//150 122//152
f 110//124 130//153 111//126
f 104//127 122//152 123//154
f 127//146 145//155 146//156
f 119//144 139//157 120//147
f 134//145 154//158 135//148
f 128//149 146//156 147//159
f 120//147 140//160 121//150
f 2//18 135//148 154//158
f 128//149 148//161 129//151
f 121//150 141//162 122//152
f 129//151 149//163 130//153
f 123//154 141//162 142//164
f 131//136 149//163 150//165
f 124//137 142//164 143//166
f 117//138 364//32 136//167
f 132//139 150//165 151//168
f 124//137 144//169 125//140
f 118//141 136//167 137//170
f 133//142 151//168 152//171
f 125//140 145//155 126//143
f 119//144 137//170 138//172
f 133//142 153//173 134//145
f 141//162 161//174 142//164
f 150//165 168//175 169//176
f 143//166 161//174 162//177
f 136//167 364//32 155//178
f 150//165 170//179 151//168
f 144//169 162//177 163//180
f 136//167 156//181 137//170
f 151//168 171//182 152//171
f 144//169 164//183 145//155
f 137//170 157//184 138//172
f 153//173 171//182 172//185
f 146//156 164//183 165//186
f 138//172 158//187 139//157
f 154//158 172//185 173//188
f 147//159 165//186 166//189
f 140//160 158//187 159//190
f 2//18 154//158 173//188
f 147//159 167//191 148//161
f 141//162 159//190 160//192
f 149//163 167//191 168//175
f 157//184 175//193 176//194
f 171//182 191//195 172//185
f 164//183 184//196 165//186
f 158//187 176//194 177//197
f 173//188 191//195 192//198
f 165//186 185//199 166//189
f 158//187 178//200 159//190
f 2//18 173//188 192//198
f 166//189 186//201 167//191
f 159//190 179//202 160//192
f 168//175 186//201 187//203
f 160//192 180//204 161//174
f 169//176 187//203 188//205
f 162//177 180//204 181//206
f 155//178 364//32 174//207
f 170//179 188//205 189//208
f 163//180 181//206 182//209
f 156//181 174//207 175//193
f 170//179 190//210 171//182
f 163//180 183//211 164//183
f 186//201 206//212 187//203
f 180//204 198//213 199//214
f 188//205 206//212 207//215
f 180//204 200//216 181//206
f 174//207 364//32 193//217
f 189//208 207//215 208//218
f 182//209 200//216 201//219
f 175//193 193//217 194//220
f 190//210 208//218 209//221
f 182//209 202//222 183//211
f 176//194 194//220 195//223
f 191//195 209//221 210//224
f 184//196 202//222 203//225
f 176//194 196//226 177//197
f 191//195 211//227 192//198
f 185//199 203//225 204//228
f 177//197 197//229 178//200
f 2//18 192//198 211//227
f 186//201 204//228 205//230
f 178//200 198//213 179//202
f 209//221 227//231 228//232
f 201//219 221//233 202//222
f 195//223 213//234 214//235
f 209//221 229//236 210//224
f 203//225 221//233 222//237
f 196//226 214//235 215//238
f 211//227 229//236 230//239
f 204//228 222//237 223//240
f 197//229 215//238 216//241
f 2//18 211//227 230//239
f 204//228 224//242 205//230
f 197//229 217//243 198//213
f 205//230 225//244 206//212
f 199//214 217//243 218//245
f 206//212 226//246 207//215
f 200//216 218//245 219//247
f 193//217 364//32 212//248
f 207//215 227//231 208//218
f 201//219 219//247 220//249
f 194//220 212//248 213//234
f 224//242 242//250 243//251
f 216//241 236//252 217//243
f 225//244 243//251 244//253
f 217//243 237//254 218//245
f 225//244 245//255 226//246
f 218//245 238//256 219//247
f 212//248 364//32 231//257
f 227//231 245//255 246//258
f 220//249 238//256 239//259
f 212//248 232//260 213//234
f 227//231 247//261 228//232
f 221//233 239//259 240//262
f 214//235 232//260 233//263
f 228//232 248//264 229//236
f 221//233 241//265 222//237
f 215//238 233//263 234//266
f 229//236 249//267 230//239
f 222//237 242//250 223//240
f 215//238 235//268 216//241
f 2//18 230//239 249//267
f 239//259 257//269 258//270
f 232//260 250//271 251//272
f 246//258 266//273 247//261
f 240//262 258//270 259//274
f 233//263 251//272 252//275
f 248//264 266//273 267//276
f 241//265 259//274 260//277
f 234//266 252//275 253//278
f 249//267 267//276 268//279
f 241//265 261//280 242//250
f 234//266 254//281 235//268
f 2//18 249//267 268//279
f 243//251 261//280 262//282
f 236//252 254//281 255//283
f 244//253 262//282 263//284
f 236//252 256//285 237//254
f 244//253 264//286 245//255
f 237//254 257//269 238//256
f 231//257 364//32 250//271
f 245//255 265//287 246//258
f 254//281 272//288 273//289
f 2//18 268//279 287//290
f 262//282 280//291 281//292
f 255//283 273//289 274//293
f 263//284 281//292 282//294
f 255//283 275//295 256//285
f 264//286 282//294 283//296
f 256//285 276//297 257//269
f 250//271 364//32 269//298
f 264//286 284//299 265//287
f 258//270 276//297 277//300
f 250//271 270//301 251//272
f 266//273 284//299 285//302
f 258//270 278//303 259//274
f 251//272 271//304 252//275
f 267//276 285//302 286//305
f 260//277 278//303 279//306
f 252//275 272//288 253//278
f 267//276 287//290 268//279
f 260//277 280//291 261//280
f 269//298 364//32 288//307
f 283//296 303//308 284//299
f 277//300 295//309 296//310
f 270//301 288//307 289//311
f 285//302 303//308 304//312
f 278//303 296//310 297//313
f 271//304 289//311 290//314
f 286//305 304//312 305//315
f 279//306 297//313 298//316
f 271//304 291//317 272//288
f 287//290 305//315 306//318
f 279//306 299//319 280//291
f 272//288 292//320 273//289
f 2//18 287//290 306//318
f 281//292 299//319 300//321
f 273//289 293//322 274//293
f 282//294 300//321 301//323
f 274//293 294//324 275//295
f 283//296 301//323 302//325
f 275//295 295//309 276//297
f 299//319 317//326 318//327
f 292//320 310//328 311//329
f 2//18 306//318 325//330
f 299//319 319//331 300//321
f 293//322 311//329 312//332
f 300//321 320//333 301//323
f 294//324 312//332 313//334
f 301//323 321//335 302//325
f 295//309 313//334 314//336
f 288//307 364//32 307//337
f 303//308 321//335 322//338
f 295//309 315//339 296//310
f 288//307 308//340 289//311
f 304//312 322//338 323//341
f 296//310 316//342 297//313
f 289//311 309//343 290//314
f 304//312 324//344 305//315
f 297//313 317//326 298//316
f 290//314 310//328 291//317
f 306//318 324//344 325//330
f 314//336 332//345 333//346
f 307//337 364//32 326//347
f 322//338 340//348 341//349
f 314//336 334//350 315//339
f 308//340 326//347 327//351
f 323//341 341//349 342//352
f 315//339 335//353 316//342
f 309//343 327//351 328//354
f 323//341 343//355 324//344
f 316//342 336//356 317//326
f 309//343 329//357 310//328
f 325//330 343//355 344//358
f 317//326 337//359 318//327
f 310//328 330//360 311//329
f 2//18 325//330 344//358
f 318//327 338//361 319//331
f 312//332 330//360 331//362
f 320//333 338//361 339//363
f 312//332 332//345 313//334
f 321//335 339//363 340//348
f 329//357 347//364 348//365
f 344//358 362//366 363//367
f 336//356 356//368 337//359
f 330//360 348//365 349//369
f 2//18 344//358 363//367
f 337//359 357//370 338//361
f 331//362 349//369 350//371
f 338//361 358//372 339//363
f 332//345 350//371 351//373
f 340//348 358//372 359//374
f 333//346 351//373 352//375
f 326//347 364//32 345//376
f 340//348 360//377 341//349
f 333//346 353//378 334//350
f 326//347 346//379 327//351
f 342//352 360//377 361//380
f 334//350 354//381 335//353
f 328//354 346//379 347//364
f 342//352 362//366 343//355
f 336//356 354//381 355//382
f 359//374 378//383 379//384
f 352//375 371//385 372//386
f 345//376 364//32 365//387
f 359//374 380//388 360//377
f 352//375 373//389 353//378
f 346//379 365//387 366//390
f 361//380 380//388 381//391
f 353//378 374//392 354//381
f 346//379 367//393 347//364
f 362//366 381//391 382//394
f 355//382 374//392 375//395
f 347//364 368//396 348//365
f 362//366 383//397 363//367
f 356//368 375//395 376//398
f 348//365 369//399 349//369
f 2//18 363//367 383//397
f 356//368 377//400 357//370
f 350//371 369//399 370//401
f 357//370 378//383 358//372
f 351//373 370//401 371//385
f 381//391 401//402 382//394
f 375//395 393//403 394//404
f 367//393 387//405 368//396
f 382//394 402//406 383//397
f 375//395 395//407 376//398
f 368//396 388//408 369//399
f 2//18 383//397 402//406
f 376//398 396//409 377//400
f 369//399 389//410 370//401
f 377//400 397//411 378//383
f 370//401 390//412 371//385
f 378//383 398//413 379//384
f 372//386 390//412 391//414
f 365//387 364//32 384//415
f 380//388 398//413 399//416
f 373//389 391//414 392//417
f 365//387 385//418 366//390
f 380//388 400//419 381//391
f 373//389 393//403 374//392
f 366//390 386//420 367//393
f 397//411 415//421 416//422
f 389//410 409//423 390//412
f 397//411 417//424 398//413
f 390//412 410//425 391//414
f 384//415 364//32 403//426
f 398//413 418//427 399//416
f 391//414 411//428 392//417
f 385//418 403//426 404//429
f 399//416 419//430 400//419
f 393//403 411//428 412//431
f 385//418 405//432 386//420
f 401//402 419//430 420//433
f 393//403 413//434 394//404
f 387//405 405//432 406//435
f 401//402 421//436 402//406
f 395//407 413//434 414//437
f 388//408 406//435 407//438
f 2//18 402//406 421//436
f 396//409 414//437 415//421
f 389//410 407//438 408//439
f 412//431 430//440 431//441
f 405//432 423//442 424//443
f 419//430 439//444 420//433
f 413//434 431//441 432//445
f 405//432 425//446 406//435
f 420//433 440//447 421//436
f 414//437 432//445 433//448
f 407//438 425//446 426//449
f 2//18 421//436 440//447
f 414//437 434//450 415//421
f 408//439 426//449 427//451
f 416//422 434//450 435//452
f 409//423 427//451 428//453
f 416//422 436//454 417//424
f 409//423 429//455 410//425
f 403//426 364//32 422//456
f 417//424 437//457 418//427
f 410//425 430//440 411//428
f 404//429 422//456 423//442
f 419//430 437//457 438//458
f 426//449 446//459 427//451
f 435//452 453//460 454//461
f 427//451 447//462 428//453
f 436//454 454//461 455//463
f 428//453 448//464 429//455
f 422//456 364//32 441//465
f 436//454 456//466 437//457
f 429//455 449//467 430//440
f 422//456 442//468 423//442
f 438//458 456//466 457//469
f 431//441 449//467 450//470
f 424//443 442//468 443//471
f 438//458 458//472 439//444
f 431//441 451//473 432//445
f 424//443 444//474 425//446
f 440//447 458//472 459//475
f 433//448 451//473 452//476
f 425//446 445//477 426//449
f 2//18 440//447 459//475
f 434//450 452//476 453//460
f 442//468 460//478 461//479
f 456//466 476//480 457//469
f 450//470 468//481 469//482
f 442//468 462//483 443//471
f 458//472 476//480 477//484
f 450//470 470//485 451//473
f 444//474 462//483 463//486
f 458//472 478//487 459//475
f 451//473 471//488 452//476
f 445//477 463//486 464//489
f 2//18 459//475 478//487
f 453//460 471//488 472//490
f 446//459 464//489 465//491
f 453//460 473//492 454//461
f 447//462 465//491 466//493
f 455//463 473//492 474//494
f 447//462 467//495 448//464
f 441//465 364//32 460//478
f 455//463 475//496 456//466
f 449//467 467//495 468//481
f 472//490 490//497 491//498
f 465//491 483//499 484//500
f 473//492 491//498 492//501
f 465//491 485//502 466//493
f 473//492 493//503 474//494
f 467//495 485//502 486//504
f 460//478 364//32 479//505
f 475//496 493//503 494//506
f 468//481 486//504 487//507
f 460//478 480//508 461//479
f 476//480 494//506 495//509
f 469//482 487//507 488//510
f 461//479 481//511 462//483
f 477//484 495//509 496//512
f 469//482 489//513 470//485
f 462//483 482//514 463//486
f 478//487 496//512 497//515
f 470//485 490//497 471//488
f 463//486 483//499 464//489
f 2//18 478//487 497//515
f 486//504 506//516 487//507
f 480//508 498//517 499//518
f 495//509 513//519 514//520
f 487//507 507//521 488//510
f 481//511 499//518 500//522
f 496//512 514//520 515//523
f 489//513 507//521 508//524
f 481//511 501//525 482//514
f 497//515 515//523 516//526
f 490//497 508//524 509//527
f 482//514 502//528 483//499
f 2//18 497//515 516//526
f 491//498 509//527 510//529
f 483//499 503//530 484//500
f 492//501 510//529 511//531
f 485//502 503//530 504//532
f 493//503 511//531 512//533
f 486//504 504//532 505//534
f 479//505 364//32 498//517
f 494//506 512//533 513//519
f 502//528 520//535 521//536
f 2//18 516//526 535//537
f 509//527 529//538 510//529
f 503//530 521//536 522//539
f 510//529 530//540 511//531
f 504//532 522//539 523//541
f 511//531 531//542 512//533
f 505//534 523//541 524//543
f 498//517 364//32 517//544
f 512//533 532//545 513//519
f 505//534 525//546 506//516
f 498//517 518//547 499//518
f 514//520 532//545 533//548
f 507//521 525//546 526//549
f 500//522 518//547 519//550
f 515//523 533//548 534//551
f 507//521 527//552 508//524
f 501//525 519//550 520//535
f 516//526 534//551 535//537
f 509//527 527//552 528//553
f 517//544 364//32 536//554
f 531//542 551//555 532//545
f 524//543 544//556 525//546
f 517//544 537//557 518//547
f 532//545 552//558 533//548
f 525//546 545//559 526//549
f 519//550 537//557 538//560
f 534//551 552//558 553//561
f 527//552 545//559 546//562
f 520//535 538//560 539//563
f 535//537 553//561 554//564
f 527//552 547//565 528//553
f 520//535 540//566 521//536
f 2//18 535//537 554//564
f 529//538 547//565 548//567
f 521//536 541//568 522//539
f 530//540 548//567 549//569
f 522//539 542//570 523//541
f 531//542 549//569 550//571
f 523//541 543//572 524//543
f 553//561 573//573 554//564
f 547//565 565//574 566//575
f 539//563 559//576 540//566
f 2//18 554//564 573//573
f 548//567 566//575 567//577
f 540//566 560//578 541//568
f 548//567 568//579 549//569
f 542//570 560//578 561//580
f 550//571 568//579 569//581
f 542//570 562//582 543//572
f 536//554 364//32 555//583
f 551//555 569//581 570//584
f 543//572 563//585 544//556
f 537//557 555//583 556//586
f 551//555 571//587 552//558
f 545//559 563//585 564//588
f 538//560 556//586 557//589
f 552//558 572//590 553//561
f 545//559 565//574 546//562
f 538//560 558//591 539//563
f 569//581 587//592 588//593
f 561//580 581//594 562//582
f 555//583 364//32 574//595
f 570//584 588//593 589//596
f 563//585 581//594 582//597
f 556//586 574//595 575//598
f 571//587 589//596 590//599
f 564//588 582//597 583//600
f 556//586 576//601 557//589
f 572//590 590//599 591//602
f 565//574 583//600 584//603
f 558//591 576//601 577//604
f 572//590 592//605 573//573
f 566//575 584//603 585//606
f 558//591 578//607 559//576
f 2//18 573//573 592//605
f 567//577 585//606 586//608
f 559//576 579//609 560//578
f 568//579 586//608 587//592
f 560//578 580//610 561//580
f 584//603 601//7 602//9
f 576//601 595//10 577//604
f 591//602 610//12 592//605
f 584//603 603//14 585//606
f 577//604 596//16 578//607
f 2//18 592//605 610//12
f 586//608 603//14 604//20
f 578//607 597//21 579//609
f 587//592 604//20 605//24
f 579//609 598//25 580//610
f 588//593 605//24 606//28
f 580//610 599//29 581//594
f 574//595 364//32 1//31
f 589//596 606//28 607//34
f 582//597 599//29 600//37
f 575//598 1//31 593//1
f 590//599 607//34 608//39
f 583//600 600//37 601//7
f 576//601 593//1 594//3
f 590//599 609//4 591//602
f 593//1 4//38 5//2
f 609//4 608//39 19//5
f 601//7 12//40 13//8
f 595//10 594//3 5//2
f 610//12 609//4 20//6
f 603//14 602//9 13//8
f 596//16 595//10 6//11
f 603//14 14//15 15//19
f 597//21 596//16 7//17
f 604//20 15//19 16//23
f 598//25 597//21 8//22
f 605//24 16//23 17//27
f 599//29 598//25 9//26
f 607//34 606//28 17//27
f 599//29 10//30 11//36
f 1//31 3//33 4//38
f 607//34 18//35 19//5
f 600//37 11//36 12//40
f 14//15 33//58 34//42
f 7//17 26//59 27//43
f 15//19 34//42 35//44
f 9//26 8//22 27//43
f 16//23 35//44 36//46
f 10//30 9//26 28//45
f 18//35 17//27 36//46
f 10//30 29//47 30//50
f 3//33 22//48 23//51
f 18//35 37//49 38//52
f 11//36 30//50 31//53
f 5//2 4//38 23//51
f 19//5 38//52 39//55
f 13//8 12//40 31//53
f 6//11 5//2 24//54
f 21//13 20//6 39//55
f 14//15 13//8 32//56
f 6//11 25//57 26//59
f 36//46 55//77 56//60
f 30//50 29//47 48//61
f 22//48 41//78 42//63
f 38//52 37//49 56//60
f 30//50 49//62 50//65
f 23//51 42//63 43//66
f 39//55 38//52 57//64
f 31//53 50//65 51//68
f 24//54 43//66 44//69
f 40//41 39//55 58//67
f 32//56 51//68 52//71
f 25//57 44//69 45//72
f 33//58 52//71 53//73
f 27//43 26//59 45//72
f 35//44 34//42 53//73
f 27//43 46//74 47//76
f 35//44 54//75 55//77
f 29//47 28//45 47//76
f 52//71 51//68 70//79
f 45//72 44//69 63//81
f 52//71 71//80 72//84
f 46//74 45//72 64//82
f 53//73 72//84 73//86
f 47//76 46//74 65//85
f 55//77 54//75 73//86
f 48//61 47//76 66//87
f 55//77 74//88 75//91
f 48//61 67//89 68//92
f 42//63 41//78 60//90
f 57//64 56//60 75//91
f 50//65 49//62 68//92
f 42//63 61//93 62//96
f 57//64 76//94 77//97
f 50//65 69//95 70//79
f 43//66 62//96 63//81
f 58//67 77//97 78//83
f 66//87 85//116 86//98
f 75//91 74//88 93//100
f 67//89 86//98 87//102
f 61//93 60//90 79//99
f 75//91 94//101 95//104
f 69//95 68//92 87//102
f 61//93 80//103 81//106
f 77//97 76//94 95//104
f 70//79 69//95 88//105
f 62//96 81//106 82//109
f 78//83 77//97 96//107
f 71//80 70//79 89//108
f 63//81 82//109 83//112
f 72//84 71//80 90//111
f 64//82 83//112 84//114
f 73//86 72//84 91//113
f 65//85 84//114 85//116
f 74//88 73//86 92//115
f 82//109 81//106 100//117
f 97//110 96//107 115//119
f 90//111 89//108 108//121
f 83//112 82//109 101//118
f 90//111 109//122 110//124
f 84//114 83//112 102//123
f 92//115 91//113 110//124
f 85//116 84//114 103//125
f 92//115 111//126 112//128
f 86//98 85//116 104//127
f 94//101 93//100 112//128
f 86//98 105//129 106//132
f 79//99 98//130 99//133
f 94//101 113//131 114//134
f 88//105 87//102 106//132
f 80//103 99//133 100//117
f 96//107 95//104 114//134
f 88//105 107//135 108//121
f 111//126 130//153 131//136
f 104//127 123//154 124//137
f 112//128 131//136 132//139
f 105//129 124//137 125//140
f 99//133 98//130 117//138
f 113//131 132//139 133//142
f 107//135 106//132 125//140
f 99//133 118//141 119//144
f 115//119 114//134 133//142
f 108//121 107//135 126//143
f 101//118 100//117 119//144
f 115//119 134//145 135//148
f 108//121 127//146 128//149
f 102//123 101//118 120//147
f 110//124 109//122 128//149
f 103//125 102//123 121//150
f 110//124 129//151 130//153
f 104//127 103//125 122//152
f 127//146 126//143 145//155
f 119//144 138//172 139//157
f 134//145 153//173 154//158
f 128//149 127//146 146//156
f 120//147 139//157 140//160
f 128//149 147//159 148//161
f 121//150 140//160 141//162
f 129//151 148//161 149//163
f 123//154 122//152 141//162
f 131//136 130//153 149//163
f 124//137 123//154 142//164
f 132//139 131//136 150//165
f 124//137 143//166 144//169
f 118//141 117//138 136//167
f 133//142 132//139 151//168
f 125//140 144//169 145//155
f 119//144 118//141 137//170
f 133//142 152//171 153//173
f 141//162 160//192 161//174
f 150//165 149//163 168//175
f 143//166 142//164 161//174
f 150//165 169//176 170//179
f 144//169 143//166 162//177
f 136//167 155//178 156//181
f 151//168 170//179 171//182
f 144//169 163//180 164//183
f 137//170 156//181 157//184
f 153//173 152//171 171//182
f 146//156 145//155 164//183
f 138//172 157//184 158//187
f 154//158 153//173 172//185
f 147//159 146//156 165//186
f 140//160 139//157 158//187
f 147//159 166//189 167//191
f 141//162 140//160 159//190
f 149//163 148//161 167//191
f 157//184 156//181 175//193
f 171//182 190//210 191//195
f 164//183 183//211 184//196
f 158//187 157//184 176//194
f 173//188 172//185 191//195
f 165//186 184//196 185//199
f 158//187 177//197 178//200
f 166//189 185//199 186//201
f 159//190 178//200 179//202
f 168//175 167//191 186//201
f 160//192 179//202 180//204
f 169//176 168//175 187//203
f 162//177 161//174 180//204
f 170//179 169//176 188//205
f 163//180 162//177 181//206
f 156//181 155//178 174//207
f 170//179 189//208 190//210
f 163//180 182//209 183//211
f 186//201 205//230 206//212
f 180//204 179//202 198//213
f 188//205 187//203 206//212
f 180//204 199//214 200//216
f 189//208 188//205 207//215
f 182//209 181//206 200//216
f 175//193 174//207 193//217
f 190//210 189//208 208//218
f 182//209 201//219 202//222
f 176//194 175//193 194//220
f 191//195 190//210 209//221
f 184//196 183//211 202//222
f 176//194 195//223 196//226
f 191//195 210//224 211//227
f 185//199 184//196 203//225
f 177//197 196//226 197//229
f 186//201 185//199 204//228
f 178//200 197//229 198//213
f 209//221 208//218 227//231
f 201//219 220//249 221//233
f 195//223 194//220 213//234
f 209//221 228//232 229//236
f 203//225 202//222 221//233
f 196//226 195//223 214//235
f 211//227 210//224 229//236
f 204//228 203//225 222//237
f 197//229 196//226 215//238
f 204//228 223//240 224//242
f 197//229 216//241 217//243
f 205//230 224//242 225//244
f 199//214 198//213 217//243
f 206//212 225//244 226//246
f 200//216 199//214 218//245
f 207//215 226//246 227//231
f 201//219 200//216 219//247
f 194//220 193//217 212//248
f 224//242 223//240 242//250
f 216//241 235//268 236//252
f 225//244 224//242 243//251
f 217//243 236//252 237//254
f 225//244 244//253 245//255
f 218//245 237//254 238//256
f 227//231 226//246 245//255
f 220//249 219//247 238//256
f 212//248 231//257 232//260
f 227//231 246//258 247//261
f 221//233 220//249 239//259
f 214//235 213//234 232//260
f 228//232 247//261 248//264
f 221//233 240//262 241//265
f 215//238 214//235 233//263
f 229//236 248//264 249//267
f 222//237 241//265 242//250
f 215//238 234//266 235//268
f 239//259 238//256 257//269
f 232//260 231//257 250//271
f 246//258 265//287 266//273
f 240//262 239//259 258//270
f 233//263 232//260 251//272
f 248//264 247//261 266//273
f 241//265 240//262 259//274
f 234//266 233//263 252//275
f 249//267 248//264 267//276
f 241//265 260//277 261//280
f 234//266 253//278 254//281
f 243//251 242//250 261//280
f 236//252 235//268 254//281
f 244//253 243//251 262//282
f 236//252 255//283 256//285
f 244//253 263//284 264//286
f 237//254 256//285 257//269
f 245//255 264//286 265//287
f 254//281 253//278 272//288
f 262//282 261//280 280//291
f 255//283 254//281 273//289
f 263//284 262//282 281//292
f 255//283 274//293 275//295
f 264//286 263//284 282//294
f 256//285 275//295 276//297
f 264//286 283//296 284//299
f 258//270 257//269 276//297
f 250//271 269//298 270//301
f 266//273 265//287 284//299
f 258//270 277//300 278//303
f 251//272 270//301 271//304
f 267//276 266//273 285//302
f 260//277 259//274 278//303
f 252//275 271//304 272//288
f 267//276 286//305 287//290
f 260//277 279//306 280//291
f 283//296 302//325 303//308
f 277//300 276//297 295//309
f 270//301 269//298 288//307
f 285//302 284//299 303//308
f 278//303 277//300 296//310
f 271//304 270//301 289//311
f 286//305 285//302 304//312
f 279//306 278//303 297//313
f 271//304 290//314 291//317
f 287//290 286//305 305//315
f 279//306 298//316 299//319
f 272//288 291//317 292//320
f 281//292 280//291 299//319
f 273//289 292//320 293//322
f 282//294 281//292 300//321
f 274//293 293//322 294//324
f 283//296 282//294 301//323
f 275//295 294//324 295//309
f 299//319 298//316 317//326
f 292//320 291//317 310//328
f 299//319 318//327 319//331
f 293//322 292//320 311//329
f 300//321 319//331 320//333
f 294//324 293//322 312//332
f 301//323 320//333 321//335
f 295//309 294//324 313//334
f 303//308 302//325 321//335
f 295//309 314//336 315//339
f 288//307 307//337 308//340
f 304//312 303//308 322//338
f 296//310 315//339 316//342
f 289//311 308//340 309//343
f 304//312 323//341 324//344
f 297//313 316//342 317//326
f 290//314 309//343 310//328
f 306//318 305//315 324//344
f 314//336 313//334 332//345
f 322//338 321//335 340//348
f 314//336 333//346 334//350
f 308//340 307//337 326//347
f 323//341 322//338 341//349
f 315//339 334//350 335//353
f 309//343 308//340 327//351
f 323//341 342//352 343//355
f 316//342 335//353 336//356
f 309//343 328//354 329//357
f 325//330 324//344 343//355
f 317//326 336//356 337//359
f 310//328 329//357 330//360
f 318//327 337//359 338//361
f 312//332 311//329 330//360
f 320//333 319//331 338//361
f 312//332 331//362 332//345
f 321//335 320//333 339//363
f 329//357 328//354 347//364
f 344//358 343//355 362//366
f 336//356 355//382 356//368
f 330//360 329//357 348//365
f 337//359 356//368 357//370
f 331//362 330//360 349//369
f 338//361 357//370 358//372
f 332//345 331//362 350//371
f 340//348 339//363 358//372
f 333//346 332//345 351//373
f 340//348 359//374 360//377
f 333//346 352//375 353//378
f 326//347 345//376 346//379
f 342//352 341//349 360//377
f 334//350 353//378 354//381
f 328//354 327//351 346//379
f 342//352 361//380 362//366
f 336//356 335//353 354//381
f 359//374 358//372 378//383
f 352//375 351//373 371//385
f 359//374 379//384 380//388
f 352//375 372//386 373//389
f 346//379 345//376 365//387
f 361//380 360//377 380//388
f 353//378 373//389 374//392
f 346//379 366//390 367//393
f 362//366 361//380 381//391
f 355//382 354//381 374//392
f 347//364 367//393 368//396
f 362//366 382//394 383//397
f 356//368 355//382 375//395
f 348//365 368//396 369//399
f 356//368 376//398 377//400
f 350//371 349//369 369//399
f 357//370 377//400 378//383
f 351//373 350//371 370//401
f 381//391 400//419 401//402
f 375//395 374//392 393//403
f 367//393 386//420 387//405
f 382//394 401//402 402//406
f 375//395 394//404 395//407
f 368//396 387//405 388//408
f 376//398 395//407 396//409
f 369//399 388//408 389//410
f 377//400 396//409 397//411
f 370//401 389//410 390//412
f 378//383 397//411 398//413
f 372//386 371//385 390//412
f 380//388 379//384 398//413
f 373//389 372//386 391//414
f 365//387 384//415 385//418
f 380//388 399//416 400//419
f 373//389 392//417 393//403
f 366//390 385//418 386//420
f 397//411 396//409 415//421
f 389//410 408//439 409//423
f 397//411 416//422 417//424
f 390//412 409//423 410//425
f 398//413 417//424 418//427
f 391//414 410//425 411//428
f 385//418 384//415 403//426
f 399//416 418//427 419//430
f 393//403 392//417 411//428
f 385//418 404//429 405//432
f 401//402 400//419 419//430
f 393//403 412//431 413//434
f 387//405 386//420 405//432
f 401//402 420//433 421//436
f 395//407 394//404 413//434
f 388//408 387//405 406//435
f 396//409 395//407 414//437
f 389//410 388//408 407//438
f 412//431 411//428 430//440
f 405//432 404//429 423//442
f 419//430 438//458 439//444
f 413//434 412//431 431//441
f 405//432 424//443 425//446
f 420//433 439//444 440//447
f 414//437 413//434 432//445
f 407//438 406//435 425//446
f 414//437 433//448 434//450
f 408//439 407//438 426//449
f 416//422 415//421 434//450
f 409//423 408//439 427//451
f 416//422 435//452 436//454
f 409//423 428//453 429//455
f 417//424 436//454 437//457
f 410//425 429//455 430//440
f 404//429 403//426 422//456
f 419//430 418//427 437//457
f 426//449 445//477 446//459
f 435//452 434//450 453//460
f 427//451 446//459 447//462
f 436//454 435//452 454//461
f 428//453 447//462 448//464
f 436//454 455//463 456//466
f 429//455 448//464 449//467
f 422//456 441//465 442//468
f 438//458 437//457 456//466
f 431//441 430//440 449//467
f 424//443 423//442 442//468
f 438//458 457//469 458//472
f 431//441 450//470 451//473
f 424//443 443//471 444//474
f 440//447 439//444 458//472
f 433//448 432//445 451//473
f 425//446 444//474 445//477
f 434//450 433//448 452//476
f 442//468 441//465 460//478
f 456//466 475//496 476//480
f 450//470 449//467 468//481
f 442//468 461//479 462//483
f 458//472 457//469 476//480
f 450//470 469//482 470//485
f 444//474 443//471 462//483
f 458//472 477//484 478//487
f 451//473 470//485 471//488
f 445//477 444//474 463//486
f 453//460 452//476 471//488
f 446//459 445//477 464//489
f 453//460 472//490 473//492
f 447//462 446//459 465//491
f 455//463 454//461 473//492
f 447//462 466//493 467//495
f 455//463 474//494 475//496
f 449//467 448//464 467//495
f 472//490 471//488 490//497
f 465//491 464//489 483//499
f 473//492 472//490 491//498
f 465//491 484//500 485//502
f 473//492 492//501 493//503
f 467//495 466//493 485//502
f 475//496 474//494 493//503
f 468//481 467//495 486//504
f 460//478 479//505 480//508
f 476//480 475//496 494//506
f 469//482 468//481 487//507
f 461//479 480//508 481//511
f 477//484 476//480 495//509
f 469//482 488//510 489//513
f 462//483 481//511 482//514
f 478//487 477//484 496//512
f 470//485 489//513 490//497
f 463//486 482//514 483//499
f 486//504 505//534 506//516
f 480//508 479//505 498//517
f 495//509 494//506 513//519
f 487//507 506//516 507//521
f 481//511 480//508 499//518
f 496//512 495//509 514//520
f 489//513 488//510 507//521
f 481//511 500//522 501//525
f 497//515 496//512 515//523
f 490//497 489//513 508//524
f 482//514 501//525 502//528
f 491//498 490//497 509//527
f 483//499 502//528 503//530
f 492//501 491//498 510//529
f 485//502 484//500 503//530
f 493//503 492//501 511//531
f 486//504 485//502 504//532
f 494//506 493//503 512//533
f 502//528 501//525 520//535
f 509//527 528//553 529//538
f 503//530 502//528 521//536
f 510//529 529//538 530//540
f 504//532 503//530 522//539
f 511//531 530//540 531//542
f 505//534 504//532 523//541
f 512//533 531//542 532//545
f 505//534 524//543 525//546
f 498//517 517//544 518//547
f 514//520 513//519 532//545
f 507//521 506//516 525//546
f 500//522 499//518 518//547
f 515//523 514//520 533//548
f 507//521 526//549 527//552
f 501//525 500//522 519//550
f 516//526 515//523 534//551
f 509//527 508//524 527//552
f 531//542 550//571 551//555
f 524//543 543//572 544//556
f 517//544 536//554 537//557
f 532//545 551//555 552//558
f 525//546 544//556 545//559
f 519//550 518//547 537//557
f 534//551 533//548 552//558
f 527//552 526//549 545//559
f 520//535 519//550 538//560
f 535//537 534//551 553//561
f 527//552 546//562 547//565
f 520//535 539//563 540//566
f 529//538 528//553 547//565
f 521//536 540//566 541//568
f 530//540 529//538 548//567
f 522//539 541//568 542//570
f 531//542 530//540 549//569
f 523//541 542//570 543//572
f 553//561 572//590 573//573
f 547//565 546//562 565//574
f 539//563 558//591 559//576
f 548//567 547//565 566//575
f 540//566 559//576 560//578
f 548//567 567//577 568//579
f 542//570 541//568 560//578
f 550//571 549//569 568//579
f 542//570 561//580 562//582
f 551//555 550//571 569//581
f 543//572 562//582 563//585
f 537//557 536//554 555//583
f 551//555 570//584 571//587
f 545//559 544//556 563//585
f 538//560 537//557 556//586
f 552//558 571//587 572//590
f 545//559 564//588 565//574
f 538//560 557//589 558//591
f 569//581 568//579 587//592
f 561//580 580//610 581//594
f 570//584 569//581 588//593
f 563//585 562//582 581//594
f 556//586 555//583 574//595
f 571//587 570//584 589//596
f 564//588 563//585 582//597
f 556//586 575//598 576//601
f 572//590 571//587 590//599
f 565//574 564//588 583//600
f 558//591 557//589 576//601
f 572//590 591//602 592//605
f 566//575 565//574 584//603
f 558//591 577//604 578//607
f 567//577 566//575 585//606
f 559//576 578//607 579//609
f 568//579 567//577 586//608
f 560//578 579//609 580//610
f 584//603 583//600 601//7
f 576//601 594//3 595//10
f 591//602 609//4 610//12
f 584//603 602//9 603//14
f 577//604 595//10 596//16
f 586//608 585//606 603//14
f 578//607 596//16 597//21
f 587//592 586//608 604//20
f 579//609 597//21 598//25
f 588//593 587//592 605//24
f 580//610 598//25 599//29
f 589//596 588//593 606//28
f 582//597 581//594 599//29
f 575//598 574//595 1//31
f 590//599 589//596 607//34
f 583//600 582//597 600//37
f 576//601 575//598 593//1
f 590//599 608//39 609//4
