# Blender v2.79 (sub 0) OBJ File: 'goboardv2blend.blend'
# www.blender.org
o shoji_opened_Cube.003
v -2456.049561 -566.192383 -660.434570
v -2456.049561 1456.557617 -660.434570
v -2408.813232 -566.192383 -660.434570
v -2408.813232 1456.557617 -660.434570
v -2456.049561 1456.557617 633.671631
v -2456.049561 -566.192383 633.671631
v -2408.813232 1456.557617 633.671631
v -2408.813232 -566.192383 633.671631
v -2456.049561 1456.557617 567.085327
v -2456.049561 1456.557617 -593.848145
v -2408.813232 -566.192383 567.085327
v -2408.813232 -566.192383 -593.848145
v -2456.049561 -566.192383 -593.848145
v -2456.049561 -566.192383 567.085327
v -2408.813232 1456.557617 -593.848145
v -2408.813232 1456.557617 567.085327
v -2456.049561 1396.063232 -660.434570
v -2456.049561 -505.697937 -660.434570
v -2408.813232 1396.063232 -660.434570
v -2408.813232 -505.697937 -660.434570
v -2408.813232 1396.063232 633.671570
v -2408.813232 -505.697937 633.671570
v -2456.049561 1396.063232 633.671570
v -2456.049561 -505.697937 633.671570
v -2408.813232 1396.063232 -593.848145
v -2408.813232 -505.697937 -593.848145
v -2408.813232 1396.063232 567.085266
v -2408.813232 -505.697937 567.085266
v -2456.049561 1396.063232 567.085266
v -2456.049561 -505.697937 567.085266
v -2456.049561 1396.063232 -593.848145
v -2456.049561 -505.697937 -593.848145
v -2383.114990 -505.697937 -660.434570
v -2383.114990 -566.192383 -660.434570
v -2383.114990 -566.192383 -593.848145
v -2383.114990 1456.557617 567.085327
v -2383.114990 1456.557617 633.671631
v -2383.114990 -505.697937 633.671570
v -2383.114990 -566.192383 633.671631
v -2383.114990 -566.192383 567.085327
v -2383.114990 1456.557617 -660.434570
v -2383.114990 1456.557617 -593.848145
v -2383.114990 -505.697937 -593.848145
v -2383.114990 -505.697937 567.085266
v -2383.114990 1396.063232 -660.434570
v -2383.114990 1396.063232 633.671570
v -2383.114990 1396.063232 -593.848145
v -2383.114990 1396.063232 567.085266
v -2456.049561 1015.710938 -660.434570
v -2456.049561 635.358704 -660.434570
v -2456.049561 255.006470 -660.434570
v -2456.049561 -125.345703 -660.434570
v -2408.813232 1015.710938 -660.434570
v -2408.813232 635.358704 -660.434570
v -2408.813232 255.006470 -660.434570
v -2408.813232 -125.345703 -660.434570
v -2408.813232 1015.710938 633.671570
v -2408.813232 635.358704 633.671570
v -2408.813232 255.006470 633.671570
v -2408.813232 -125.345703 633.671570
v -2456.049561 1015.710938 633.671570
v -2456.049561 635.358704 633.671570
v -2456.049561 255.006470 633.671570
v -2456.049561 -125.345703 633.671570
v -2408.813232 1015.710938 -593.848145
v -2408.813232 635.358704 -593.848145
v -2408.813232 255.006470 -593.848145
v -2408.813232 -125.345703 -593.848145
v -2408.813232 1015.710938 567.085266
v -2408.813232 635.358704 567.085266
v -2408.813232 255.006470 567.085266
v -2408.813232 -125.345703 567.085266
v -2456.049561 1015.710938 567.085266
v -2456.049561 635.358704 567.085266
v -2456.049561 255.006470 567.085266
v -2456.049561 -125.345703 567.085266
v -2456.049561 1015.710938 -593.848145
v -2456.049561 635.358704 -593.848145
v -2456.049561 255.006470 -593.848145
v -2456.049561 -125.345703 -593.848145
v -2383.114990 1015.710938 -660.434570
v -2383.114990 635.358704 -660.434570
v -2383.114990 255.006470 -660.434570
v -2383.114990 -125.345703 -660.434570
v -2383.114990 1015.710938 633.671570
v -2383.114990 635.358704 633.671570
v -2383.114990 255.006470 633.671570
v -2383.114990 -125.345703 633.671570
v -2383.114990 1015.710938 -593.848145
v -2383.114990 635.358704 -593.848145
v -2383.114990 255.006470 -593.848145
v -2383.114990 -125.345703 -593.848145
v -2383.114990 1015.710938 567.085266
v -2383.114990 635.358704 567.085266
v -2383.114990 255.006470 567.085266
v -2383.114990 -125.345703 567.085266
v -2456.049561 1068.092651 -660.434570
v -2408.813232 1068.092651 -660.434570
v -2408.813232 1068.092651 633.671570
v -2456.049561 1068.092651 633.671570
v -2408.813232 1068.092651 -593.848145
v -2408.813232 1068.092651 567.085266
v -2456.049561 1068.092651 567.085266
v -2456.049561 1068.092651 -593.848145
v -2383.114990 1068.092651 -660.434570
v -2383.114990 1068.092651 633.671570
v -2383.114990 1068.092651 -593.848145
v -2383.114990 1068.092651 567.085266
v -2456.049561 -188.051575 -660.434570
v -2408.813232 -188.051575 -660.434570
v -2408.813232 -188.051575 633.671570
v -2456.049561 -188.051575 633.671570
v -2408.813232 -188.051575 -593.848145
v -2408.813232 -188.051575 567.085266
v -2456.049561 -188.051575 567.085266
v -2456.049561 -188.051575 -593.848145
v -2383.114990 -188.051575 -660.434570
v -2383.114990 -188.051575 633.671570
v -2383.114990 -188.051575 -593.848145
v -2383.114990 -188.051575 567.085266
v -2456.049561 205.837616 -660.434570
v -2408.813232 205.837616 -660.434570
v -2408.813232 205.837616 633.671570
v -2456.049561 205.837616 633.671570
v -2408.813232 205.837616 -593.848145
v -2408.813232 205.837616 567.085266
v -2456.049561 205.837616 567.085266
v -2456.049561 205.837616 -593.848145
v -2383.114990 205.837616 -660.434570
v -2383.114990 205.837616 633.671570
v -2383.114990 205.837616 -593.848145
v -2383.114990 205.837616 567.085266
v -2456.049561 696.802734 -660.434570
v -2408.813232 696.802734 -660.434570
v -2408.813232 696.802734 633.671570
v -2456.049561 696.802734 633.671570
v -2408.813232 696.802734 -593.848145
v -2408.813232 696.802734 567.085266
v -2456.049561 696.802734 567.085266
v -2456.049561 696.802734 -593.848145
v -2383.114990 696.802734 -660.434570
v -2383.114990 696.802734 633.671570
v -2383.114990 696.802734 -593.848145
v -2383.114990 696.802734 567.085266
v -2456.049561 1456.557617 180.107422
v -2456.049561 1456.557617 -206.870361
v -2408.813232 -566.192383 180.107422
v -2408.813232 -566.192383 -206.870361
v -2456.049561 -566.192383 -206.870361
v -2456.049561 -566.192383 180.107422
v -2408.813232 1456.557617 -206.870361
v -2408.813232 1456.557617 180.107422
v -2456.049561 1396.063232 -206.870361
v -2456.049561 1396.063232 180.107422
v -2456.049561 -505.697937 -206.870361
v -2456.049561 -505.697937 180.107422
v -2408.813232 1396.063232 180.107422
v -2408.813232 1396.063232 -206.870361
v -2408.813232 -505.697937 180.107422
v -2408.813232 -505.697937 -206.870361
v -2383.114990 -566.192383 180.107422
v -2383.114990 -566.192383 -206.870361
v -2383.114990 1456.557617 -206.870361
v -2383.114990 1456.557617 180.107422
v -2383.114990 1396.063232 180.107422
v -2383.114990 1396.063232 -206.870361
v -2383.114990 -505.697937 180.107422
v -2383.114990 -505.697937 -206.870361
v -2408.813232 1015.710938 180.107422
v -2408.813232 1015.710938 -206.870361
v -2408.813232 635.358704 180.107422
v -2408.813232 635.358704 -206.870361
v -2408.813232 255.006470 180.107422
v -2408.813232 255.006470 -206.870361
v -2408.813232 -125.345703 180.107422
v -2408.813232 -125.345703 -206.870361
v -2456.049561 1015.710938 -206.870361
v -2456.049561 1015.710938 180.107422
v -2456.049561 635.358704 -206.870361
v -2456.049561 635.358704 180.107422
v -2456.049561 255.006470 -206.870361
v -2456.049561 255.006470 180.107422
v -2456.049561 -125.345703 -206.870361
v -2456.049561 -125.345703 180.107422
v -2456.049561 1068.092651 -206.870361
v -2456.049561 1068.092651 180.107422
v -2408.813232 1068.092651 180.107422
v -2408.813232 1068.092651 -206.870361
v -2408.813232 -188.051575 180.107422
v -2408.813232 -188.051575 -206.870361
v -2456.049561 -188.051575 -206.870361
v -2456.049561 -188.051575 180.107422
v -2456.049561 205.837616 -206.870361
v -2456.049561 205.837616 180.107422
v -2408.813232 205.837616 180.107422
v -2408.813232 205.837616 -206.870361
v -2456.049561 696.802734 -206.870361
v -2456.049561 696.802734 180.107422
v -2408.813232 696.802734 180.107422
v -2408.813232 696.802734 -206.870361
v -2456.049561 1456.557617 -275.226807
v -2408.813232 -566.192383 -275.226807
v -2408.813232 1396.063232 -275.226807
v -2408.813232 -505.697937 -275.226807
v -2383.114990 -566.192383 -275.226807
v -2383.114990 1396.063232 -275.226807
v -2383.114990 -505.697937 -275.226807
v -2408.813232 1015.710938 -275.226807
v -2408.813232 635.358704 -275.226807
v -2408.813232 255.006470 -275.226807
v -2408.813232 -125.345703 -275.226807
v -2408.813232 1068.092651 -275.226807
v -2408.813232 -188.051575 -275.226807
v -2408.813232 205.837616 -275.226807
v -2408.813232 696.802734 -275.226807
v -2456.049561 -566.192383 -275.226807
v -2408.813232 1456.557617 -275.226807
v -2456.049561 1396.063232 -275.226807
v -2456.049561 -505.697937 -275.226807
v -2383.114990 1456.557617 -275.226807
v -2456.049561 1015.710938 -275.226807
v -2456.049561 635.358704 -275.226807
v -2456.049561 255.006470 -275.226807
v -2456.049561 -125.345703 -275.226807
v -2456.049561 1068.092651 -275.226807
v -2456.049561 -188.051575 -275.226807
v -2456.049561 205.837616 -275.226807
v -2456.049561 696.802734 -275.226807
v -2456.049561 -566.192383 244.007568
v -2408.813232 1456.557617 244.007568
v -2456.049561 1396.063232 244.007568
v -2456.049561 -505.697937 244.007568
v -2383.114990 1456.557617 244.007568
v -2456.049561 1015.710938 244.007568
v -2456.049561 635.358704 244.007568
v -2456.049561 255.006470 244.007568
v -2456.049561 -125.345703 244.007568
v -2456.049561 1068.092651 244.007568
v -2456.049561 -188.051575 244.007568
v -2456.049561 205.837616 244.007568
v -2456.049561 696.802734 244.007568
v -2456.049561 1456.557617 244.007568
v -2408.813232 -566.192383 244.007568
v -2408.813232 1396.063232 244.007568
v -2408.813232 -505.697937 244.007568
v -2383.114990 -566.192383 244.007568
v -2383.114990 1396.063232 244.007568
v -2383.114990 -505.697937 244.007568
v -2408.813232 1015.710938 244.007568
v -2408.813232 635.358704 244.007568
v -2408.813232 255.006470 244.007568
v -2408.813232 -125.345703 244.007568
v -2408.813232 1068.092651 244.007568
v -2408.813232 -188.051575 244.007568
v -2408.813232 205.837616 244.007568
v -2408.813232 696.802734 244.007568
v -2395.492920 1068.092651 -593.848145
v -2395.492920 1015.710938 -593.848145
v -2395.492920 696.802734 -593.848145
v -2395.492920 635.358704 -593.848145
v -2395.492920 1068.092651 567.085266
v -2395.492920 1015.710938 567.085266
v -2395.492920 696.802734 567.085266
v -2395.492920 635.358704 567.085266
v -2395.492920 1015.710938 -275.226807
v -2395.492920 635.358704 -275.226807
v -2395.492920 255.006470 -275.226807
v -2395.492920 255.006470 -593.848145
v -2395.492920 -125.345703 -275.226807
v -2395.492920 -125.345703 -593.848145
v -2395.492920 1068.092651 -275.226807
v -2395.492920 -188.051575 -593.848145
v -2395.492920 -125.345703 567.085266
v -2395.492920 -188.051575 567.085266
v -2395.492920 -188.051575 -275.226807
v -2395.492920 205.837616 -593.848145
v -2395.492920 255.006470 567.085266
v -2395.492920 205.837616 567.085266
v -2395.492920 205.837616 -275.226807
v -2395.492920 696.802734 -275.226807
v -2395.492920 1396.063232 244.007568
v -2395.492920 1396.063232 180.107422
v -2395.492920 -505.697937 244.007568
v -2395.492920 -505.697937 180.107422
v -2395.492920 1015.710938 244.007568
v -2395.492920 1015.710938 180.107422
v -2395.492920 1015.710938 -206.870361
v -2395.492920 635.358704 244.007568
v -2395.492920 635.358704 180.107422
v -2395.492920 635.358704 -206.870361
v -2395.492920 255.006470 244.007568
v -2395.492920 255.006470 180.107422
v -2395.492920 255.006470 -206.870361
v -2395.492920 -125.345703 244.007568
v -2395.492920 -125.345703 180.107422
v -2395.492920 -125.345703 -206.870361
v -2395.492920 1068.092651 244.007568
v -2395.492920 1068.092651 180.107422
v -2395.492920 1068.092651 -206.870361
v -2395.492920 -188.051575 244.007568
v -2395.492920 -188.051575 180.107422
v -2395.492920 -188.051575 -206.870361
v -2395.492920 205.837616 244.007568
v -2395.492920 205.837616 180.107422
v -2395.492920 205.837616 -206.870361
v -2395.492920 696.802734 244.007568
v -2395.492920 696.802734 180.107422
v -2395.492920 696.802734 -206.870361
v -2395.492920 1396.063232 -206.870361
v -2395.492920 -505.697937 -206.870361
v -2395.492920 1396.063232 -275.226807
v -2395.492920 -505.697937 -275.226807
v -2456.049561 -566.192383 3694.954102
v -2456.049561 1456.557617 3694.954102
v -2408.813232 -566.192383 3694.954102
v -2408.813232 1456.557617 3694.954102
v -2456.049561 1456.557617 2400.847900
v -2456.049561 -566.192383 2400.847900
v -2408.813232 1456.557617 2400.847900
v -2408.813232 -566.192383 2400.847900
v -2456.049561 1456.557617 2467.434082
v -2456.049561 1456.557617 3628.367676
v -2408.813232 -566.192383 2467.434082
v -2408.813232 -566.192383 3628.367676
v -2456.049561 -566.192383 3628.367676
v -2456.049561 -566.192383 2467.434082
v -2408.813232 1456.557617 3628.367676
v -2408.813232 1456.557617 2467.434082
v -2456.049561 1396.063232 3694.954102
v -2456.049561 -505.697937 3694.954102
v -2408.813232 1396.063232 3694.954102
v -2408.813232 -505.697937 3694.954102
v -2408.813232 1396.063232 2400.847900
v -2408.813232 -505.697937 2400.847900
v -2456.049561 1396.063232 2400.847900
v -2456.049561 -505.697937 2400.847900
v -2408.813232 1396.063232 3628.367676
v -2408.813232 -505.697937 3628.367676
v -2408.813232 1396.063232 2467.434326
v -2408.813232 -505.697937 2467.434326
v -2456.049561 1396.063232 2467.434326
v -2456.049561 -505.697937 2467.434326
v -2456.049561 1396.063232 3628.367676
v -2456.049561 -505.697937 3628.367676
v -2383.114990 -505.697937 3694.954102
v -2383.114990 -566.192383 3694.954102
v -2383.114990 -566.192383 3628.367676
v -2383.114990 1456.557617 2467.434082
v -2383.114990 1456.557617 2400.847900
v -2383.114990 -505.697937 2400.847900
v -2383.114990 -566.192383 2400.847900
v -2383.114990 -566.192383 2467.434082
v -2383.114990 1456.557617 3694.954102
v -2383.114990 1456.557617 3628.367676
v -2383.114990 -505.697937 3628.367676
v -2383.114990 -505.697937 2467.434326
v -2383.114990 1396.063232 3694.954102
v -2383.114990 1396.063232 2400.847900
v -2383.114990 1396.063232 3628.367676
v -2383.114990 1396.063232 2467.434326
v -2456.049561 1015.710938 3694.954102
v -2456.049561 635.358704 3694.954102
v -2456.049561 255.006470 3694.954102
v -2456.049561 -125.345703 3694.954102
v -2408.813232 1015.710938 3694.954102
v -2408.813232 635.358704 3694.954102
v -2408.813232 255.006470 3694.954102
v -2408.813232 -125.345703 3694.954102
v -2408.813232 1015.710938 2400.847900
v -2408.813232 635.358704 2400.847900
v -2408.813232 255.006470 2400.847900
v -2408.813232 -125.345703 2400.847900
v -2456.049561 1015.710938 2400.847900
v -2456.049561 635.358704 2400.847900
v -2456.049561 255.006470 2400.847900
v -2456.049561 -125.345703 2400.847900
v -2408.813232 1015.710938 3628.367676
v -2408.813232 635.358704 3628.367676
v -2408.813232 255.006470 3628.367676
v -2408.813232 -125.345703 3628.367676
v -2408.813232 1015.710938 2467.434326
v -2408.813232 635.358704 2467.434326
v -2408.813232 255.006470 2467.434326
v -2408.813232 -125.345703 2467.434326
v -2456.049561 1015.710938 2467.434326
v -2456.049561 635.358704 2467.434326
v -2456.049561 255.006470 2467.434326
v -2456.049561 -125.345703 2467.434326
v -2456.049561 1015.710938 3628.367676
v -2456.049561 635.358704 3628.367676
v -2456.049561 255.006470 3628.367676
v -2456.049561 -125.345703 3628.367676
v -2383.114990 1015.710938 3694.954102
v -2383.114990 635.358704 3694.954102
v -2383.114990 255.006470 3694.954102
v -2383.114990 -125.345703 3694.954102
v -2383.114990 1015.710938 2400.847900
v -2383.114990 635.358704 2400.847900
v -2383.114990 255.006470 2400.847900
v -2383.114990 -125.345703 2400.847900
v -2383.114990 1015.710938 3628.367676
v -2383.114990 635.358704 3628.367676
v -2383.114990 255.006470 3628.367676
v -2383.114990 -125.345703 3628.367676
v -2383.114990 1015.710938 2467.434326
v -2383.114990 635.358704 2467.434326
v -2383.114990 255.006470 2467.434326
v -2383.114990 -125.345703 2467.434326
v -2456.049561 1068.092651 3694.954102
v -2408.813232 1068.092651 3694.954102
v -2408.813232 1068.092651 2400.847900
v -2456.049561 1068.092651 2400.847900
v -2408.813232 1068.092651 3628.367676
v -2408.813232 1068.092651 2467.434326
v -2456.049561 1068.092651 2467.434326
v -2456.049561 1068.092651 3628.367676
v -2383.114990 1068.092651 3694.954102
v -2383.114990 1068.092651 2400.847900
v -2383.114990 1068.092651 3628.367676
v -2383.114990 1068.092651 2467.434326
v -2456.049561 -188.051575 3694.954102
v -2408.813232 -188.051575 3694.954102
v -2408.813232 -188.051575 2400.847900
v -2456.049561 -188.051575 2400.847900
v -2408.813232 -188.051575 3628.367676
v -2408.813232 -188.051575 2467.434326
v -2456.049561 -188.051575 2467.434326
v -2456.049561 -188.051575 3628.367676
v -2383.114990 -188.051575 3694.954102
v -2383.114990 -188.051575 2400.847900
v -2383.114990 -188.051575 3628.367676
v -2383.114990 -188.051575 2467.434326
v -2456.049561 205.837616 3694.954102
v -2408.813232 205.837616 3694.954102
v -2408.813232 205.837616 2400.847900
v -2456.049561 205.837616 2400.847900
v -2408.813232 205.837616 3628.367676
v -2408.813232 205.837616 2467.434326
v -2456.049561 205.837616 2467.434326
v -2456.049561 205.837616 3628.367676
v -2383.114990 205.837616 3694.954102
v -2383.114990 205.837616 2400.847900
v -2383.114990 205.837616 3628.367676
v -2383.114990 205.837616 2467.434326
v -2456.049561 696.802734 3694.954102
v -2408.813232 696.802734 3694.954102
v -2408.813232 696.802734 2400.847900
v -2456.049561 696.802734 2400.847900
v -2408.813232 696.802734 3628.367676
v -2408.813232 696.802734 2467.434326
v -2456.049561 696.802734 2467.434326
v -2456.049561 696.802734 3628.367676
v -2383.114990 696.802734 3694.954102
v -2383.114990 696.802734 2400.847900
v -2383.114990 696.802734 3628.367676
v -2383.114990 696.802734 2467.434326
v -2456.049561 1456.557617 2854.412109
v -2456.049561 1456.557617 3241.389893
v -2408.813232 -566.192383 2854.412109
v -2408.813232 -566.192383 3241.389893
v -2456.049561 -566.192383 3241.389893
v -2456.049561 -566.192383 2854.412109
v -2408.813232 1456.557617 3241.389893
v -2408.813232 1456.557617 2854.412109
v -2456.049561 1396.063232 3241.389893
v -2456.049561 1396.063232 2854.412109
v -2456.049561 -505.697937 3241.389893
v -2456.049561 -505.697937 2854.412109
v -2408.813232 1396.063232 2854.412109
v -2408.813232 1396.063232 3241.389893
v -2408.813232 -505.697937 2854.412109
v -2408.813232 -505.697937 3241.389893
v -2383.114990 -566.192383 2854.412109
v -2383.114990 -566.192383 3241.389893
v -2383.114990 1456.557617 3241.389893
v -2383.114990 1456.557617 2854.412109
v -2383.114990 1396.063232 2854.412109
v -2383.114990 1396.063232 3241.389893
v -2383.114990 -505.697937 2854.412109
v -2383.114990 -505.697937 3241.389893
v -2408.813232 1015.710938 2854.412109
v -2408.813232 1015.710938 3241.389893
v -2408.813232 635.358704 2854.412109
v -2408.813232 635.358704 3241.389893
v -2408.813232 255.006470 2854.412109
v -2408.813232 255.006470 3241.389893
v -2408.813232 -125.345703 2854.412109
v -2408.813232 -125.345703 3241.389893
v -2456.049561 1015.710938 3241.389893
v -2456.049561 1015.710938 2854.412109
v -2456.049561 635.358704 3241.389893
v -2456.049561 635.358704 2854.412109
v -2456.049561 255.006470 3241.389893
v -2456.049561 255.006470 2854.412109
v -2456.049561 -125.345703 3241.389893
v -2456.049561 -125.345703 2854.412109
v -2456.049561 1068.092651 3241.389893
v -2456.049561 1068.092651 2854.412109
v -2408.813232 1068.092651 2854.412109
v -2408.813232 1068.092651 3241.389893
v -2408.813232 -188.051575 2854.412109
v -2408.813232 -188.051575 3241.389893
v -2456.049561 -188.051575 3241.389893
v -2456.049561 -188.051575 2854.412109
v -2456.049561 205.837616 3241.389893
v -2456.049561 205.837616 2854.412109
v -2408.813232 205.837616 2854.412109
v -2408.813232 205.837616 3241.389893
v -2456.049561 696.802734 3241.389893
v -2456.049561 696.802734 2854.412109
v -2408.813232 696.802734 2854.412109
v -2408.813232 696.802734 3241.389893
v -2456.049561 1456.557617 3309.746338
v -2408.813232 -566.192383 3309.746338
v -2408.813232 1396.063232 3309.746338
v -2408.813232 -505.697937 3309.746338
v -2383.114990 -566.192383 3309.746338
v -2383.114990 1396.063232 3309.746338
v -2383.114990 -505.697937 3309.746338
v -2408.813232 1015.710938 3309.746338
v -2408.813232 635.358704 3309.746338
v -2408.813232 255.006470 3309.746338
v -2408.813232 -125.345703 3309.746338
v -2408.813232 1068.092651 3309.746338
v -2408.813232 -188.051575 3309.746338
v -2408.813232 205.837616 3309.746338
v -2408.813232 696.802734 3309.746338
v -2456.049561 -566.192383 3309.746338
v -2408.813232 1456.557617 3309.746338
v -2456.049561 1396.063232 3309.746338
v -2456.049561 -505.697937 3309.746338
v -2383.114990 1456.557617 3309.746338
v -2456.049561 1015.710938 3309.746338
v -2456.049561 635.358704 3309.746338
v -2456.049561 255.006470 3309.746338
v -2456.049561 -125.345703 3309.746338
v -2456.049561 1068.092651 3309.746338
v -2456.049561 -188.051575 3309.746338
v -2456.049561 205.837616 3309.746338
v -2456.049561 696.802734 3309.746338
v -2456.049561 -566.192383 2790.511963
v -2408.813232 1456.557617 2790.511963
v -2456.049561 1396.063232 2790.511963
v -2456.049561 -505.697937 2790.511963
v -2383.114990 1456.557617 2790.511963
v -2456.049561 1015.710938 2790.511963
v -2456.049561 635.358704 2790.511963
v -2456.049561 255.006470 2790.511963
v -2456.049561 -125.345703 2790.511963
v -2456.049561 1068.092651 2790.511963
v -2456.049561 -188.051575 2790.511963
v -2456.049561 205.837616 2790.511963
v -2456.049561 696.802734 2790.511963
v -2456.049561 1456.557617 2790.511963
v -2408.813232 -566.192383 2790.511963
v -2408.813232 1396.063232 2790.511963
v -2408.813232 -505.697937 2790.511963
v -2383.114990 -566.192383 2790.511963
v -2383.114990 1396.063232 2790.511963
v -2383.114990 -505.697937 2790.511963
v -2408.813232 1015.710938 2790.511963
v -2408.813232 635.358704 2790.511963
v -2408.813232 255.006470 2790.511963
v -2408.813232 -125.345703 2790.511963
v -2408.813232 1068.092651 2790.511963
v -2408.813232 -188.051575 2790.511963
v -2408.813232 205.837616 2790.511963
v -2408.813232 696.802734 2790.511963
v -2395.492920 1068.092651 3628.367676
v -2395.492920 1015.710938 3628.367676
v -2395.492920 696.802734 3628.367676
v -2395.492920 635.358704 3628.367676
v -2395.492920 1068.092651 2467.434326
v -2395.492920 1015.710938 2467.434326
v -2395.492920 696.802734 2467.434326
v -2395.492920 635.358704 2467.434326
v -2395.492920 1015.710938 3309.746338
v -2395.492920 635.358704 3309.746338
v -2395.492920 255.006470 3309.746338
v -2395.492920 255.006470 3628.367676
v -2395.492920 -125.345703 3309.746338
v -2395.492920 -125.345703 3628.367676
v -2395.492920 1068.092651 3309.746338
v -2395.492920 -188.051575 3628.367676
v -2395.492920 -125.345703 2467.434326
v -2395.492920 -188.051575 2467.434326
v -2395.492920 -188.051575 3309.746338
v -2395.492920 205.837616 3628.367676
v -2395.492920 255.006470 2467.434326
v -2395.492920 205.837616 2467.434326
v -2395.492920 205.837616 3309.746338
v -2395.492920 696.802734 3309.746338
v -2395.492920 1396.063232 2790.511963
v -2395.492920 1396.063232 2854.412109
v -2395.492920 -505.697937 2790.511963
v -2395.492920 -505.697937 2854.412109
v -2395.492920 1015.710938 2790.511963
v -2395.492920 1015.710938 2854.412109
v -2395.492920 1015.710938 3241.389893
v -2395.492920 635.358704 2790.511963
v -2395.492920 635.358704 2854.412109
v -2395.492920 635.358704 3241.389893
v -2395.492920 255.006470 2790.511963
v -2395.492920 255.006470 2854.412109
v -2395.492920 255.006470 3241.389893
v -2395.492920 -125.345703 2790.511963
v -2395.492920 -125.345703 2854.412109
v -2395.492920 -125.345703 3241.389893
v -2395.492920 1068.092651 2790.511963
v -2395.492920 1068.092651 2854.412109
v -2395.492920 1068.092651 3241.389893
v -2395.492920 -188.051575 2790.511963
v -2395.492920 -188.051575 2854.412109
v -2395.492920 -188.051575 3241.389893
v -2395.492920 205.837616 2790.511963
v -2395.492920 205.837616 2854.412109
v -2395.492920 205.837616 3241.389893
v -2395.492920 696.802734 2790.511963
v -2395.492920 696.802734 2854.412109
v -2395.492920 696.802734 3241.389893
v -2395.492920 1396.063232 3241.389893
v -2395.492920 -505.697937 3241.389893
v -2395.492920 1396.063232 3309.746338
v -2395.492920 -505.697937 3309.746338
vt 0.279655 0.860853
vt 0.265266 0.873921
vt 0.265266 0.860853
vt 0.807377 0.860853
vt 0.797169 0.873921
vt 0.797169 0.860853
vt 0.963977 0.295187
vt 0.974185 0.309571
vt 0.963977 0.309571
vt 0.958695 0.604153
vt 0.968902 0.618537
vt 0.958695 0.618537
vt 0.860279 0.013068
vt 0.854726 0.000000
vt 0.860279 0.000000
vt 0.870487 0.423892
vt 0.860279 0.436961
vt 0.860279 0.423892
vt 0.985292 0.706011
vt 0.979739 0.635162
vt 0.985292 0.635162
vt 0.807377 0.450029
vt 0.812930 0.520878
vt 0.807377 0.520878
vt 0.958695 0.869326
vt 0.968902 0.883710
vt 0.958695 0.883710
vt 0.968902 0.687367
vt 0.958695 0.687367
vt 0.963977 0.560360
vt 0.974185 0.574744
vt 0.963977 0.574744
vt 0.974185 0.378401
vt 0.963977 0.378401
vt 0.000000 0.860853
vt 0.014389 0.873921
vt 0.000000 0.873921
vt 0.196412 0.873921
vt 0.196412 0.860853
vt 0.265266 0.436961
vt 0.196412 0.450029
vt 0.196412 0.436961
vt 0.265266 0.792234
vt 0.196412 0.792234
vt 0.014389 0.436961
vt 0.000000 0.450029
vt 0.000000 0.436961
vt 0.014389 0.792234
vt 0.000000 0.792234
vt 0.807377 0.436961
vt 0.812930 0.450029
vt 0.979739 0.378401
vt 0.990845 0.706011
vt 0.985292 0.637392
vt 0.990845 0.637392
vt 0.870487 0.000000
vt 0.870487 0.355274
vt 0.860279 0.355274
vt 0.953141 0.869326
vt 0.974185 0.560360
vt 0.979739 0.574744
vt 0.797169 0.450029
vt 0.797169 0.436961
vt 0.807377 0.792234
vt 0.797169 0.792234
vt 0.279655 0.436961
vt 0.265266 0.450029
vt 0.279655 0.792234
vt 0.279655 0.423892
vt 0.265266 0.436961
vt 0.265266 0.423892
vt 0.014389 0.423892
vt 0.000000 0.436961
vt 0.000000 0.423892
vt 0.195449 0.436961
vt 0.195449 0.423892
vt 0.195449 0.000000
vt 0.265266 0.013068
vt 0.195449 0.013068
vt 0.014389 0.000000
vt 0.000000 0.013068
vt 0.000000 0.000000
vt 0.014389 0.355274
vt 0.000000 0.355274
vt 0.265266 0.000000
vt 0.279655 0.013068
vt 0.279655 0.355274
vt 0.265266 0.355274
vt 0.854726 0.423892
vt 0.812930 0.873921
vt 0.807377 0.873921
vt 0.953141 0.604153
vt 0.854726 0.355274
vt 0.977379 0.250788
vt 0.971826 0.181959
vt 0.977379 0.181959
vt 0.953141 0.799533
vt 0.958695 0.799533
vt 0.988486 0.250788
vt 0.982933 0.180996
vt 0.988486 0.180996
vt 0.974185 0.295187
vt 0.979739 0.309571
vt 0.860279 0.095233
vt 0.854726 0.083917
vt 0.860279 0.083917
vt 0.860279 0.177398
vt 0.854726 0.164125
vt 0.860279 0.164125
vt 0.860279 0.259563
vt 0.854726 0.177398
vt 0.860279 0.341728
vt 0.854726 0.270184
vt 0.860279 0.270184
vt 0.279655 0.083917
vt 0.265266 0.095233
vt 0.265266 0.083917
vt 0.279655 0.164125
vt 0.265266 0.177398
vt 0.265266 0.164125
vt 0.279655 0.177398
vt 0.265266 0.259563
vt 0.279655 0.270184
vt 0.265266 0.341728
vt 0.265266 0.270184
vt 0.014389 0.083917
vt 0.000000 0.095233
vt 0.000000 0.083917
vt 0.014389 0.164125
vt 0.000000 0.177398
vt 0.000000 0.164125
vt 0.014389 0.177398
vt 0.000000 0.259563
vt 0.014389 0.270184
vt 0.000000 0.341728
vt 0.000000 0.270184
vt 0.279655 0.520878
vt 0.265266 0.532194
vt 0.265266 0.520878
vt 0.279655 0.601085
vt 0.265266 0.614359
vt 0.265266 0.601085
vt 0.279655 0.614359
vt 0.265266 0.696523
vt 0.279655 0.707145
vt 0.265266 0.778688
vt 0.265266 0.707145
vt 0.797169 0.532194
vt 0.797169 0.520878
vt 0.807377 0.601085
vt 0.797169 0.614359
vt 0.797169 0.601085
vt 0.807377 0.614359
vt 0.797169 0.696523
vt 0.807377 0.707145
vt 0.797169 0.778688
vt 0.797169 0.707145
vt 0.870487 0.083917
vt 0.870487 0.164125
vt 0.870487 0.177398
vt 0.870487 0.270184
vt 0.990845 0.377352
vt 0.985292 0.366036
vt 0.990845 0.366036
vt 0.990845 0.459517
vt 0.985292 0.446243
vt 0.990845 0.446243
vt 0.990845 0.541682
vt 0.985292 0.459517
vt 0.990845 0.623846
vt 0.985292 0.552303
vt 0.990845 0.552303
vt 0.520024 0.847785
vt 0.522902 0.931381
vt 0.520024 0.931381
vt 0.517145 0.847785
vt 0.520024 0.931381
vt 0.517145 0.931381
vt 0.014389 0.520878
vt 0.000000 0.532194
vt 0.000000 0.520878
vt 0.014389 0.601085
vt 0.000000 0.614359
vt 0.000000 0.601085
vt 0.014389 0.614359
vt 0.000000 0.696523
vt 0.014389 0.707145
vt 0.000000 0.778688
vt 0.000000 0.707145
vt 0.196412 0.532194
vt 0.196412 0.520878
vt 0.196412 0.614359
vt 0.196412 0.601085
vt 0.196412 0.696523
vt 0.196412 0.778688
vt 0.196412 0.707145
vt 0.807377 0.778688
vt 0.812930 0.792234
vt 0.807377 0.696523
vt 0.812930 0.707145
vt 0.812930 0.696523
vt 0.807377 0.532194
vt 0.812930 0.601085
vt 0.985292 0.377352
vt 0.979739 0.363806
vt 0.985292 0.363806
vt 0.985292 0.459517
vt 0.979739 0.448895
vt 0.985292 0.448895
vt 0.985292 0.541682
vt 0.979739 0.459517
vt 0.985292 0.623846
vt 0.979739 0.554955
vt 0.985292 0.554955
vt 0.014389 0.450029
vt 0.985292 0.295187
vt 0.990845 0.295187
vt 0.870487 0.013068
vt 0.279655 0.450029
vt 0.014389 0.013068
vt 0.854726 0.013068
vt 0.812930 0.532194
vt 0.979739 0.623846
vt 0.979739 0.295187
vt 0.985292 0.295187
vt 0.812930 0.860853
vt 0.854726 0.341728
vt 0.279655 0.341728
vt 0.014389 0.341728
vt 0.279655 0.778688
vt 0.870487 0.341728
vt 0.985292 0.623846
vt 0.957575 0.433265
vt 0.954696 0.361722
vt 0.957575 0.361722
vt 0.014389 0.778688
vt 0.979739 0.377352
vt 0.812930 0.778688
vt 0.014389 0.696523
vt 0.951818 0.433265
vt 0.948939 0.361722
vt 0.951818 0.361722
vt 0.985292 0.541682
vt 0.870487 0.259563
vt 0.279655 0.696523
vt 0.014389 0.259563
vt 0.279655 0.259563
vt 0.854726 0.259563
vt 0.979739 0.541682
vt 0.812930 0.614359
vt 0.014389 0.532194
vt 0.985292 0.377352
vt 0.870487 0.095233
vt 0.279655 0.532194
vt 0.014389 0.095233
vt 0.279655 0.095233
vt 0.854726 0.095233
vt 0.999277 0.501676
vt 0.996399 0.432846
vt 0.999277 0.432846
vt 0.098015 0.532194
vt 0.084206 0.601085
vt 0.084206 0.532194
vt 0.181640 0.532194
vt 0.098015 0.601085
vt 0.971781 0.883478
vt 0.968902 0.814587
vt 0.971781 0.814587
vt 0.496996 0.931381
vt 0.494117 0.847785
vt 0.496996 0.847785
vt 0.098015 0.696523
vt 0.084206 0.707145
vt 0.084206 0.696523
vt 0.181640 0.696523
vt 0.098015 0.707145
vt 0.098015 0.778688
vt 0.084206 0.792234
vt 0.084206 0.778688
vt 0.181640 0.778688
vt 0.098015 0.792234
vt 0.494117 0.931381
vt 0.491239 0.847785
vt 0.494117 0.847785
vt 0.491239 0.931381
vt 0.488360 0.847785
vt 0.491239 0.847785
vt 0.997122 0.000000
vt 1.000000 0.068830
vt 0.997122 0.068830
vt 0.098015 0.450029
vt 0.084206 0.520878
vt 0.084206 0.450029
vt 0.181640 0.450029
vt 0.098015 0.520878
vt 0.181640 0.707145
vt 0.098015 0.614359
vt 0.084206 0.614359
vt 0.181640 0.614359
vt 0.181640 0.601085
vt 0.181640 0.520878
vt 0.288290 0.931381
vt 0.291169 1.000000
vt 0.288290 1.000000
vt 0.299804 1.000000
vt 0.296926 0.931381
vt 0.299804 0.931381
vt 0.991049 0.706011
vt 0.993927 0.774903
vt 0.991049 0.774903
vt 0.999277 0.570505
vt 0.996399 0.501676
vt 0.999277 0.501676
vt 0.499874 0.931381
vt 0.496996 0.847785
vt 0.499874 0.847785
vt 0.991049 0.912624
vt 0.993927 0.981453
vt 0.991049 0.981453
vt 0.988486 0.083596
vt 0.982933 0.068830
vt 0.988486 0.068830
vt 0.988486 0.167192
vt 0.982933 0.083596
vt 0.958695 0.702133
vt 0.953141 0.687367
vt 0.958695 0.785729
vt 0.953141 0.702133
vt 0.977379 0.083596
vt 0.971826 0.069792
vt 0.977379 0.069792
vt 0.977379 0.167192
vt 0.971826 0.083596
vt 0.098015 0.000000
vt 0.083243 0.013068
vt 0.083243 0.000000
vt 0.181640 0.000000
vt 0.098015 0.013068
vt 0.098015 0.423892
vt 0.083243 0.436961
vt 0.083243 0.423892
vt 0.181640 0.423892
vt 0.098015 0.436961
vt 0.974185 0.476764
vt 0.979739 0.490567
vt 0.974185 0.490567
vt 0.974185 0.393167
vt 0.979739 0.476764
vt 0.994243 0.206613
vt 0.997121 0.275442
vt 0.994243 0.275442
vt 0.084206 0.860853
vt 0.181640 0.792234
vt 0.098015 0.860853
vt 0.098015 0.436961
vt 0.084206 0.436961
vt 0.181640 0.436961
vt 0.084206 0.873921
vt 0.181640 0.860853
vt 0.098015 0.873921
vt 0.963977 0.476764
vt 0.963977 0.490567
vt 0.963977 0.393167
vt 0.968902 0.799533
vt 0.968902 0.785729
vt 0.014389 0.436961
vt 0.953141 0.618537
vt 0.982933 0.000000
vt 0.988486 0.000000
vt 0.967534 0.883710
vt 0.970412 0.954559
vt 0.967534 0.954559
vt 0.991049 0.843794
vt 0.993927 0.912624
vt 0.991049 0.912624
vt 0.946061 0.433265
vt 0.943182 0.361722
vt 0.946061 0.361722
vt 0.514267 0.847785
vt 0.517145 0.931381
vt 0.514267 0.931381
vt 0.971826 0.167192
vt 0.979739 0.393167
vt 0.181640 0.873921
vt 0.968902 0.702133
vt 0.968902 0.869326
vt 0.014389 0.860853
vt 0.979739 0.560360
vt 0.971826 0.000000
vt 0.977379 0.000000
vt 0.964655 0.883710
vt 0.967534 0.954559
vt 0.964655 0.954559
vt 1.000000 0.275318
vt 0.997122 0.206489
vt 1.000000 0.206489
vt 0.276378 0.873921
vt 0.279256 0.956086
vt 0.276378 0.956086
vt 0.958898 0.954559
vt 0.956020 0.883710
vt 0.958898 0.883710
vt 0.996806 0.912500
vt 0.993927 0.843670
vt 0.996806 0.843670
vt 0.763541 0.847785
vt 0.766419 0.861589
vt 0.763541 0.861589
vt 0.282533 1.000000
vt 0.279655 0.931381
vt 0.282533 0.931381
vt 0.873365 0.428707
vt 0.870487 0.415434
vt 0.873365 0.415434
vt 0.982933 0.167192
vt 0.953141 0.785729
vt 0.181640 0.013068
vt 0.181640 0.436961
vt 0.754905 0.847785
vt 0.757784 0.861589
vt 0.754905 0.861589
vt 0.530531 0.507810
vt 0.460715 0.519126
vt 0.460715 0.507810
vt 0.530531 0.588017
vt 0.460715 0.601290
vt 0.460715 0.588017
vt 0.530531 0.765620
vt 0.460715 0.779166
vt 0.460715 0.765620
vt 0.530531 0.683455
vt 0.460715 0.694077
vt 0.460715 0.683455
vt 0.363280 0.519126
vt 0.348509 0.588017
vt 0.348509 0.519126
vt 0.363280 0.683455
vt 0.348509 0.694077
vt 0.348509 0.683455
vt 0.446906 0.683455
vt 0.363280 0.694077
vt 0.363280 0.765620
vt 0.348509 0.779166
vt 0.348509 0.765620
vt 0.446906 0.765620
vt 0.363280 0.779166
vt 0.363280 0.436961
vt 0.348509 0.507810
vt 0.348509 0.436961
vt 0.363280 0.601290
vt 0.348509 0.601290
vt 0.363280 0.588017
vt 0.446906 0.588017
vt 0.363280 0.507810
vt 0.446906 0.507810
vt 0.348509 0.847785
vt 0.279655 0.519126
vt 0.279655 0.507810
vt 0.279655 0.601290
vt 0.279655 0.588017
vt 0.279655 0.779166
vt 0.279655 0.765620
vt 0.279655 0.694077
vt 0.279655 0.683455
vt 0.446906 0.519126
vt 0.446906 0.694077
vt 0.446906 0.779166
vt 0.460715 0.436961
vt 0.446906 0.436961
vt 0.446906 0.601290
vt 0.446906 0.847785
vt 0.951818 0.361722
vt 0.948939 0.279557
vt 0.951818 0.279557
vt 0.991049 0.914487
vt 0.988170 0.845596
vt 0.991049 0.845596
vt 0.963332 0.350406
vt 0.960453 0.279557
vt 0.963332 0.279557
vt 0.946061 0.279557
vt 0.948939 0.361722
vt 0.946061 0.361722
vt 0.994243 0.068892
vt 0.997121 0.137783
vt 0.994243 0.137783
vt 0.988170 0.706011
vt 0.991049 0.775804
vt 0.988170 0.775804
vt 0.511388 0.847785
vt 0.514267 0.931381
vt 0.511388 0.931381
vt 0.956020 0.955253
vt 0.953141 0.883710
vt 0.956020 0.883710
vt 0.991364 0.069792
vt 0.994243 0.139584
vt 0.991364 0.139584
vt 0.946061 0.361722
vt 0.943182 0.279557
vt 0.946061 0.279557
vt 0.985292 0.706011
vt 0.988170 0.775804
vt 0.985292 0.775804
vt 0.772176 0.861331
vt 0.775055 0.872647
vt 0.772176 0.872647
vt 0.988486 0.069792
vt 0.991364 0.139584
vt 0.988486 0.139584
vt 0.870487 0.388887
vt 0.873365 0.402160
vt 0.870487 0.402160
vt 0.754905 0.861589
vt 0.757784 0.872211
vt 0.754905 0.872211
vt 0.985292 0.775804
vt 0.988170 0.845596
vt 0.985292 0.845596
vt 0.294047 0.931381
vt 0.296926 1.000000
vt 0.294047 1.000000
vt 0.749148 0.862552
vt 0.746270 0.847785
vt 0.749148 0.847785
vt 0.760662 0.872210
vt 0.757784 0.861589
vt 0.760662 0.861589
vt 0.988170 0.775804
vt 0.991049 0.845596
vt 0.988170 0.845596
vt 0.752027 0.847785
vt 0.754905 0.862552
vt 0.752027 0.862552
vt 0.775055 0.861331
vt 0.772176 0.847785
vt 0.775055 0.847785
vt 0.991364 0.139584
vt 0.994243 0.209377
vt 0.991364 0.209377
vt 0.772176 0.872647
vt 0.769298 0.861331
vt 0.772176 0.861331
vt 0.769298 0.861331
vt 0.766419 0.847785
vt 0.769298 0.847785
vt 0.988486 0.139584
vt 0.991364 0.209377
vt 0.988486 0.209377
vt 0.294044 0.436961
vt 0.279655 0.423892
vt 0.294044 0.423892
vt 0.854726 0.436961
vt 0.844518 0.423892
vt 0.854726 0.423892
vt 0.945857 0.014384
vt 0.956065 0.000000
vt 0.956065 0.014384
vt 0.956065 0.014384
vt 0.966273 0.000000
vt 0.966273 0.014384
vt 0.781408 0.873921
vt 0.786961 0.860853
vt 0.786961 0.873921
vt 0.786961 0.436961
vt 0.797169 0.450029
vt 0.786961 0.450029
vt 0.974185 0.645593
vt 0.979739 0.574744
vt 0.979739 0.645593
vt 0.838965 0.083917
vt 0.844518 0.013068
vt 0.844518 0.083917
vt 0.956065 0.279557
vt 0.966273 0.265173
vt 0.966273 0.279557
vt 0.956065 0.083214
vt 0.966273 0.083214
vt 0.945857 0.279557
vt 0.956065 0.265173
vt 0.956065 0.279557
vt 0.945857 0.083214
vt 0.956065 0.083214
vt 0.559310 0.423892
vt 0.544921 0.436961
vt 0.544921 0.423892
vt 0.362898 0.436961
vt 0.362898 0.423892
vt 0.362898 0.013068
vt 0.294044 0.000000
vt 0.362898 0.000000
vt 0.294044 0.355274
vt 0.362898 0.355274
vt 0.559310 0.013068
vt 0.544921 0.000000
vt 0.559310 0.000000
vt 0.544921 0.355273
vt 0.559310 0.355273
vt 0.838965 0.013068
vt 0.844518 0.000000
vt 0.940304 0.083214
vt 0.996399 0.637392
vt 0.990845 0.706011
vt 0.990845 0.637392
vt 0.797169 0.873921
vt 0.797169 0.518648
vt 0.786961 0.518648
vt 0.971826 0.265173
vt 0.940304 0.279557
vt 0.945857 0.265173
vt 0.854726 0.013068
vt 0.854726 0.000000
vt 0.844518 0.355274
vt 0.854726 0.355274
vt 0.294044 0.013068
vt 0.279655 0.000000
vt 0.279655 0.355274
vt 0.824575 0.000000
vt 0.838965 0.013068
vt 0.824575 0.013068
vt 0.559310 0.000000
vt 0.573699 0.013068
vt 0.559310 0.013068
vt 0.754759 0.000000
vt 0.754759 0.013068
vt 0.754759 0.436961
vt 0.824575 0.423892
vt 0.824575 0.436961
vt 0.559310 0.423892
vt 0.573699 0.436961
vt 0.559310 0.436961
vt 0.573699 0.081687
vt 0.559310 0.081687
vt 0.838965 0.423892
vt 0.838965 0.436961
vt 0.838965 0.081687
vt 0.824575 0.081687
vt 0.781408 0.450029
vt 0.838965 0.436961
vt 0.844518 0.436961
vt 0.971826 0.000000
vt 0.781408 0.518648
vt 0.979739 0.774841
vt 0.985292 0.706011
vt 0.985292 0.774841
vt 0.971826 0.195380
vt 0.966273 0.195380
vt 0.977379 0.069792
vt 0.982933 0.000000
vt 0.982933 0.069792
vt 0.940304 0.014384
vt 0.945857 0.000000
vt 0.781408 0.790004
vt 0.786961 0.778688
vt 0.786961 0.790004
vt 0.781408 0.709797
vt 0.786961 0.696523
vt 0.786961 0.709797
vt 0.781408 0.696523
vt 0.786961 0.614359
vt 0.781408 0.603737
vt 0.786961 0.532194
vt 0.786961 0.603737
vt 0.824575 0.341728
vt 0.838965 0.353043
vt 0.824575 0.353043
vt 0.824575 0.259563
vt 0.838965 0.272836
vt 0.824575 0.272836
vt 0.824575 0.177398
vt 0.838965 0.259563
vt 0.824575 0.095233
vt 0.838965 0.166776
vt 0.824575 0.166776
vt 0.559310 0.341728
vt 0.573699 0.353043
vt 0.559310 0.353043
vt 0.559310 0.259563
vt 0.573699 0.272836
vt 0.559310 0.272836
vt 0.559310 0.177398
vt 0.573699 0.259563
vt 0.559310 0.095233
vt 0.573699 0.166776
vt 0.559310 0.166776
vt 0.294044 0.095233
vt 0.279655 0.083917
vt 0.294044 0.083917
vt 0.294044 0.177398
vt 0.279655 0.164125
vt 0.294044 0.164125
vt 0.294044 0.259563
vt 0.279655 0.177398
vt 0.294044 0.341728
vt 0.279655 0.270184
vt 0.294044 0.270184
vt 0.854726 0.095233
vt 0.854726 0.083917
vt 0.854726 0.177398
vt 0.844518 0.164125
vt 0.854726 0.164125
vt 0.854726 0.259563
vt 0.844518 0.177398
vt 0.854726 0.341728
vt 0.844518 0.270184
vt 0.854726 0.270184
vt 0.797169 0.790004
vt 0.797169 0.709797
vt 0.797169 0.696523
vt 0.797169 0.603737
vt 0.996399 0.366036
vt 0.990845 0.377352
vt 0.990845 0.366036
vt 0.996399 0.446243
vt 0.990845 0.459517
vt 0.990845 0.446243
vt 0.996399 0.459517
vt 0.990845 0.541682
vt 0.996399 0.552303
vt 0.990845 0.623846
vt 0.990845 0.552303
vt 0.508510 0.931381
vt 0.511388 0.847785
vt 0.511388 0.931381
vt 0.505631 0.931381
vt 0.508510 0.847785
vt 0.508510 0.931381
vt 0.559310 0.095233
vt 0.544921 0.083917
vt 0.559310 0.083917
vt 0.559310 0.177398
vt 0.544921 0.164125
vt 0.559310 0.164125
vt 0.559310 0.259563
vt 0.544921 0.177398
vt 0.559310 0.341728
vt 0.544921 0.270184
vt 0.559310 0.270184
vt 0.362898 0.095233
vt 0.362898 0.083917
vt 0.362898 0.177398
vt 0.362898 0.164125
vt 0.362898 0.259563
vt 0.362898 0.341728
vt 0.362898 0.270184
vt 0.838965 0.355274
vt 0.844518 0.341728
vt 0.838965 0.270184
vt 0.844518 0.259563
vt 0.838965 0.259563
vt 0.838965 0.164125
vt 0.844518 0.095233
vt 0.974185 0.916949
vt 0.979739 0.903403
vt 0.979739 0.916949
vt 0.974185 0.831860
vt 0.979739 0.821238
vt 0.979739 0.831860
vt 0.974185 0.821238
vt 0.979739 0.739074
vt 0.974185 0.725800
vt 0.979739 0.656909
vt 0.979739 0.725800
vt 0.544921 0.013068
vt 0.996399 0.295187
vt 0.990845 0.295187
vt 0.797169 0.860853
vt 0.279655 0.013068
vt 0.573699 0.423892
vt 0.781408 0.860853
vt 0.838965 0.095233
vt 0.974185 0.656909
vt 0.974185 0.985568
vt 0.979739 0.985568
vt 0.838965 0.423892
vt 0.781408 0.532194
vt 0.838965 0.095233
vt 0.573699 0.095233
vt 0.279655 0.341728
vt 0.797169 0.532194
vt 0.996399 0.623846
vt 0.951818 0.433265
vt 0.954696 0.361722
vt 0.954696 0.433265
vt 0.544921 0.341728
vt 0.974185 0.903403
vt 0.838965 0.341728
vt 0.544921 0.259563
vt 0.940304 0.433265
vt 0.943182 0.361722
vt 0.943182 0.433265
vt 0.996399 0.541682
vt 0.797169 0.614359
vt 0.279655 0.259563
vt 0.573699 0.177398
vt 0.838965 0.177398
vt 0.781408 0.614359
vt 0.974185 0.739074
vt 0.838965 0.177398
vt 0.544921 0.095233
vt 0.996399 0.377352
vt 0.797169 0.778688
vt 0.279655 0.095233
vt 0.573699 0.341728
vt 0.838965 0.341728
vt 0.781408 0.778688
vt 0.996806 0.774841
vt 0.993927 0.843670
vt 0.993927 0.774841
vt 0.475104 0.164125
vt 0.461295 0.095233
vt 0.475104 0.095233
vt 0.461295 0.164125
vt 0.377670 0.095233
vt 0.997121 0.000000
vt 0.994243 0.068892
vt 0.994243 0.000000
vt 0.743391 0.847785
vt 0.740513 0.931381
vt 0.740513 0.847785
vt 0.475104 0.270184
vt 0.461295 0.259563
vt 0.475104 0.259563
vt 0.461295 0.270184
vt 0.377670 0.259563
vt 0.475104 0.355274
vt 0.461295 0.341728
vt 0.475104 0.341728
vt 0.461295 0.355274
vt 0.377670 0.341728
vt 0.740513 0.847785
vt 0.737634 0.931381
vt 0.737634 0.847785
vt 0.528659 0.847785
vt 0.525781 0.931381
vt 0.525781 0.847785
vt 0.997122 0.206489
vt 1.000000 0.137659
vt 1.000000 0.206489
vt 0.475104 0.083917
vt 0.461295 0.013068
vt 0.475104 0.013068
vt 0.461295 0.083917
vt 0.377670 0.013068
vt 0.377670 0.270184
vt 0.461295 0.177398
vt 0.475104 0.177398
vt 0.377670 0.177398
vt 0.377670 0.164125
vt 0.377670 0.083917
vt 0.282533 1.000000
vt 0.285412 0.931381
vt 0.285412 1.000000
vt 0.302683 0.931381
vt 0.299804 1.000000
vt 0.299804 0.931381
vt 0.991364 0.278268
vt 0.994243 0.209377
vt 0.994243 0.278268
vt 0.997121 0.137783
vt 0.994243 0.206613
vt 0.994243 0.137783
vt 0.525781 0.847785
vt 0.522902 0.931381
vt 0.522902 0.847785
vt 0.993927 0.981330
vt 0.996806 0.912500
vt 0.996806 0.981330
vt 0.977379 0.181959
vt 0.982933 0.167192
vt 0.982933 0.181959
vt 0.977379 0.167192
vt 0.982933 0.083596
vt 0.971826 0.083214
vt 0.966273 0.097980
vt 0.971826 0.097980
vt 0.966273 0.181576
vt 0.979739 0.887007
vt 0.985292 0.873204
vt 0.985292 0.887007
vt 0.979739 0.873204
vt 0.985292 0.789607
vt 0.642553 0.423892
vt 0.657325 0.436961
vt 0.642553 0.436961
vt 0.657325 0.423892
vt 0.740950 0.436961
vt 0.642553 0.000000
vt 0.657324 0.013068
vt 0.642553 0.013068
vt 0.657324 0.000000
vt 0.740950 0.013068
vt 0.940304 0.195380
vt 0.945857 0.181576
vt 0.945857 0.195380
vt 0.940304 0.181576
vt 0.945857 0.097980
vt 0.996399 0.364017
vt 0.999277 0.295187
vt 0.999277 0.364017
vt 0.475104 0.423892
vt 0.461295 0.423892
vt 0.377670 0.355274
vt 0.461295 0.000000
vt 0.475104 0.000000
vt 0.377670 0.000000
vt 0.475104 0.436961
vt 0.461295 0.436961
vt 0.377670 0.423892
vt 0.956065 0.181576
vt 0.956065 0.195380
vt 0.956065 0.097980
vt 0.956065 0.195380
vt 0.956065 0.181576
vt 0.573699 0.000000
vt 0.971826 0.014384
vt 0.977379 0.250788
vt 0.982933 0.250788
vt 0.960453 0.421255
vt 0.963332 0.350406
vt 0.963332 0.421255
vt 0.996399 0.432846
vt 0.999277 0.364017
vt 0.999277 0.432846
vt 0.946061 0.433265
vt 0.948939 0.361722
vt 0.948939 0.433265
vt 0.502753 0.931381
vt 0.505631 0.847785
vt 0.505631 0.931381
vt 0.979739 0.789607
vt 0.940304 0.097980
vt 0.377670 0.436961
vt 0.956065 0.097980
vt 0.956065 0.265173
vt 0.940304 0.265173
vt 0.979739 0.956800
vt 0.985292 0.956800
vt 0.958898 0.954559
vt 0.961777 0.883710
vt 0.961777 0.954559
vt 0.996806 0.706011
vt 0.993927 0.774841
vt 0.993927 0.706011
vt 0.951818 0.361722
vt 0.954696 0.279557
vt 0.954696 0.361722
vt 0.964655 0.883710
vt 0.961777 0.954559
vt 0.961777 0.883710
vt 1.000000 0.068830
vt 0.997122 0.137659
vt 0.997122 0.068830
vt 0.760662 0.847785
vt 0.757784 0.861589
vt 0.757784 0.847785
vt 0.288290 0.931381
vt 0.285412 1.000000
vt 0.285412 0.931381
vt 0.873365 0.402160
vt 0.870487 0.415434
vt 0.870487 0.402160
vt 0.977379 0.083596
vt 0.971826 0.181576
vt 0.740950 0.423892
vt 0.740950 0.000000
vt 0.763541 0.847785
vt 0.760662 0.861589
vt 0.760662 0.847785
vt 0.711591 0.765620
vt 0.781408 0.776936
vt 0.711591 0.776936
vt 0.711591 0.683455
vt 0.781408 0.696729
vt 0.711591 0.696729
vt 0.711591 0.505580
vt 0.781408 0.519126
vt 0.711591 0.519126
vt 0.711591 0.590669
vt 0.781408 0.601290
vt 0.711591 0.601290
vt 0.599385 0.696729
vt 0.614157 0.765620
vt 0.599385 0.765620
vt 0.599385 0.590669
vt 0.614157 0.601290
vt 0.599385 0.601290
vt 0.614157 0.590669
vt 0.697782 0.601290
vt 0.599385 0.505580
vt 0.614157 0.519126
vt 0.599385 0.519126
vt 0.614157 0.505580
vt 0.697782 0.519126
vt 0.599385 0.776936
vt 0.614157 0.847785
vt 0.599385 0.847785
vt 0.614157 0.683455
vt 0.599385 0.683455
vt 0.614157 0.696729
vt 0.697782 0.696729
vt 0.614157 0.776936
vt 0.697782 0.776936
vt 0.599385 0.436961
vt 0.530531 0.765620
vt 0.530531 0.776936
vt 0.530531 0.683455
vt 0.530531 0.696729
vt 0.530531 0.505580
vt 0.530531 0.519126
vt 0.530531 0.590669
vt 0.530531 0.601290
vt 0.697782 0.765620
vt 0.697782 0.590669
vt 0.697782 0.505580
vt 0.711591 0.847785
vt 0.697782 0.847785
vt 0.697782 0.683455
vt 0.697782 0.436961
vt 0.960453 0.279557
vt 0.957575 0.361722
vt 0.957575 0.279557
vt 0.993927 0.774903
vt 0.991049 0.843794
vt 0.991049 0.774903
vt 0.971781 0.604153
vt 0.968902 0.675002
vt 0.968902 0.604153
vt 0.940304 0.361722
vt 0.943182 0.279557
vt 0.943182 0.361722
vt 0.988170 0.983379
vt 0.991049 0.914487
vt 0.991049 0.983379
vt 0.991364 0.000000
vt 0.988486 0.069792
vt 0.988486 0.000000
vt 0.499874 0.931381
vt 0.502753 0.847785
vt 0.502753 0.931381
vt 0.960453 0.361722
vt 0.957575 0.433265
vt 0.957575 0.361722
vt 0.973291 0.883710
vt 0.970412 0.953502
vt 0.970412 0.883710
vt 0.957575 0.279557
vt 0.954696 0.361722
vt 0.954696 0.279557
vt 0.988170 0.845596
vt 0.985292 0.915388
vt 0.985292 0.845596
vt 0.766419 0.872647
vt 0.769298 0.861331
vt 0.769298 0.872647
vt 0.991364 0.209377
vt 0.988486 0.279169
vt 0.988486 0.209377
vt 0.777933 0.861058
vt 0.780812 0.847785
vt 0.780812 0.861058
vt 0.775055 0.871952
vt 0.777933 0.861331
vt 0.777933 0.871952
vt 0.988170 0.915388
vt 0.985292 0.985180
vt 0.985292 0.915388
vt 0.291169 1.000000
vt 0.294047 0.931381
vt 0.294047 1.000000
vt 0.752027 0.847785
vt 0.749148 0.862552
vt 0.749148 0.847785
vt 0.763541 0.861589
vt 0.760662 0.872210
vt 0.760662 0.861589
vt 0.971781 0.744794
vt 0.968902 0.814587
vt 0.968902 0.744794
vt 0.743391 0.862552
vt 0.746270 0.847785
vt 0.746270 0.862552
vt 0.775055 0.861331
vt 0.777933 0.847785
vt 0.777933 0.861331
vt 0.971781 0.675002
vt 0.968902 0.744794
vt 0.968902 0.675002
vt 0.780812 0.861058
vt 0.777933 0.872374
vt 0.777933 0.861058
vt 0.769298 0.861331
vt 0.772176 0.847785
vt 0.772176 0.861331
vt 0.994243 0.000000
vt 0.991364 0.069792
vt 0.991364 0.000000
vt 0.279655 0.873921
vt 0.968902 0.604153
vt 0.870487 0.436961
vt 0.979739 0.706011
vt 0.812930 0.436961
vt 0.985292 0.706011
vt 0.953141 0.883710
vt 0.279655 0.436961
vt 0.279655 0.000000
vt 0.854726 0.436961
vt 0.971826 0.250788
vt 0.982933 0.250788
vt 0.979739 0.295187
vt 0.522902 0.847785
vt 0.520024 0.847785
vt 0.954696 0.433265
vt 0.948939 0.433265
vt 0.996399 0.501676
vt 0.968902 0.883478
vt 0.494117 0.931381
vt 0.491239 0.931381
vt 0.488360 0.931381
vt 1.000000 0.000000
vt 0.291169 0.931381
vt 0.296926 1.000000
vt 0.993927 0.706011
vt 0.996399 0.570505
vt 0.496996 0.931381
vt 0.993927 0.912624
vt 0.997121 0.206613
vt 0.970412 0.883710
vt 0.993927 0.843794
vt 0.943182 0.433265
vt 0.517145 0.847785
vt 0.967534 0.883710
vt 0.997122 0.275318
vt 0.279256 0.873921
vt 0.956020 0.954559
vt 0.993927 0.912500
vt 0.766419 0.847785
vt 0.279655 1.000000
vt 0.870487 0.428707
vt 0.757784 0.847785
vt 0.530531 0.519126
vt 0.530531 0.601290
vt 0.530531 0.779166
vt 0.530531 0.694077
vt 0.363280 0.847785
vt 0.460715 0.847785
vt 0.948939 0.361722
vt 0.988170 0.914487
vt 0.960453 0.350406
vt 0.948939 0.279557
vt 0.997121 0.068892
vt 0.991049 0.706011
vt 0.514267 0.847785
vt 0.953141 0.955253
vt 0.994243 0.069792
vt 0.943182 0.361722
vt 0.988170 0.706011
vt 0.775055 0.861331
vt 0.991364 0.069792
vt 0.873365 0.388887
vt 0.757784 0.861589
vt 0.988170 0.775804
vt 0.296926 0.931381
vt 0.746270 0.862552
vt 0.757784 0.872210
vt 0.991049 0.775804
vt 0.754905 0.847785
vt 0.772176 0.861331
vt 0.994243 0.139584
vt 0.769298 0.872647
vt 0.766419 0.861331
vt 0.991364 0.139584
vt 0.279655 0.436961
vt 0.956065 0.000000
vt 0.797169 0.436961
vt 0.974185 0.574744
vt 0.559310 0.436961
vt 0.838965 0.000000
vt 0.996399 0.706011
vt 0.971826 0.279557
vt 0.838965 0.000000
vt 0.754759 0.423892
vt 0.781408 0.436961
vt 0.979739 0.706011
vt 0.977379 0.000000
vt 0.940304 0.000000
vt 0.508510 0.847785
vt 0.505631 0.847785
vt 0.951818 0.361722
vt 0.940304 0.361722
vt 0.996806 0.843670
vt 0.997121 0.068892
vt 0.743391 0.931381
vt 0.740513 0.931381
vt 0.528659 0.931381
vt 0.997122 0.137659
vt 0.282533 0.931381
vt 0.302683 1.000000
vt 0.991364 0.209377
vt 0.997121 0.206613
vt 0.525781 0.931381
vt 0.993927 0.912500
vt 0.996399 0.295187
vt 0.960453 0.350406
vt 0.996399 0.364017
vt 0.946061 0.361722
vt 0.502753 0.847785
vt 0.958898 0.883710
vt 0.996806 0.774841
vt 0.951818 0.279557
vt 0.964655 0.954559
vt 1.000000 0.137659
vt 0.760662 0.861589
vt 0.288290 1.000000
vt 0.873365 0.415434
vt 0.763541 0.861589
vt 0.781408 0.765620
vt 0.781408 0.683455
vt 0.781408 0.505580
vt 0.781408 0.590669
vt 0.614157 0.436961
vt 0.711591 0.436961
vt 0.960453 0.361722
vt 0.993927 0.843794
vt 0.971781 0.675002
vt 0.940304 0.279557
vt 0.988170 0.914487
vt 0.991364 0.069792
vt 0.499874 0.847785
vt 0.960453 0.433265
vt 0.973291 0.953502
vt 0.957575 0.361722
vt 0.988170 0.915388
vt 0.766419 0.861331
vt 0.991364 0.279169
vt 0.777933 0.847785
vt 0.775055 0.861331
vt 0.988170 0.985180
vt 0.291169 0.931381
vt 0.752027 0.862552
vt 0.763541 0.872210
vt 0.971781 0.814587
vt 0.743391 0.847785
vt 0.775055 0.847785
vt 0.971781 0.744794
vt 0.780812 0.872374
vt 0.769298 0.847785
vt 0.994243 0.069792
vt 0.884498 0.604153
vt 0.953141 0.673945
vt 0.884498 0.673945
vt 0.737634 0.847785
vt 0.667817 0.929950
vt 0.667817 0.847785
vt 0.882747 0.854941
vt 0.812930 0.926485
vt 0.812930 0.854941
vt 0.940304 0.318038
vt 0.870487 0.388887
vt 0.870487 0.318038
vt 0.883804 0.771345
vt 0.952720 0.841138
vt 0.883804 0.841138
vt 0.419445 0.847785
vt 0.488360 0.931381
vt 0.419445 0.931381
vt 0.279655 0.847785
vt 0.350529 0.931381
vt 0.279655 0.931381
vt 0.812930 0.604153
vt 0.884498 0.687749
vt 0.812930 0.687749
vt 0.812930 0.436961
vt 0.895124 0.520557
vt 0.812930 0.520557
vt 0.530531 0.847785
vt 0.599174 0.931381
vt 0.530531 0.931381
vt 0.812930 0.926485
vt 0.881573 0.995314
vt 0.812930 0.995314
vt 0.939341 0.164330
vt 0.870487 0.246495
vt 0.870487 0.164330
vt 0.207524 0.873921
vt 0.138670 0.945465
vt 0.138670 0.873921
vt 0.276378 0.873921
vt 0.207524 0.944771
vt 0.207524 0.873921
vt 0.963977 0.505852
vt 0.895124 0.574744
vt 0.895124 0.505852
vt 0.953141 0.673945
vt 0.884498 0.743737
vt 0.884498 0.673945
vt 0.940304 0.082165
vt 0.870487 0.000000
vt 0.940304 0.000000
vt 0.870487 0.246495
vt 0.940304 0.318038
vt 0.870487 0.318038
vt 0.069817 0.944771
vt 0.000000 0.873921
vt 0.069817 0.873921
vt 0.882747 0.924734
vt 0.951662 0.854941
vt 0.951662 0.924734
vt 0.419445 0.847785
vt 0.350529 0.931381
vt 0.350529 0.847785
vt 0.883804 0.771345
vt 0.812930 0.854941
vt 0.812930 0.771345
vt 0.884498 0.687749
vt 0.812930 0.771345
vt 0.812930 0.687749
vt 0.895124 0.520557
vt 0.812930 0.604153
vt 0.812930 0.520557
vt 0.667817 0.847785
vt 0.599174 0.931381
vt 0.599174 0.847785
vt 0.951390 0.924734
vt 0.882747 0.993563
vt 0.882747 0.924734
vt 0.939341 0.164330
vt 0.870487 0.082165
vt 0.939341 0.082165
vt 0.069817 0.873921
vt 0.138670 0.945465
vt 0.069817 0.945465
vt 0.812930 0.944771
vt 0.744076 0.873921
vt 0.812930 0.873921
vt 0.963977 0.505852
vt 0.895124 0.436961
vt 0.963977 0.436961
vt 0.953141 0.604153
vt 0.737634 0.929950
vt 0.882747 0.926485
vt 0.940304 0.388887
vt 0.952720 0.771345
vt 0.488360 0.847785
vt 0.350529 0.847785
vt 0.884498 0.604153
vt 0.895124 0.436961
vt 0.599174 0.847785
vt 0.881573 0.926485
vt 0.939341 0.246495
vt 0.207524 0.945465
vt 0.276378 0.944771
vt 0.963977 0.574744
vt 0.953141 0.743737
vt 0.870487 0.082165
vt 0.940304 0.246495
vt 0.000000 0.944771
vt 0.882747 0.854941
vt 0.419445 0.931381
vt 0.883804 0.854941
vt 0.884498 0.771345
vt 0.895124 0.604153
vt 0.667817 0.931381
vt 0.951390 0.993563
vt 0.870487 0.164330
vt 0.138670 0.873921
vt 0.744076 0.944771
vt 0.895124 0.505852
vn -1.0000 0.0000 0.0000
vn 0.0000 0.0000 -1.0000
vn 0.0000 -1.0000 0.0000
vn 0.0000 1.0000 0.0000
vn 0.0000 -0.0000 1.0000
vn 1.0000 -0.0000 0.0000
s off
f 18/1/1 13/2/1 32/3/1
f 20/4/2 1/5/2 18/6/2
f 1/7/3 12/8/3 13/9/3
f 4/10/4 10/11/4 15/12/4
f 21/13/5 37/14/5 7/15/5
f 24/16/5 8/17/5 22/18/5
f 27/19/2 108/20/2 102/21/2
f 19/22/2 105/23/2 98/24/2
f 16/25/4 5/26/4 7/27/4
f 15/12/4 201/28/4 217/29/4
f 14/30/3 8/31/3 6/32/3
f 13/9/3 202/33/3 216/34/3
f 24/35/1 14/36/1 6/37/1
f 32/3/1 216/38/1 219/39/1
f 10/40/1 218/41/1 201/42/1
f 116/43/1 219/39/1 226/44/1
f 9/45/1 23/46/1 5/47/1
f 115/48/1 24/35/1 112/49/1
f 4/50/2 45/51/2 19/22/2
f 12/8/3 205/52/3 202/33/3
f 26/53/5 119/54/5 113/55/5
f 5/56/5 21/13/5 7/15/5
f 112/57/5 22/18/5 111/58/5
f 7/27/4 36/59/4 16/25/4
f 11/60/3 39/61/3 8/31/3
f 4/50/2 17/62/2 2/63/2
f 110/64/2 18/6/2 109/65/2
f 2/66/1 31/67/1 10/40/1
f 109/68/1 32/3/1 116/43/1
f 38/69/6 40/70/6 44/71/6
f 43/72/6 34/73/6 33/74/6
f 44/71/6 246/75/6 248/76/6
f 233/77/6 48/78/6 247/79/6
f 42/80/6 45/81/6 41/82/6
f 119/83/6 33/74/6 117/84/6
f 36/85/6 46/86/6 48/78/6
f 118/87/6 44/71/6 120/88/6
f 8/17/5 38/89/5 22/18/5
f 20/4/2 34/90/2 3/91/2
f 15/12/4 41/92/4 4/10/4
f 22/18/5 118/93/5 111/58/5
f 25/94/3 206/95/3 203/96/3
f 16/25/4 233/97/4 230/98/4
f 28/99/4 248/100/4 245/101/4
f 3/102/3 35/103/3 12/8/3
f 57/104/5 106/105/5 99/106/5
f 58/107/5 142/108/5 135/109/5
f 59/110/5 86/111/5 58/107/5
f 60/112/5 130/113/5 123/114/5
f 106/115/6 93/116/6 108/117/6
f 142/118/6 94/119/6 144/120/6
f 86/121/6 95/122/6 94/119/6
f 130/123/6 96/124/6 132/125/6
f 107/126/6 81/127/6 105/128/6
f 143/129/6 82/130/6 141/131/6
f 90/132/6 83/133/6 82/130/6
f 131/134/6 84/135/6 129/136/6
f 97/137/1 77/138/1 104/139/1
f 133/140/1 78/141/1 140/142/1
f 50/143/1 79/144/1 78/141/1
f 121/145/1 80/146/1 128/147/1
f 98/24/2 49/148/2 97/149/2
f 134/150/2 50/151/2 133/152/2
f 54/153/2 51/154/2 50/151/2
f 122/155/2 52/156/2 121/157/2
f 100/158/5 57/104/5 99/106/5
f 136/159/5 58/107/5 135/109/5
f 62/160/5 59/110/5 58/107/5
f 124/161/5 60/112/5 123/114/5
f 65/162/5 107/163/5 101/164/5
f 66/165/5 143/166/5 137/167/5
f 67/168/5 90/169/5 66/165/5
f 68/170/5 131/171/5 125/172/5
f 173/173/4 293/174/4 174/175/4
f 199/176/4 308/177/4 200/178/4
f 103/179/1 61/180/1 100/181/1
f 139/182/1 62/183/1 136/184/1
f 74/185/1 63/186/1 62/183/1
f 127/187/1 64/188/1 124/189/1
f 104/139/1 221/190/1 225/191/1
f 140/142/1 222/192/1 228/193/1
f 78/141/1 223/194/1 222/192/1
f 128/147/1 224/195/1 227/196/1
f 56/197/2 117/198/2 110/64/2
f 55/199/2 129/200/2 122/155/2
f 54/153/2 83/201/2 55/199/2
f 53/202/2 141/203/2 134/150/2
f 72/204/2 120/205/2 114/206/2
f 71/207/2 132/208/2 126/209/2
f 70/210/2 95/211/2 71/207/2
f 69/212/2 144/213/2 138/214/2
f 31/67/1 225/191/1 218/41/1
f 29/215/1 100/181/1 23/46/1
f 101/164/5 47/216/5 25/217/5
f 23/218/5 99/106/5 21/13/5
f 19/22/2 97/149/2 17/62/2
f 17/219/1 104/139/1 31/67/1
f 47/220/6 105/128/6 45/81/6
f 46/86/6 108/117/6 48/78/6
f 99/106/5 46/221/5 21/13/5
f 98/24/2 81/222/2 53/202/2
f 102/21/2 93/223/2 69/212/2
f 114/206/2 44/224/2 28/225/2
f 110/64/2 33/226/2 20/4/2
f 111/58/5 88/227/5 60/112/5
f 88/228/6 120/88/6 96/124/6
f 92/229/6 117/84/6 84/135/6
f 52/230/1 116/43/1 80/146/1
f 56/197/2 109/65/2 52/156/2
f 64/231/5 111/58/5 60/112/5
f 113/55/5 92/232/5 68/170/5
f 195/233/2 295/234/2 175/235/2
f 76/236/1 112/49/1 64/188/1
f 80/146/1 226/44/1 224/195/1
f 126/209/2 96/237/2 72/204/2
f 122/155/2 84/238/2 56/197/2
f 79/144/1 227/196/1 223/194/1
f 75/239/1 124/189/1 63/186/1
f 176/240/5 305/241/5 196/242/5
f 125/172/5 91/243/5 67/168/5
f 63/244/5 123/114/5 59/110/5
f 55/199/2 121/157/2 51/154/2
f 51/245/1 128/147/1 79/144/1
f 91/246/6 129/136/6 83/133/6
f 87/247/6 132/125/6 95/122/6
f 123/114/5 87/248/5 59/110/5
f 138/214/2 94/249/2 70/210/2
f 134/150/2 82/250/2 54/153/2
f 77/138/1 228/193/1 221/190/1
f 73/251/1 136/184/1 61/180/1
f 137/167/5 89/252/5 65/162/5
f 61/253/5 135/109/5 57/104/5
f 53/202/2 133/152/2 49/148/2
f 49/254/1 140/142/1 77/138/1
f 89/255/6 141/131/6 81/127/6
f 85/256/6 144/120/6 93/116/6
f 135/109/5 85/257/5 57/104/5
f 113/258/3 275/259/3 213/260/3
f 178/261/1 241/262/1 234/263/1
f 177/264/1 198/265/1 178/261/1
f 256/266/5 285/267/5 249/268/5
f 172/269/3 289/270/3 171/271/3
f 182/272/1 240/273/1 236/274/1
f 181/275/1 194/276/1 182/272/1
f 184/277/1 239/278/1 237/279/1
f 183/280/1 192/281/1 184/277/1
f 170/282/3 286/283/3 169/284/3
f 196/285/3 304/286/3 195/287/3
f 212/288/4 257/289/4 101/290/4
f 154/291/1 238/292/1 231/293/1
f 153/294/1 186/295/1 154/291/1
f 194/276/1 237/279/1 240/273/1
f 193/296/1 184/277/1 194/276/1
f 180/297/1 236/274/1 235/298/1
f 179/299/1 182/272/1 180/297/1
f 198/265/1 235/298/1 241/262/1
f 197/300/1 180/297/1 198/265/1
f 186/295/1 234/263/1 238/292/1
f 185/301/1 178/261/1 186/295/1
f 189/302/2 284/303/2 159/304/2
f 160/305/5 302/306/5 190/307/5
f 208/308/2 280/309/2 215/310/2
f 125/311/3 279/312/3 214/313/3
f 190/314/3 301/315/3 189/316/3
f 215/317/4 259/318/4 137/319/4
f 160/320/4 207/321/4 204/322/4
f 159/323/4 168/324/4 160/320/4
f 151/325/4 220/326/4 217/29/4
f 152/327/4 163/328/4 151/325/4
f 157/329/3 247/330/3 244/331/3
f 158/332/3 165/333/3 157/329/3
f 163/334/6 206/335/6 220/336/6
f 164/337/6 166/338/6 163/334/6
f 168/339/6 205/340/6 207/341/6
f 167/342/6 162/343/6 168/339/6
f 147/344/3 246/345/3 243/346/3
f 148/347/3 161/348/3 147/344/3
f 211/349/4 270/350/4 68/351/4
f 192/281/1 232/352/1 239/278/1
f 191/353/1 156/354/1 192/281/1
f 145/355/1 231/293/1 242/356/1
f 146/357/1 154/291/1 145/355/1
f 156/354/1 229/358/1 232/352/1
f 155/359/1 150/360/1 156/354/1
f 150/361/3 243/346/3 229/362/3
f 149/363/3 147/344/3 150/361/3
f 152/327/4 242/364/4 230/98/4
f 151/325/4 145/365/4 152/327/4
f 207/341/6 35/366/6 43/72/6
f 220/336/6 47/220/6 42/80/6
f 217/29/4 42/367/4 15/12/4
f 204/322/4 43/368/4 26/369/4
f 203/370/2 271/371/2 212/372/2
f 210/373/4 268/374/4 67/375/4
f 214/376/2 269/377/2 211/378/2
f 187/379/4 299/380/4 188/381/4
f 221/190/1 197/300/1 177/264/1
f 223/194/1 193/296/1 181/275/1
f 224/195/1 191/353/1 183/280/1
f 218/41/1 185/301/1 153/294/1
f 227/196/1 183/280/1 193/296/1
f 222/192/1 181/275/1 179/299/1
f 228/193/1 179/299/1 197/300/1
f 225/191/1 177/264/1 185/301/1
f 203/96/3 166/382/3 158/332/3
f 202/33/3 162/383/3 148/347/3
f 226/44/1 155/359/1 191/353/1
f 201/42/1 153/294/1 146/357/1
f 219/39/1 149/384/1 155/359/1
f 216/34/3 148/347/3 149/363/3
f 217/29/4 146/385/4 151/325/4
f 230/98/4 9/386/4 16/25/4
f 229/362/3 11/60/3 14/30/3
f 30/387/1 229/358/1 14/36/1
f 242/356/1 29/215/1 9/45/1
f 239/278/1 30/387/1 115/48/1
f 243/346/3 40/388/3 11/60/3
f 244/331/3 48/389/3 27/390/3
f 238/292/1 73/251/1 103/179/1
f 241/262/1 74/185/1 139/182/1
f 235/298/1 75/239/1 74/185/1
f 240/273/1 76/236/1 127/187/1
f 231/293/1 103/179/1 29/215/1
f 237/279/1 115/48/1 76/236/1
f 236/274/1 127/187/1 75/239/1
f 234/263/1 139/182/1 73/251/1
f 157/391/2 298/392/2 187/393/2
f 66/394/3 266/395/3 209/396/3
f 209/397/2 267/398/2 210/399/2
f 188/400/5 309/401/5 158/402/5
f 65/403/3 265/404/3 208/405/3
f 159/406/3 283/407/3 245/408/3
f 245/409/5 300/410/5 254/411/5
f 70/412/5 263/413/5 138/414/5
f 245/101/4 167/415/4 159/323/4
f 230/98/4 164/416/4 152/327/4
f 233/77/6 165/417/6 164/337/6
f 248/76/6 161/418/6 167/342/6
f 244/419/4 282/420/4 157/421/4
f 261/422/6 285/423/6 297/424/6
f 263/425/6 288/426/6 306/427/6
f 273/428/6 300/429/6 294/430/6
f 277/431/6 303/432/6 291/433/6
f 287/434/6 280/435/6 265/436/6
f 293/437/6 279/438/6 267/439/6
f 292/440/6 305/441/6 293/437/6
f 296/442/6 275/443/6 269/444/6
f 295/445/6 302/446/6 296/442/6
f 309/447/6 271/448/6 311/449/6
f 305/441/6 269/444/6 279/438/6
f 290/450/6 267/439/6 266/451/6
f 308/452/6 266/451/6 280/435/6
f 307/453/6 290/450/6 308/452/6
f 299/454/6 265/436/6 271/448/6
f 298/455/6 287/434/6 299/454/6
f 302/446/6 312/456/6 275/443/6
f 271/448/6 258/457/6 257/458/6
f 280/435/6 260/459/6 259/460/6
f 269/444/6 272/461/6 270/462/6
f 267/439/6 276/463/6 268/464/6
f 285/423/6 307/453/6 286/465/6
f 291/433/6 304/466/6 292/440/6
f 294/430/6 301/467/6 295/445/6
f 281/468/6 298/455/6 282/469/6
f 303/432/6 295/445/6 304/466/6
f 288/426/6 292/440/6 289/470/6
f 306/427/6 289/470/6 307/453/6
f 297/424/6 286/465/6 298/455/6
f 300/429/6 284/471/6 301/467/6
f 174/472/5 290/473/5 172/474/5
f 200/475/5 287/476/5 170/477/5
f 253/478/5 281/479/5 244/480/5
f 171/481/2 292/482/2 173/483/2
f 169/484/2 307/485/2 199/486/2
f 249/487/3 262/488/3 69/489/3
f 175/490/4 296/491/4 176/492/4
f 252/493/5 303/494/5 255/495/5
f 250/496/3 264/497/3 70/498/3
f 251/499/5 288/500/5 250/501/5
f 71/502/4 291/503/4 251/504/4
f 101/505/2 258/506/2 65/507/2
f 72/508/4 294/509/4 252/510/4
f 137/511/2 260/512/2 66/513/2
f 67/514/2 276/515/2 125/516/2
f 102/517/4 297/518/4 253/519/4
f 213/520/2 312/521/2 204/522/2
f 158/523/4 311/524/4 203/525/4
f 126/526/5 277/527/5 71/528/5
f 254/529/3 274/530/3 114/531/3
f 204/532/3 310/533/3 160/534/3
f 68/535/2 272/536/2 113/537/2
f 255/538/3 278/539/3 126/540/3
f 69/541/5 261/542/5 102/543/5
f 114/544/5 273/545/5 72/546/5
f 138/547/4 306/548/4 256/549/4
f 325/550/1 330/551/1 344/552/1
f 313/553/5 332/554/5 330/555/5
f 324/556/3 313/557/3 325/558/3
f 322/559/4 316/560/4 327/561/4
f 349/562/2 333/563/2 319/564/2
f 320/565/2 336/566/2 334/567/2
f 420/568/5 339/569/5 414/570/5
f 417/571/5 331/572/5 410/573/5
f 317/574/4 328/575/4 319/576/4
f 513/577/4 327/561/4 529/578/4
f 320/579/3 326/580/3 318/581/3
f 514/582/3 325/558/3 528/583/3
f 336/584/1 326/585/1 342/586/1
f 528/587/1 344/552/1 531/588/1
f 530/589/1 322/590/1 513/591/1
f 531/588/1 428/592/1 538/593/1
f 335/594/1 321/595/1 317/596/1
f 336/584/1 427/597/1 424/598/1
f 357/599/5 316/600/5 331/572/5
f 517/601/3 324/556/3 514/582/3
f 431/602/2 338/603/2 425/604/2
f 333/563/2 317/605/2 319/564/2
f 334/567/2 424/606/2 423/607/2
f 348/608/4 319/576/4 328/575/4
f 351/609/3 323/610/3 320/579/3
f 329/611/5 316/600/5 314/612/5
f 330/555/5 422/613/5 421/614/5
f 343/615/1 314/616/1 322/590/1
f 344/552/1 421/617/1 428/592/1
f 352/618/6 350/619/6 356/620/6
f 346/621/6 355/622/6 345/623/6
f 558/624/6 356/620/6 560/625/6
f 545/626/6 360/627/6 348/628/6
f 357/629/6 354/630/6 353/631/6
f 345/623/6 431/632/6 429/633/6
f 348/628/6 358/634/6 349/635/6
f 356/620/6 430/636/6 432/637/6
f 350/638/2 320/565/2 334/567/2
f 346/639/5 332/554/5 315/640/5
f 353/641/4 327/561/4 316/560/4
f 430/642/2 334/567/2 423/607/2
f 518/643/3 337/644/3 515/645/3
f 545/646/4 328/575/4 542/647/4
f 560/648/4 340/649/4 557/650/4
f 347/651/3 315/652/3 324/556/3
f 418/653/2 369/654/2 411/655/2
f 454/656/2 370/657/2 447/658/2
f 398/659/2 371/660/2 370/657/2
f 442/661/2 372/662/2 435/663/2
f 405/664/6 418/665/6 420/666/6
f 406/667/6 454/668/6 456/669/6
f 407/670/6 398/671/6 406/667/6
f 408/672/6 442/673/6 444/674/6
f 393/675/6 419/676/6 417/677/6
f 394/678/6 455/679/6 453/680/6
f 395/681/6 402/682/6 394/678/6
f 396/683/6 443/684/6 441/685/6
f 389/686/1 409/687/1 416/688/1
f 390/689/1 445/690/1 452/691/1
f 391/692/1 362/693/1 390/689/1
f 392/694/1 433/695/1 440/696/1
f 361/697/5 410/573/5 409/698/5
f 362/699/5 446/700/5 445/701/5
f 363/702/5 366/703/5 362/699/5
f 364/704/5 434/705/5 433/706/5
f 369/654/2 412/707/2 411/655/2
f 370/657/2 448/708/2 447/658/2
f 371/660/2 374/709/2 370/657/2
f 372/662/2 436/710/2 435/663/2
f 419/711/2 377/712/2 413/713/2
f 455/714/2 378/715/2 449/716/2
f 402/717/2 379/718/2 378/715/2
f 443/719/2 380/720/2 437/721/2
f 605/722/4 485/723/4 486/724/4
f 620/725/4 511/726/4 512/727/4
f 373/728/1 415/729/1 412/730/1
f 374/731/1 451/732/1 448/733/1
f 375/734/1 386/735/1 374/731/1
f 376/736/1 439/737/1 436/738/1
f 533/739/1 416/688/1 537/740/1
f 534/741/1 452/691/1 540/742/1
f 535/743/1 390/689/1 534/741/1
f 536/744/1 440/696/1 539/745/1
f 429/746/5 368/747/5 422/613/5
f 441/748/5 367/749/5 434/705/5
f 395/750/5 366/703/5 367/749/5
f 453/751/5 365/752/5 446/700/5
f 432/753/5 384/754/5 426/755/5
f 444/756/5 383/757/5 438/758/5
f 407/759/5 382/760/5 383/757/5
f 456/761/5 381/762/5 450/763/5
f 537/740/1 343/615/1 530/589/1
f 412/730/1 341/764/1 335/594/1
f 359/765/2 413/713/2 337/766/2
f 411/655/2 335/767/2 333/563/2
f 409/698/5 331/572/5 329/611/5
f 416/688/1 329/768/1 343/615/1
f 417/677/6 359/769/6 357/629/6
f 420/666/6 358/634/6 360/627/6
f 358/770/2 411/655/2 333/563/2
f 393/771/5 410/573/5 365/752/5
f 405/772/5 414/570/5 381/762/5
f 356/773/5 426/755/5 340/774/5
f 345/775/5 422/613/5 332/554/5
f 400/776/2 423/607/2 372/662/2
f 432/637/6 400/777/6 408/672/6
f 429/633/6 404/778/6 396/683/6
f 428/592/1 364/779/1 392/694/1
f 421/614/5 368/747/5 364/704/5
f 423/607/2 376/780/2 372/662/2
f 404/781/2 425/604/2 380/720/2
f 607/782/5 507/783/5 487/784/5
f 424/598/1 388/785/1 376/736/1
f 538/593/1 392/694/1 536/744/1
f 408/786/5 438/758/5 384/754/5
f 396/787/5 434/705/5 368/747/5
f 539/745/1 391/692/1 535/743/1
f 436/738/1 387/788/1 375/734/1
f 617/789/2 488/790/2 508/791/2
f 403/792/2 437/721/2 379/718/2
f 435/663/2 375/793/2 371/660/2
f 433/706/5 367/749/5 363/702/5
f 440/696/1 363/794/1 391/692/1
f 441/685/6 403/795/6 395/681/6
f 444/674/6 399/796/6 407/670/6
f 399/797/2 435/663/2 371/660/2
f 406/798/5 450/763/5 382/760/5
f 394/799/5 446/700/5 366/703/5
f 540/742/1 389/686/1 533/739/1
f 448/733/1 385/800/1 373/728/1
f 401/801/2 449/716/2 377/712/2
f 447/658/2 373/802/2 369/654/2
f 445/701/5 365/752/5 361/697/5
f 452/691/1 361/803/1 389/686/1
f 453/680/6 401/804/6 393/675/6
f 456/669/6 397/805/6 405/664/6
f 397/806/2 447/658/2 369/654/2
f 587/807/3 425/808/3 525/809/3
f 553/810/1 490/811/1 546/812/1
f 510/813/1 489/814/1 490/811/1
f 597/815/2 568/816/2 561/817/2
f 601/818/3 484/819/3 483/820/3
f 552/821/1 494/822/1 548/823/1
f 506/824/1 493/825/1 494/822/1
f 551/826/1 496/827/1 549/828/1
f 504/829/1 495/830/1 496/827/1
f 598/831/3 482/832/3 481/833/3
f 616/834/3 508/835/3 507/836/3
f 569/837/4 524/838/4 413/839/4
f 550/840/1 466/841/1 543/842/1
f 498/843/1 465/844/1 466/841/1
f 549/828/1 506/824/1 552/821/1
f 496/827/1 505/845/1 506/824/1
f 548/823/1 492/846/1 547/847/1
f 494/822/1 491/848/1 492/846/1
f 547/847/1 510/813/1 553/810/1
f 492/846/1 509/849/1 510/813/1
f 546/812/1 498/843/1 550/840/1
f 490/811/1 497/850/1 498/843/1
f 596/851/5 501/852/5 471/853/5
f 614/854/2 472/855/2 502/856/2
f 592/857/5 520/858/5 527/859/5
f 591/860/3 437/861/3 526/862/3
f 613/863/3 502/864/3 501/865/3
f 571/866/4 527/867/4 449/868/4
f 519/869/4 472/870/4 516/871/4
f 480/872/4 471/873/4 472/870/4
f 532/874/4 463/875/4 529/578/4
f 475/876/4 464/877/4 463/875/4
f 559/878/3 469/879/3 556/880/3
f 477/881/3 470/882/3 469/879/3
f 518/883/6 475/884/6 532/885/6
f 478/886/6 476/887/6 475/884/6
f 517/888/6 480/889/6 519/890/6
f 474/891/6 479/892/6 480/889/6
f 558/893/3 459/894/3 555/895/3
f 473/896/3 460/897/3 459/894/3
f 582/898/4 523/899/4 380/900/4
f 544/901/1 504/829/1 551/826/1
f 468/902/1 503/903/1 504/829/1
f 543/842/1 457/904/1 554/905/1
f 466/841/1 458/906/1 457/904/1
f 541/907/1 468/902/1 544/901/1
f 462/908/1 467/909/1 468/902/1
f 555/895/3 462/910/3 541/911/3
f 459/894/3 461/912/3 462/910/3
f 554/913/4 464/877/4 542/647/4
f 457/914/4 463/875/4 464/877/4
f 347/915/6 519/890/6 355/622/6
f 359/769/6 532/885/6 354/630/6
f 354/916/4 529/578/4 327/561/4
f 355/917/4 516/871/4 338/918/4
f 583/919/5 515/920/5 524/921/5
f 580/922/4 522/923/4 379/924/4
f 581/925/5 526/926/5 523/927/5
f 611/928/4 499/929/4 500/930/4
f 509/849/1 533/739/1 489/814/1
f 505/845/1 535/743/1 493/825/1
f 503/903/1 536/744/1 495/830/1
f 497/850/1 530/589/1 465/844/1
f 495/830/1 539/745/1 505/845/1
f 493/825/1 534/741/1 491/848/1
f 491/848/1 540/742/1 509/849/1
f 489/814/1 537/740/1 497/850/1
f 478/931/3 515/645/3 470/882/3
f 474/932/3 514/582/3 460/897/3
f 467/909/1 538/593/1 503/903/1
f 465/844/1 513/591/1 458/906/1
f 461/933/1 531/588/1 467/909/1
f 460/897/3 528/583/3 461/912/3
f 458/934/4 529/578/4 463/875/4
f 321/935/4 542/647/4 328/575/4
f 323/610/3 541/911/3 326/580/3
f 342/586/1 541/907/1 544/901/1
f 341/764/1 554/905/1 321/595/1
f 342/586/1 551/826/1 427/597/1
f 352/936/3 555/895/3 323/610/3
f 360/937/3 556/880/3 339/938/3
f 385/800/1 550/840/1 415/729/1
f 386/735/1 553/810/1 451/732/1
f 387/788/1 547/847/1 386/735/1
f 388/785/1 552/821/1 439/737/1
f 415/729/1 543/842/1 341/764/1
f 427/597/1 549/828/1 388/785/1
f 439/737/1 548/823/1 387/788/1
f 451/732/1 546/812/1 385/800/1
f 610/939/5 469/940/5 499/941/5
f 578/942/3 378/943/3 521/944/3
f 579/945/5 521/946/5 522/947/5
f 621/948/2 500/949/2 470/950/2
f 577/951/3 377/952/3 520/953/3
f 595/954/3 471/955/3 557/956/3
f 612/957/2 557/958/2 566/959/2
f 575/960/2 382/961/2 450/962/2
f 479/963/4 557/650/4 471/873/4
f 476/964/4 542/647/4 464/877/4
f 477/965/6 545/626/6 476/887/6
f 473/966/6 560/625/6 479/892/6
f 594/967/4 556/968/4 469/969/4
f 597/970/6 573/971/6 609/972/6
f 600/973/6 575/974/6 618/975/6
f 612/976/6 585/977/6 606/978/6
f 615/979/6 589/980/6 603/981/6
f 592/982/6 599/983/6 577/984/6
f 591/985/6 605/986/6 579/987/6
f 617/988/6 604/989/6 605/986/6
f 587/990/6 608/991/6 581/992/6
f 614/993/6 607/994/6 608/991/6
f 583/995/6 621/996/6 623/997/6
f 581/992/6 617/988/6 591/985/6
f 579/987/6 602/998/6 578/999/6
f 578/999/6 620/1000/6 592/982/6
f 602/998/6 619/1001/6 620/1000/6
f 577/984/6 611/1002/6 583/995/6
f 599/983/6 610/1003/6 611/1002/6
f 624/1004/6 614/993/6 587/990/6
f 570/1005/6 583/995/6 569/1006/6
f 572/1007/6 592/982/6 571/1008/6
f 584/1009/6 581/992/6 582/1010/6
f 588/1011/6 579/987/6 580/1012/6
f 619/1001/6 597/970/6 598/1013/6
f 616/1014/6 603/981/6 604/989/6
f 613/1015/6 606/978/6 607/994/6
f 610/1003/6 593/1016/6 594/1017/6
f 607/994/6 615/979/6 616/1014/6
f 604/989/6 600/973/6 601/1018/6
f 601/1018/6 618/975/6 619/1001/6
f 598/1013/6 609/972/6 610/1003/6
f 596/1019/6 612/976/6 613/1015/6
f 602/1020/2 486/1021/2 484/1022/2
f 599/1023/2 512/1024/2 482/1025/2
f 593/1026/2 565/1027/2 556/1028/2
f 604/1029/5 483/1030/5 485/1031/5
f 619/1032/5 481/1033/5 511/1034/5
f 574/1035/3 561/1036/3 381/1037/3
f 608/1038/4 487/1039/4 488/1040/4
f 615/1041/2 564/1042/2 567/1043/2
f 576/1044/3 562/1045/3 382/1046/3
f 600/1047/2 563/1048/2 562/1049/2
f 603/1050/4 383/1051/4 563/1052/4
f 570/1053/5 413/1054/5 377/1055/5
f 606/1056/4 384/1057/4 564/1058/4
f 572/1059/5 449/1060/5 378/1061/5
f 588/1062/5 379/1063/5 437/1064/5
f 609/1065/4 414/1066/4 565/1067/4
f 624/1068/5 525/1069/5 516/1070/5
f 623/1071/4 470/1072/4 515/1073/4
f 589/1074/2 438/1075/2 383/1076/2
f 586/1077/3 566/1078/3 426/1079/3
f 622/1080/3 516/1081/3 472/1082/3
f 584/1083/5 380/1084/5 425/1085/5
f 590/1086/3 567/1087/3 438/1088/3
f 573/1089/2 381/1090/2 414/1091/2
f 585/1092/2 426/1093/2 384/1094/2
f 618/1095/4 450/1096/4 568/1097/4
f 18/1/1 1/1098/1 13/2/1
f 20/4/2 3/91/2 1/5/2
f 1/7/3 3/102/3 12/8/3
f 4/10/4 2/1099/4 10/11/4
f 21/13/5 46/221/5 37/14/5
f 24/16/5 6/1100/5 8/17/5
f 27/19/2 48/1101/2 108/20/2
f 19/22/2 45/51/2 105/23/2
f 16/25/4 9/386/4 5/26/4
f 15/12/4 10/11/4 201/28/4
f 14/30/3 11/60/3 8/31/3
f 13/9/3 12/8/3 202/33/3
f 24/35/1 30/387/1 14/36/1
f 32/3/1 13/2/1 216/38/1
f 10/40/1 31/67/1 218/41/1
f 116/43/1 32/3/1 219/39/1
f 9/45/1 29/215/1 23/46/1
f 115/48/1 30/387/1 24/35/1
f 4/50/2 41/1102/2 45/51/2
f 12/8/3 35/103/3 205/52/3
f 26/53/5 43/1103/5 119/54/5
f 5/56/5 23/218/5 21/13/5
f 112/57/5 24/16/5 22/18/5
f 7/27/4 37/1104/4 36/59/4
f 11/60/3 40/388/3 39/61/3
f 4/50/2 19/22/2 17/62/2
f 110/64/2 20/4/2 18/6/2
f 2/66/1 17/219/1 31/67/1
f 109/68/1 18/1/1 32/3/1
f 38/69/6 39/1105/6 40/70/6
f 43/72/6 35/366/6 34/73/6
f 44/71/6 40/70/6 246/75/6
f 233/77/6 36/85/6 48/78/6
f 42/80/6 47/220/6 45/81/6
f 119/83/6 43/72/6 33/74/6
f 36/85/6 37/1106/6 46/86/6
f 118/87/6 38/69/6 44/71/6
f 8/17/5 39/1107/5 38/89/5
f 20/4/2 33/226/2 34/90/2
f 15/12/4 42/367/4 41/92/4
f 22/18/5 38/89/5 118/93/5
f 25/94/3 47/1108/3 206/95/3
f 16/25/4 36/59/4 233/97/4
f 28/99/4 44/1109/4 248/100/4
f 3/102/3 34/1110/3 35/103/3
f 57/104/5 85/257/5 106/105/5
f 58/107/5 86/111/5 142/108/5
f 59/110/5 87/248/5 86/111/5
f 60/112/5 88/227/5 130/113/5
f 106/115/6 85/256/6 93/116/6
f 142/118/6 86/121/6 94/119/6
f 86/121/6 87/247/6 95/122/6
f 130/123/6 88/228/6 96/124/6
f 107/126/6 89/255/6 81/127/6
f 143/129/6 90/132/6 82/130/6
f 90/132/6 91/246/6 83/133/6
f 131/134/6 92/229/6 84/135/6
f 97/137/1 49/254/1 77/138/1
f 133/140/1 50/143/1 78/141/1
f 50/143/1 51/245/1 79/144/1
f 121/145/1 52/230/1 80/146/1
f 98/24/2 53/202/2 49/148/2
f 134/150/2 54/153/2 50/151/2
f 54/153/2 55/199/2 51/154/2
f 122/155/2 56/197/2 52/156/2
f 100/158/5 61/253/5 57/104/5
f 136/159/5 62/160/5 58/107/5
f 62/160/5 63/244/5 59/110/5
f 124/161/5 64/231/5 60/112/5
f 65/162/5 89/252/5 107/163/5
f 66/165/5 90/169/5 143/166/5
f 67/168/5 91/243/5 90/169/5
f 68/170/5 92/232/5 131/171/5
f 173/173/4 292/1111/4 293/174/4
f 199/176/4 307/1112/4 308/177/4
f 103/179/1 73/251/1 61/180/1
f 139/182/1 74/185/1 62/183/1
f 74/185/1 75/239/1 63/186/1
f 127/187/1 76/236/1 64/188/1
f 104/139/1 77/138/1 221/190/1
f 140/142/1 78/141/1 222/192/1
f 78/141/1 79/144/1 223/194/1
f 128/147/1 80/146/1 224/195/1
f 56/197/2 84/238/2 117/198/2
f 55/199/2 83/201/2 129/200/2
f 54/153/2 82/250/2 83/201/2
f 53/202/2 81/222/2 141/203/2
f 72/204/2 96/237/2 120/205/2
f 71/207/2 95/211/2 132/208/2
f 70/210/2 94/249/2 95/211/2
f 69/212/2 93/223/2 144/213/2
f 31/67/1 104/139/1 225/191/1
f 29/215/1 103/179/1 100/181/1
f 101/164/5 107/163/5 47/216/5
f 23/218/5 100/158/5 99/106/5
f 19/22/2 98/24/2 97/149/2
f 17/219/1 97/137/1 104/139/1
f 47/220/6 107/126/6 105/128/6
f 46/86/6 106/115/6 108/117/6
f 99/106/5 106/105/5 46/221/5
f 98/24/2 105/23/2 81/222/2
f 102/21/2 108/20/2 93/223/2
f 114/206/2 120/205/2 44/224/2
f 110/64/2 117/198/2 33/226/2
f 111/58/5 118/93/5 88/227/5
f 88/228/6 118/87/6 120/88/6
f 92/229/6 119/83/6 117/84/6
f 52/230/1 109/68/1 116/43/1
f 56/197/2 110/64/2 109/65/2
f 64/231/5 112/57/5 111/58/5
f 113/55/5 119/54/5 92/232/5
f 195/233/2 304/1113/2 295/234/2
f 76/236/1 115/48/1 112/49/1
f 80/146/1 116/43/1 226/44/1
f 126/209/2 132/208/2 96/237/2
f 122/155/2 129/200/2 84/238/2
f 79/144/1 128/147/1 227/196/1
f 75/239/1 127/187/1 124/189/1
f 176/240/5 296/1114/5 305/241/5
f 125/172/5 131/171/5 91/243/5
f 63/244/5 124/161/5 123/114/5
f 55/199/2 122/155/2 121/157/2
f 51/245/1 121/145/1 128/147/1
f 91/246/6 131/134/6 129/136/6
f 87/247/6 130/123/6 132/125/6
f 123/114/5 130/113/5 87/248/5
f 138/214/2 144/213/2 94/249/2
f 134/150/2 141/203/2 82/250/2
f 77/138/1 140/142/1 228/193/1
f 73/251/1 139/182/1 136/184/1
f 137/167/5 143/166/5 89/252/5
f 61/253/5 136/159/5 135/109/5
f 53/202/2 134/150/2 133/152/2
f 49/254/1 133/140/1 140/142/1
f 89/255/6 143/129/6 141/131/6
f 85/256/6 142/118/6 144/120/6
f 135/109/5 142/108/5 85/257/5
f 113/258/3 272/1115/3 275/259/3
f 178/261/1 198/265/1 241/262/1
f 177/264/1 197/300/1 198/265/1
f 256/266/5 306/1116/5 285/267/5
f 172/269/3 290/1117/3 289/270/3
f 182/272/1 194/276/1 240/273/1
f 181/275/1 193/296/1 194/276/1
f 184/277/1 192/281/1 239/278/1
f 183/280/1 191/353/1 192/281/1
f 170/282/3 287/1118/3 286/283/3
f 196/285/3 305/1119/3 304/286/3
f 212/288/4 271/1120/4 257/289/4
f 154/291/1 186/295/1 238/292/1
f 153/294/1 185/301/1 186/295/1
f 194/276/1 184/277/1 237/279/1
f 193/296/1 183/280/1 184/277/1
f 180/297/1 182/272/1 236/274/1
f 179/299/1 181/275/1 182/272/1
f 198/265/1 180/297/1 235/298/1
f 197/300/1 179/299/1 180/297/1
f 186/295/1 178/261/1 234/263/1
f 185/301/1 177/264/1 178/261/1
f 189/302/2 301/1121/2 284/303/2
f 160/305/5 310/1122/5 302/306/5
f 208/308/2 265/1123/2 280/309/2
f 125/311/3 276/1124/3 279/312/3
f 190/314/3 302/1125/3 301/315/3
f 215/317/4 280/1126/4 259/318/4
f 160/320/4 168/324/4 207/321/4
f 159/323/4 167/415/4 168/324/4
f 151/325/4 163/328/4 220/326/4
f 152/327/4 164/416/4 163/328/4
f 157/329/3 165/333/3 247/330/3
f 158/332/3 166/382/3 165/333/3
f 163/334/6 166/338/6 206/335/6
f 164/337/6 165/417/6 166/338/6
f 168/339/6 162/343/6 205/340/6
f 167/342/6 161/418/6 162/343/6
f 147/344/3 161/348/3 246/345/3
f 148/347/3 162/383/3 161/348/3
f 211/349/4 269/1127/4 270/350/4
f 192/281/1 156/354/1 232/352/1
f 191/353/1 155/359/1 156/354/1
f 145/355/1 154/291/1 231/293/1
f 146/357/1 153/294/1 154/291/1
f 156/354/1 150/360/1 229/358/1
f 155/359/1 149/384/1 150/360/1
f 150/361/3 147/344/3 243/346/3
f 149/363/3 148/347/3 147/344/3
f 152/327/4 145/365/4 242/364/4
f 151/325/4 146/385/4 145/365/4
f 207/341/6 205/340/6 35/366/6
f 220/336/6 206/335/6 47/220/6
f 217/29/4 220/326/4 42/367/4
f 204/322/4 207/321/4 43/368/4
f 203/370/2 311/1128/2 271/371/2
f 210/373/4 267/1129/4 268/374/4
f 214/376/2 279/1130/2 269/377/2
f 187/379/4 298/1131/4 299/380/4
f 221/190/1 228/193/1 197/300/1
f 223/194/1 227/196/1 193/296/1
f 224/195/1 226/44/1 191/353/1
f 218/41/1 225/191/1 185/301/1
f 227/196/1 224/195/1 183/280/1
f 222/192/1 223/194/1 181/275/1
f 228/193/1 222/192/1 179/299/1
f 225/191/1 221/190/1 177/264/1
f 203/96/3 206/95/3 166/382/3
f 202/33/3 205/52/3 162/383/3
f 226/44/1 219/39/1 155/359/1
f 201/42/1 218/41/1 153/294/1
f 219/39/1 216/38/1 149/384/1
f 216/34/3 202/33/3 148/347/3
f 217/29/4 201/28/4 146/385/4
f 230/98/4 242/364/4 9/386/4
f 229/362/3 243/346/3 11/60/3
f 30/387/1 232/352/1 229/358/1
f 242/356/1 231/293/1 29/215/1
f 239/278/1 232/352/1 30/387/1
f 243/346/3 246/345/3 40/388/3
f 244/331/3 247/330/3 48/389/3
f 238/292/1 234/263/1 73/251/1
f 241/262/1 235/298/1 74/185/1
f 235/298/1 236/274/1 75/239/1
f 240/273/1 237/279/1 76/236/1
f 231/293/1 238/292/1 103/179/1
f 237/279/1 239/278/1 115/48/1
f 236/274/1 240/273/1 127/187/1
f 234/263/1 241/262/1 139/182/1
f 157/391/2 282/1132/2 298/392/2
f 66/394/3 260/1133/3 266/395/3
f 209/397/2 266/1134/2 267/398/2
f 188/400/5 299/1135/5 309/401/5
f 65/403/3 258/1136/3 265/404/3
f 159/406/3 284/1137/3 283/407/3
f 245/409/5 283/1138/5 300/410/5
f 70/412/5 264/1139/5 263/413/5
f 245/101/4 248/100/4 167/415/4
f 230/98/4 233/97/4 164/416/4
f 233/77/6 247/79/6 165/417/6
f 248/76/6 246/75/6 161/418/6
f 244/419/4 281/1140/4 282/420/4
f 261/422/6 262/1141/6 285/423/6
f 263/425/6 264/1142/6 288/426/6
f 273/428/6 274/1143/6 300/429/6
f 277/431/6 278/1144/6 303/432/6
f 287/434/6 308/452/6 280/435/6
f 293/437/6 305/441/6 279/438/6
f 292/440/6 304/466/6 305/441/6
f 296/442/6 302/446/6 275/443/6
f 295/445/6 301/467/6 302/446/6
f 309/447/6 299/454/6 271/448/6
f 305/441/6 296/442/6 269/444/6
f 290/450/6 293/437/6 267/439/6
f 308/452/6 290/450/6 266/451/6
f 307/453/6 289/470/6 290/450/6
f 299/454/6 287/434/6 265/436/6
f 298/455/6 286/465/6 287/434/6
f 302/446/6 310/1145/6 312/456/6
f 271/448/6 265/436/6 258/457/6
f 280/435/6 266/451/6 260/459/6
f 269/444/6 275/443/6 272/461/6
f 267/439/6 279/438/6 276/463/6
f 285/423/6 306/427/6 307/453/6
f 291/433/6 303/432/6 304/466/6
f 294/430/6 300/429/6 301/467/6
f 281/468/6 297/424/6 298/455/6
f 303/432/6 294/430/6 295/445/6
f 288/426/6 291/433/6 292/440/6
f 306/427/6 288/426/6 289/470/6
f 297/424/6 285/423/6 286/465/6
f 300/429/6 283/1146/6 284/471/6
f 174/472/5 293/1147/5 290/473/5
f 200/475/5 308/1148/5 287/476/5
f 253/478/5 297/1149/5 281/479/5
f 171/481/2 289/1150/2 292/482/2
f 169/484/2 286/1151/2 307/485/2
f 249/487/3 285/1152/3 262/488/3
f 175/490/4 295/1153/4 296/491/4
f 252/493/5 294/1154/5 303/494/5
f 250/496/3 288/1155/3 264/497/3
f 251/499/5 291/1156/5 288/500/5
f 71/502/4 277/1157/4 291/503/4
f 101/505/2 257/1158/2 258/506/2
f 72/508/4 273/1159/4 294/509/4
f 137/511/2 259/1160/2 260/512/2
f 67/514/2 268/1161/2 276/515/2
f 102/517/4 261/1162/4 297/518/4
f 213/520/2 275/1163/2 312/521/2
f 158/523/4 309/1164/4 311/524/4
f 126/526/5 278/1165/5 277/527/5
f 254/529/3 300/1166/3 274/530/3
f 204/532/3 312/1167/3 310/533/3
f 68/535/2 270/1168/2 272/536/2
f 255/538/3 303/1169/3 278/539/3
f 69/541/5 262/1170/5 261/542/5
f 114/544/5 274/1171/5 273/545/5
f 138/547/4 263/1172/4 306/548/4
f 325/550/1 313/1173/1 330/551/1
f 313/553/5 315/640/5 332/554/5
f 324/556/3 315/652/3 313/557/3
f 322/559/4 314/1174/4 316/560/4
f 349/562/2 358/770/2 333/563/2
f 320/565/2 318/1175/2 336/566/2
f 420/568/5 360/1176/5 339/569/5
f 417/571/5 357/599/5 331/572/5
f 317/574/4 321/935/4 328/575/4
f 513/577/4 322/559/4 327/561/4
f 320/579/3 323/610/3 326/580/3
f 514/582/3 324/556/3 325/558/3
f 336/584/1 318/1177/1 326/585/1
f 528/587/1 325/550/1 344/552/1
f 530/589/1 343/615/1 322/590/1
f 531/588/1 344/552/1 428/592/1
f 335/594/1 341/764/1 321/595/1
f 336/584/1 342/586/1 427/597/1
f 357/599/5 353/1178/5 316/600/5
f 517/601/3 347/651/3 324/556/3
f 431/602/2 355/1179/2 338/603/2
f 333/563/2 335/767/2 317/605/2
f 334/567/2 336/566/2 424/606/2
f 348/608/4 349/1180/4 319/576/4
f 351/609/3 352/936/3 323/610/3
f 329/611/5 331/572/5 316/600/5
f 330/555/5 332/554/5 422/613/5
f 343/615/1 329/768/1 314/616/1
f 344/552/1 330/551/1 421/617/1
f 352/618/6 351/1181/6 350/619/6
f 346/621/6 347/915/6 355/622/6
f 558/624/6 352/618/6 356/620/6
f 545/626/6 559/1182/6 360/627/6
f 357/629/6 359/769/6 354/630/6
f 345/623/6 355/622/6 431/632/6
f 348/628/6 360/627/6 358/634/6
f 356/620/6 350/619/6 430/636/6
f 350/638/2 351/1183/2 320/565/2
f 346/639/5 345/775/5 332/554/5
f 353/641/4 354/916/4 327/561/4
f 430/642/2 350/638/2 334/567/2
f 518/643/3 359/1184/3 337/644/3
f 545/646/4 348/608/4 328/575/4
f 560/648/4 356/1185/4 340/649/4
f 347/651/3 346/1186/3 315/652/3
f 418/653/2 397/806/2 369/654/2
f 454/656/2 398/659/2 370/657/2
f 398/659/2 399/797/2 371/660/2
f 442/661/2 400/776/2 372/662/2
f 405/664/6 397/805/6 418/665/6
f 406/667/6 398/671/6 454/668/6
f 407/670/6 399/796/6 398/671/6
f 408/672/6 400/777/6 442/673/6
f 393/675/6 401/804/6 419/676/6
f 394/678/6 402/682/6 455/679/6
f 395/681/6 403/795/6 402/682/6
f 396/683/6 404/778/6 443/684/6
f 389/686/1 361/803/1 409/687/1
f 390/689/1 362/693/1 445/690/1
f 391/692/1 363/794/1 362/693/1
f 392/694/1 364/779/1 433/695/1
f 361/697/5 365/752/5 410/573/5
f 362/699/5 366/703/5 446/700/5
f 363/702/5 367/749/5 366/703/5
f 364/704/5 368/747/5 434/705/5
f 369/654/2 373/802/2 412/707/2
f 370/657/2 374/709/2 448/708/2
f 371/660/2 375/793/2 374/709/2
f 372/662/2 376/780/2 436/710/2
f 419/711/2 401/801/2 377/712/2
f 455/714/2 402/717/2 378/715/2
f 402/717/2 403/792/2 379/718/2
f 443/719/2 404/781/2 380/720/2
f 605/722/4 604/1187/4 485/723/4
f 620/725/4 619/1188/4 511/726/4
f 373/728/1 385/800/1 415/729/1
f 374/731/1 386/735/1 451/732/1
f 375/734/1 387/788/1 386/735/1
f 376/736/1 388/785/1 439/737/1
f 533/739/1 389/686/1 416/688/1
f 534/741/1 390/689/1 452/691/1
f 535/743/1 391/692/1 390/689/1
f 536/744/1 392/694/1 440/696/1
f 429/746/5 396/787/5 368/747/5
f 441/748/5 395/750/5 367/749/5
f 395/750/5 394/799/5 366/703/5
f 453/751/5 393/771/5 365/752/5
f 432/753/5 408/786/5 384/754/5
f 444/756/5 407/759/5 383/757/5
f 407/759/5 406/798/5 382/760/5
f 456/761/5 405/772/5 381/762/5
f 537/740/1 416/688/1 343/615/1
f 412/730/1 415/729/1 341/764/1
f 359/765/2 419/711/2 413/713/2
f 411/655/2 412/707/2 335/767/2
f 409/698/5 410/573/5 331/572/5
f 416/688/1 409/687/1 329/768/1
f 417/677/6 419/676/6 359/769/6
f 420/666/6 418/665/6 358/634/6
f 358/770/2 418/653/2 411/655/2
f 393/771/5 417/571/5 410/573/5
f 405/772/5 420/568/5 414/570/5
f 356/773/5 432/753/5 426/755/5
f 345/775/5 429/746/5 422/613/5
f 400/776/2 430/642/2 423/607/2
f 432/637/6 430/636/6 400/777/6
f 429/633/6 431/632/6 404/778/6
f 428/592/1 421/617/1 364/779/1
f 421/614/5 422/613/5 368/747/5
f 423/607/2 424/606/2 376/780/2
f 404/781/2 431/602/2 425/604/2
f 607/782/5 616/1189/5 507/783/5
f 424/598/1 427/597/1 388/785/1
f 538/593/1 428/592/1 392/694/1
f 408/786/5 444/756/5 438/758/5
f 396/787/5 441/748/5 434/705/5
f 539/745/1 440/696/1 391/692/1
f 436/738/1 439/737/1 387/788/1
f 617/789/2 608/1190/2 488/790/2
f 403/792/2 443/719/2 437/721/2
f 435/663/2 436/710/2 375/793/2
f 433/706/5 434/705/5 367/749/5
f 440/696/1 433/695/1 363/794/1
f 441/685/6 443/684/6 403/795/6
f 444/674/6 442/673/6 399/796/6
f 399/797/2 442/661/2 435/663/2
f 406/798/5 456/761/5 450/763/5
f 394/799/5 453/751/5 446/700/5
f 540/742/1 452/691/1 389/686/1
f 448/733/1 451/732/1 385/800/1
f 401/801/2 455/714/2 449/716/2
f 447/658/2 448/708/2 373/802/2
f 445/701/5 446/700/5 365/752/5
f 452/691/1 445/690/1 361/803/1
f 453/680/6 455/679/6 401/804/6
f 456/669/6 454/668/6 397/805/6
f 397/806/2 454/656/2 447/658/2
f 587/807/3 584/1191/3 425/808/3
f 553/810/1 510/813/1 490/811/1
f 510/813/1 509/849/1 489/814/1
f 597/815/2 618/1192/2 568/816/2
f 601/818/3 602/1193/3 484/819/3
f 552/821/1 506/824/1 494/822/1
f 506/824/1 505/845/1 493/825/1
f 551/826/1 504/829/1 496/827/1
f 504/829/1 503/903/1 495/830/1
f 598/831/3 599/1194/3 482/832/3
f 616/834/3 617/1195/3 508/835/3
f 569/837/4 583/1196/4 524/838/4
f 550/840/1 498/843/1 466/841/1
f 498/843/1 497/850/1 465/844/1
f 549/828/1 496/827/1 506/824/1
f 496/827/1 495/830/1 505/845/1
f 548/823/1 494/822/1 492/846/1
f 494/822/1 493/825/1 491/848/1
f 547/847/1 492/846/1 510/813/1
f 492/846/1 491/848/1 509/849/1
f 546/812/1 490/811/1 498/843/1
f 490/811/1 489/814/1 497/850/1
f 596/851/5 613/1197/5 501/852/5
f 614/854/2 622/1198/2 472/855/2
f 592/857/5 577/1199/5 520/858/5
f 591/860/3 588/1200/3 437/861/3
f 613/863/3 614/1201/3 502/864/3
f 571/866/4 592/1202/4 527/867/4
f 519/869/4 480/872/4 472/870/4
f 480/872/4 479/963/4 471/873/4
f 532/874/4 475/876/4 463/875/4
f 475/876/4 476/964/4 464/877/4
f 559/878/3 477/881/3 469/879/3
f 477/881/3 478/931/3 470/882/3
f 518/883/6 478/886/6 475/884/6
f 478/886/6 477/965/6 476/887/6
f 517/888/6 474/891/6 480/889/6
f 474/891/6 473/966/6 479/892/6
f 558/893/3 473/896/3 459/894/3
f 473/896/3 474/932/3 460/897/3
f 582/898/4 581/1203/4 523/899/4
f 544/901/1 468/902/1 504/829/1
f 468/902/1 467/909/1 503/903/1
f 543/842/1 466/841/1 457/904/1
f 466/841/1 465/844/1 458/906/1
f 541/907/1 462/908/1 468/902/1
f 462/908/1 461/933/1 467/909/1
f 555/895/3 459/894/3 462/910/3
f 459/894/3 460/897/3 461/912/3
f 554/913/4 457/914/4 464/877/4
f 457/914/4 458/934/4 463/875/4
f 347/915/6 517/888/6 519/890/6
f 359/769/6 518/883/6 532/885/6
f 354/916/4 532/874/4 529/578/4
f 355/917/4 519/869/4 516/871/4
f 583/919/5 623/1204/5 515/920/5
f 580/922/4 579/1205/4 522/923/4
f 581/925/5 591/1206/5 526/926/5
f 611/928/4 610/1207/4 499/929/4
f 509/849/1 540/742/1 533/739/1
f 505/845/1 539/745/1 535/743/1
f 503/903/1 538/593/1 536/744/1
f 497/850/1 537/740/1 530/589/1
f 495/830/1 536/744/1 539/745/1
f 493/825/1 535/743/1 534/741/1
f 491/848/1 534/741/1 540/742/1
f 489/814/1 533/739/1 537/740/1
f 478/931/3 518/643/3 515/645/3
f 474/932/3 517/601/3 514/582/3
f 467/909/1 531/588/1 538/593/1
f 465/844/1 530/589/1 513/591/1
f 461/933/1 528/587/1 531/588/1
f 460/897/3 514/582/3 528/583/3
f 458/934/4 513/577/4 529/578/4
f 321/935/4 554/913/4 542/647/4
f 323/610/3 555/895/3 541/911/3
f 342/586/1 326/585/1 541/907/1
f 341/764/1 543/842/1 554/905/1
f 342/586/1 544/901/1 551/826/1
f 352/936/3 558/893/3 555/895/3
f 360/937/3 559/878/3 556/880/3
f 385/800/1 546/812/1 550/840/1
f 386/735/1 547/847/1 553/810/1
f 387/788/1 548/823/1 547/847/1
f 388/785/1 549/828/1 552/821/1
f 415/729/1 550/840/1 543/842/1
f 427/597/1 551/826/1 549/828/1
f 439/737/1 552/821/1 548/823/1
f 451/732/1 553/810/1 546/812/1
f 610/939/5 594/1208/5 469/940/5
f 578/942/3 572/1209/3 378/943/3
f 579/945/5 578/1210/5 521/946/5
f 621/948/2 611/1211/2 500/949/2
f 577/951/3 570/1212/3 377/952/3
f 595/954/3 596/1213/3 471/955/3
f 612/957/2 595/1214/2 557/958/2
f 575/960/2 576/1215/2 382/961/2
f 479/963/4 560/648/4 557/650/4
f 476/964/4 545/646/4 542/647/4
f 477/965/6 559/1182/6 545/626/6
f 473/966/6 558/624/6 560/625/6
f 594/967/4 593/1216/4 556/968/4
f 597/970/6 574/1217/6 573/971/6
f 600/973/6 576/1218/6 575/974/6
f 612/976/6 586/1219/6 585/977/6
f 615/979/6 590/1220/6 589/980/6
f 592/982/6 620/1000/6 599/983/6
f 591/985/6 617/988/6 605/986/6
f 617/988/6 616/1014/6 604/989/6
f 587/990/6 614/993/6 608/991/6
f 614/993/6 613/1015/6 607/994/6
f 583/995/6 611/1002/6 621/996/6
f 581/992/6 608/991/6 617/988/6
f 579/987/6 605/986/6 602/998/6
f 578/999/6 602/998/6 620/1000/6
f 602/998/6 601/1018/6 619/1001/6
f 577/984/6 599/983/6 611/1002/6
f 599/983/6 598/1013/6 610/1003/6
f 624/1004/6 622/1221/6 614/993/6
f 570/1005/6 577/984/6 583/995/6
f 572/1007/6 578/999/6 592/982/6
f 584/1009/6 587/990/6 581/992/6
f 588/1011/6 591/985/6 579/987/6
f 619/1001/6 618/975/6 597/970/6
f 616/1014/6 615/979/6 603/981/6
f 613/1015/6 612/976/6 606/978/6
f 610/1003/6 609/972/6 593/1016/6
f 607/994/6 606/978/6 615/979/6
f 604/989/6 603/981/6 600/973/6
f 601/1018/6 600/973/6 618/975/6
f 598/1013/6 597/970/6 609/972/6
f 596/1019/6 595/1222/6 612/976/6
f 602/1020/2 605/1223/2 486/1021/2
f 599/1023/2 620/1224/2 512/1024/2
f 593/1026/2 609/1225/2 565/1027/2
f 604/1029/5 601/1226/5 483/1030/5
f 619/1032/5 598/1227/5 481/1033/5
f 574/1035/3 597/1228/3 561/1036/3
f 608/1038/4 607/1229/4 487/1039/4
f 615/1041/2 606/1230/2 564/1042/2
f 576/1044/3 600/1231/3 562/1045/3
f 600/1047/2 603/1232/2 563/1048/2
f 603/1050/4 589/1233/4 383/1051/4
f 570/1053/5 569/1234/5 413/1054/5
f 606/1056/4 585/1235/4 384/1057/4
f 572/1059/5 571/1236/5 449/1060/5
f 588/1062/5 580/1237/5 379/1063/5
f 609/1065/4 573/1238/4 414/1066/4
f 624/1068/5 587/1239/5 525/1069/5
f 623/1071/4 621/1240/4 470/1072/4
f 589/1074/2 590/1241/2 438/1075/2
f 586/1077/3 612/1242/3 566/1078/3
f 622/1080/3 624/1243/3 516/1081/3
f 584/1083/5 582/1244/5 380/1084/5
f 590/1086/3 615/1245/3 567/1087/3
f 573/1089/2 574/1246/2 381/1090/2
f 585/1092/2 586/1247/2 426/1093/2
f 618/1095/4 575/1248/4 450/1096/4
f 114/1249/6 245/1250/6 254/1251/6
f 70/1252/6 251/1253/6 250/1254/6
f 126/1255/6 252/1256/6 255/1257/6
f 27/1258/6 253/1259/6 244/1260/6
f 69/1261/6 256/1262/6 249/1263/6
f 169/1264/6 200/1265/6 170/1266/6
f 157/1267/6 188/1268/6 158/1269/6
f 195/1270/6 176/1271/6 196/1272/6
f 171/1273/6 174/1274/6 172/1275/6
f 189/1276/6 160/1277/6 190/1278/6
f 213/1279/6 26/1280/6 113/1281/6
f 209/1282/6 67/1283/6 66/1284/6
f 214/1285/6 68/1286/6 125/1287/6
f 203/1288/6 101/1289/6 25/1290/6
f 208/1291/6 137/1292/6 65/1293/6
f 557/1294/6 426/1295/6 566/1296/6
f 563/1297/6 382/1298/6 562/1299/6
f 564/1300/6 438/1301/6 567/1302/6
f 565/1303/6 339/1304/6 556/1305/6
f 568/1306/6 381/1307/6 561/1308/6
f 512/1309/6 481/1310/6 482/1311/6
f 500/1312/6 469/1313/6 470/1314/6
f 488/1315/6 507/1316/6 508/1317/6
f 486/1318/6 483/1319/6 484/1320/6
f 472/1321/6 501/1322/6 502/1323/6
f 338/1324/6 525/1325/6 425/1326/6
f 379/1327/6 521/1328/6 378/1329/6
f 380/1330/6 526/1331/6 437/1332/6
f 413/1333/6 515/1334/6 337/1335/6
f 449/1336/6 520/1337/6 377/1338/6
f 114/1249/6 28/1339/6 245/1250/6
f 70/1252/6 71/1340/6 251/1253/6
f 126/1255/6 72/1341/6 252/1256/6
f 27/1258/6 102/1342/6 253/1259/6
f 69/1261/6 138/1343/6 256/1262/6
f 169/1264/6 199/1344/6 200/1265/6
f 157/1267/6 187/1345/6 188/1268/6
f 195/1270/6 175/1346/6 176/1271/6
f 171/1273/6 173/1347/6 174/1274/6
f 189/1276/6 159/1348/6 160/1277/6
f 213/1279/6 204/1349/6 26/1280/6
f 209/1282/6 210/1350/6 67/1283/6
f 214/1285/6 211/1351/6 68/1286/6
f 203/1288/6 212/1352/6 101/1289/6
f 208/1291/6 215/1353/6 137/1292/6
f 557/1294/6 340/1354/6 426/1295/6
f 563/1297/6 383/1355/6 382/1298/6
f 564/1300/6 384/1356/6 438/1301/6
f 565/1303/6 414/1357/6 339/1304/6
f 568/1306/6 450/1358/6 381/1307/6
f 512/1309/6 511/1359/6 481/1310/6
f 500/1312/6 499/1360/6 469/1313/6
f 488/1315/6 487/1361/6 507/1316/6
f 486/1318/6 485/1362/6 483/1319/6
f 472/1321/6 471/1363/6 501/1322/6
f 338/1324/6 516/1364/6 525/1325/6
f 379/1327/6 522/1365/6 521/1328/6
f 380/1330/6 523/1366/6 526/1331/6
f 413/1333/6 524/1367/6 515/1334/6
f 449/1336/6 527/1368/6 520/1337/6
