# Blender v2.79 (sub 0) OBJ File: 'goboardv2blend.blend'
# www.blender.org
o sword_2_Cube.016
v -1067.898071 -104.395470 5186.415039
v -1068.832642 -66.719574 5186.415039
v -1107.944336 -105.388741 5186.415039
v -1108.878784 -67.712845 5186.415039
v -1067.898071 -104.395470 5142.918945
v -1068.832642 -66.719574 5142.918945
v -1107.944336 -105.388741 5142.918945
v -1108.878784 -67.712845 5142.918945
v -1067.298584 -128.566055 5164.666992
v -1107.344849 -129.559326 5164.666992
v -1109.045776 -60.981335 5164.666992
v -1068.999512 -59.988064 5164.666992
v -1689.787476 -87.377853 5148.397461
v -1101.401123 -106.024307 5148.397461
v -1745.990234 -47.987843 5148.397461
v -1100.849854 -71.591736 5148.397461
v -1689.787598 -87.377853 5164.667480
v -1101.401245 -106.024300 5164.667480
v -1745.711426 -50.589745 5164.667480
v -1100.849976 -71.591743 5164.667480
v -1696.796631 -106.756073 5164.667480
v -1102.833252 -125.851624 5164.667480
v -1770.292725 -43.281097 5164.667480
v -1572.773438 -100.953560 5148.397461
v -1455.800903 -108.280830 5148.397461
v -1338.343628 -109.657036 5148.397461
v -1220.401733 -110.945107 5148.397461
v -1597.711182 -64.643639 5148.397461
v -1473.902588 -72.449104 5148.397461
v -1349.609375 -74.303497 5148.397461
v -1224.831421 -76.069763 5148.397461
v -1220.401733 -110.945099 5164.667480
v -1338.343628 -109.657028 5164.667480
v -1455.800903 -108.280823 5164.667480
v -1572.773560 -100.953552 5164.667480
v -1578.879395 -120.394951 5164.667480
v -1461.003662 -127.785400 5164.667480
v -1342.643311 -129.224792 5164.667480
v -1223.798340 -130.576019 5164.667480
v -1140.531860 -108.376526 5148.397461
v -1142.256958 -74.015816 5148.397461
v -1142.264648 -128.213333 5164.667480
v -1140.531982 -108.376526 5164.667480
v -1100.770752 -66.301193 5164.667480
v -1745.002441 -42.815918 5164.667480
v -1142.177856 -68.725273 5164.667480
v -1771.725098 -38.613922 5164.667480
v -1597.347046 -59.357971 5164.667480
v -1473.538452 -67.163437 5164.667480
v -1349.245117 -69.017838 5164.667480
v -1224.467285 -70.784096 5164.667480
v -1050.312378 -159.858673 5100.601562
v -1053.489380 -31.766796 5100.601562
v -1068.366577 -160.306488 5100.601562
v -1071.543701 -32.214596 5100.601562
v -1071.543701 -32.214596 5164.667480
v -1068.366577 -160.306488 5164.667480
v -1053.489380 -31.766796 5164.667480
v -1050.312378 -159.858673 5164.667480
v -1062.611206 -28.171875 5098.691895
v -1059.244751 -163.901398 5098.691895
v -1062.611206 -28.171875 5166.577148
v -1059.244751 -163.901398 5166.577148
v -1070.484619 -74.911896 5100.601562
v -1069.425537 -117.609184 5100.601562
v -1052.430420 -74.464096 5100.601562
v -1051.371338 -117.161385 5100.601562
v -1052.430420 -74.464096 5164.667480
v -1051.371338 -117.161385 5164.667480
v -1070.484619 -74.911896 5164.667480
v -1069.425659 -117.609184 5164.667480
v -1061.489014 -73.415054 5098.691895
v -1060.366943 -118.658226 5098.691895
v -1070.131592 -89.144325 5100.601562
v -1069.778564 -103.376755 5100.601562
v -1052.077393 -88.696526 5100.601562
v -1051.724365 -102.928955 5100.601562
v -1052.077393 -88.696526 5164.667480
v -1051.724365 -102.928955 5164.667480
v -1070.131592 -89.144325 5164.667480
v -1069.778564 -103.376755 5164.667480
v -1061.114990 -88.496109 5098.691895
v -1060.740967 -103.577164 5098.691895
v -794.611755 -81.181633 5181.815430
v -797.923401 -40.037651 5181.815430
v -1052.536987 -111.309601 5181.815430
v -1055.848633 -70.165619 5181.815430
v -794.611755 -81.181633 5147.519531
v -797.923401 -40.037651 5147.519531
v -1052.536987 -111.309601 5147.519043
v -1055.848633 -70.165619 5147.519043
v -1056.321777 -64.286797 5170.383301
v -1056.321777 -64.286797 5158.951172
v -1052.063843 -117.188416 5158.951172
v -1052.063843 -117.188416 5170.383301
v -798.396545 -34.158833 5158.951172
v -798.396545 -34.158833 5170.383301
v -794.138550 -87.060455 5170.383301
v -794.138550 -87.060455 5158.951172
v -795.715637 -67.466972 5184.119629
v -796.819519 -53.752312 5184.119629
v -1054.744751 -83.880280 5184.119629
v -1053.640869 -97.594940 5184.119629
v -1054.744751 -83.880280 5145.214844
v -1053.640869 -97.594940 5145.214844
v -796.819519 -53.752312 5145.214844
v -795.715637 -67.466972 5145.214844
v -1054.902466 -81.920670 5171.151367
v -1053.483154 -99.554550 5171.151367
v -1054.902466 -81.920670 5158.183105
v -1053.483154 -99.554550 5158.183105
v -861.814758 -49.592678 5181.815430
v -925.756470 -58.521400 5181.815430
v -989.899902 -64.944931 5181.815430
v -986.588257 -106.088913 5181.815430
v -922.444885 -99.665390 5181.815430
v -858.503113 -90.736656 5181.815430
v -989.899902 -64.944931 5147.519531
v -925.756470 -58.521400 5147.519531
v -861.814758 -49.592678 5147.519531
v -858.503113 -90.736656 5147.519531
v -922.444885 -99.665390 5147.519531
v -986.588257 -106.088913 5147.519531
v -990.373108 -59.066116 5158.951172
v -926.229675 -52.642586 5158.951172
v -862.287964 -43.713860 5158.951172
v -990.373108 -59.066116 5170.383301
v -926.229675 -52.642586 5170.383301
v -862.287964 -43.713860 5170.383301
v -986.115112 -111.967735 5170.383301
v -921.971680 -105.544205 5170.383301
v -858.029907 -96.615479 5170.383301
v -986.115112 -111.967735 5158.951172
v -921.971680 -105.544205 5158.951172
v -858.029907 -96.615479 5158.951172
v -860.710876 -63.307335 5145.214844
v -924.652649 -72.236061 5145.214844
v -988.796021 -78.659592 5145.214844
v -859.606995 -77.021996 5145.214844
v -923.548767 -85.950722 5145.214844
v -987.692139 -92.374260 5145.214844
v -988.796021 -78.659592 5184.119629
v -924.652649 -72.236061 5184.119629
v -860.710876 -63.307335 5184.119629
v -987.692139 -92.374260 5184.119629
v -923.548767 -85.950722 5184.119629
v -859.606995 -77.021996 5184.119629
v -793.736084 -53.352085 5182.207031
v -794.731445 -40.985992 5180.129395
v -792.740723 -65.718178 5147.127441
v -791.745422 -78.084274 5149.205566
v -795.158081 -35.685242 5169.821289
v -791.318726 -83.385025 5159.513184
v -794.731445 -40.985992 5149.205566
v -795.158081 -35.685242 5159.513184
v -791.745422 -78.084274 5180.129395
v -791.318726 -83.385025 5169.821289
v -792.598511 -67.485092 5158.820801
v -792.598511 -67.485092 5170.513672
v -792.740723 -65.718178 5182.207031
v -793.736084 -53.352085 5147.127441
v -793.878296 -51.585167 5158.820801
v -793.878296 -51.585167 5170.513672
v -882.785828 -369.593323 5100.601562
v -885.962891 -241.501465 5100.601562
v -900.840088 -370.041138 5100.601562
v -904.017151 -241.949265 5100.601562
v -904.017151 -241.949265 5164.667480
v -900.840088 -370.041138 5164.667480
v -885.962891 -241.501465 5164.667480
v -882.785828 -369.593323 5164.667480
v -895.084717 -237.906525 5098.691895
v -891.718262 -373.636047 5098.691895
v -895.084717 -237.906525 5166.577148
v -891.718262 -373.636047 5166.577148
v -902.958130 -284.646545 5100.601562
v -901.899109 -327.343842 5100.601562
v -884.903870 -284.198761 5100.601562
v -883.844849 -326.896057 5100.601562
v -884.903870 -284.198761 5164.667480
v -883.844849 -326.896057 5164.667480
v -902.958130 -284.646545 5164.667480
v -901.899109 -327.343842 5164.667480
v -893.962585 -283.149689 5098.691895
v -892.840393 -328.392883 5098.691895
v -902.605103 -298.878967 5100.601562
v -902.252075 -313.111389 5100.601562
v -884.550842 -298.431183 5100.601562
v -884.197876 -312.663605 5100.601562
v -884.550842 -298.431183 5164.667480
v -884.197876 -312.663605 5164.667480
v -902.605103 -298.878967 5164.667480
v -902.252075 -313.111389 5164.667480
v -893.588501 -298.230774 5098.691895
v -893.214478 -313.311829 5098.691895
v -2004.564575 -291.205261 5148.397949
v -907.473389 -313.354523 5148.398438
v -2070.069092 -249.870407 5148.397949
v -910.293701 -278.882507 5148.398438
v -2004.564697 -291.205231 5164.667969
v -907.473450 -313.354523 5164.668457
v -2069.334961 -252.499420 5164.667969
v -910.293945 -278.882507 5164.668457
v -2016.854370 -310.284698 5164.667969
v -908.028320 -333.231201 5164.668457
v -2108.936035 -242.813721 5164.667969
v -1774.822021 -312.273804 5148.397949
v -1600.832520 -317.239990 5148.398438
v -1370.277100 -322.654541 5148.398438
v -1139.558594 -321.123993 5148.398438
v -1826.197754 -274.425171 5148.397949
v -1640.277344 -281.813721 5148.398438
v -1396.303711 -287.543396 5148.398438
v -1152.166870 -286.327942 5148.398438
v -1139.558716 -321.123993 5164.668457
v -1370.277222 -322.654541 5164.668457
v -1600.832642 -317.239990 5164.667969
v -1774.822266 -312.273804 5164.667969
v -1785.342407 -331.466492 5164.667969
v -1608.795776 -336.883820 5164.667969
v -1376.467651 -342.340027 5164.668457
v -1143.976318 -340.851105 5164.668457
v -983.706482 -316.644043 5148.398438
v -990.968811 -282.298340 5148.398438
v -984.848206 -336.537384 5164.668457
v -983.706543 -316.644043 5164.668457
v -910.737976 -273.586060 5164.668457
v -2068.514160 -244.729553 5164.667969
v -991.413147 -277.001892 5164.668457
v -2112.164551 -236.804443 5164.667969
v -1825.870117 -269.135681 5164.667969
v -1640.163818 -276.515289 5164.667969
v -1396.190186 -282.244995 5164.668457
v -1152.053345 -281.029541 5164.668457
v -627.085449 -290.916443 5181.816406
v -630.397095 -249.772446 5181.816406
v -885.010803 -321.044434 5181.816406
v -888.322449 -279.900421 5181.816406
v -627.085449 -290.916443 5147.520508
v -630.397095 -249.772446 5147.520508
v -885.010803 -321.044434 5147.520020
v -888.322449 -279.900421 5147.520020
v -888.795593 -274.021606 5170.384277
v -888.795593 -274.021606 5158.952148
v -884.537598 -326.923218 5158.952148
v -884.537598 -326.923218 5170.384277
v -630.870300 -243.893631 5158.952148
v -630.870300 -243.893631 5170.384277
v -626.612305 -296.795227 5170.384277
v -626.612305 -296.795227 5158.952148
v -628.189331 -277.201782 5184.120605
v -629.293213 -263.487122 5184.120605
v -887.218567 -293.615112 5184.120605
v -886.114685 -307.329773 5184.120605
v -887.218567 -293.615112 5145.215820
v -886.114685 -307.329773 5145.215820
v -629.293213 -263.487122 5145.215820
v -628.189331 -277.201782 5145.215820
v -887.376282 -291.655487 5171.152344
v -885.956970 -309.289368 5171.152344
v -887.376282 -291.655487 5158.184082
v -885.956970 -309.289368 5158.184082
v -694.288452 -259.327454 5181.816406
v -758.230286 -268.256226 5181.816406
v -822.373657 -274.679749 5181.816406
v -819.062073 -315.823730 5181.816406
v -754.918579 -309.400208 5181.816406
v -690.976868 -300.471466 5181.816406
v -822.373657 -274.679749 5147.520508
v -758.230286 -268.256226 5147.520508
v -694.288452 -259.327454 5147.520508
v -690.976868 -300.471466 5147.520508
v -754.918579 -309.400208 5147.520508
v -819.062073 -315.823730 5147.520508
v -822.846802 -268.800903 5158.952148
v -758.703491 -262.377380 5158.952148
v -694.761658 -253.448654 5158.952148
v -822.846802 -268.800903 5170.384277
v -758.703491 -262.377380 5170.384277
v -694.761658 -253.448654 5170.384277
v -818.588867 -321.702576 5170.384277
v -754.445435 -315.278992 5170.384277
v -690.503662 -306.350281 5170.384277
v -818.588867 -321.702576 5158.952148
v -754.445435 -315.278992 5158.952148
v -690.503662 -306.350281 5158.952148
v -693.184570 -273.042114 5145.215820
v -757.126404 -281.970856 5145.215820
v -821.269775 -288.394409 5145.215820
v -692.080688 -286.756805 5145.215820
v -756.022461 -295.685547 5145.215820
v -820.165894 -302.109070 5145.215820
v -821.269775 -288.394409 5184.120605
v -757.126404 -281.970856 5184.120605
v -693.184570 -273.042114 5184.120605
v -820.165894 -302.109070 5184.120605
v -756.022461 -295.685547 5184.120605
v -692.080688 -286.756805 5184.120605
v -626.209778 -263.086884 5182.208008
v -627.205139 -250.720795 5180.130371
v -625.214478 -275.452972 5147.128906
v -624.219116 -287.819061 5149.206543
v -627.631836 -245.420013 5169.822266
v -623.792480 -293.119812 5159.514648
v -627.205139 -250.720795 5149.206543
v -627.631836 -245.420013 5159.514648
v -624.219116 -287.819061 5180.130371
v -623.792480 -293.119812 5169.822266
v -625.072266 -277.219910 5158.821777
v -625.072266 -277.219910 5170.515137
v -625.214478 -275.452972 5182.208008
v -626.209778 -263.086884 5147.128906
v -626.352051 -261.319977 5158.821777
v -626.352051 -261.319977 5170.515137
v -823.646179 -540.299072 5320.783203
v -823.646118 -568.343872 5320.783203
v -823.646118 -540.299072 5011.756836
v -823.646118 -568.343872 5011.756836
v -853.035522 -521.750061 5031.960449
v -853.035522 -521.750061 5300.579590
v -1159.125854 -521.750061 5222.604004
v -1159.125854 -521.750061 5174.908691
v -1253.414551 -521.750000 5222.604004
v -1253.414551 -521.750000 5174.908691
v -1159.125854 -20.304474 5222.604004
v -1159.125854 -20.304474 5174.908691
v -1253.414551 -20.304482 5222.604004
v -1253.414551 -20.304482 5174.908691
v -1241.247314 -342.270020 5174.908691
v -1241.247314 -187.452988 5174.908691
v -1241.247314 -187.453018 5222.604004
v -1241.247314 -342.270050 5222.604004
v -1171.293091 -187.452988 5222.604004
v -1171.293091 -342.270050 5222.604004
v -1171.293091 -342.270020 5174.908691
v -1171.293091 -187.452957 5174.908691
v -1242.915283 -365.183716 5222.604004
v -1169.625122 -365.183716 5222.604004
v -1242.915283 -365.183716 5174.908691
v -1169.625122 -365.183716 5174.908691
v -1242.915283 -365.183716 5122.752441
v -1241.247314 -342.270020 5122.752441
v -1169.625122 -365.183716 5122.752441
v -1171.293091 -342.270020 5122.752441
v -1241.247314 -342.270020 5146.208984
v -1171.293091 -342.270020 5146.208984
v -1169.625122 -365.183716 5146.208984
v -1242.915283 -365.183716 5146.208984
v -1171.293091 -303.389648 5122.752441
v -1241.247314 -303.389648 5122.752441
v -1241.247314 -303.389648 5146.208984
v -1171.293091 -303.389648 5146.208984
v -1245.210938 -133.002335 5174.908691
v -1167.329468 -133.002319 5174.908691
v -1245.210938 -133.002335 5222.604004
v -1167.329468 -133.002319 5222.604004
v -1243.815186 -152.175995 5222.604004
v -1168.725220 -152.175995 5222.604004
v -1243.815186 -152.175995 5174.908691
v -1168.725220 -152.175995 5174.908691
v -1243.815186 -152.175995 5118.295898
v -1245.210938 -133.002335 5118.295898
v -1168.725220 -152.175995 5118.295898
v -1167.329468 -133.002319 5118.295898
v -1243.815186 -152.175995 5135.590820
v -1245.210938 -133.002335 5135.590820
v -1167.329468 -133.002319 5135.590820
v -1168.725220 -152.175995 5135.590820
v -1167.329468 -95.701797 5118.295898
v -1245.210938 -95.701813 5118.295898
v -1245.210938 -95.701813 5135.590820
v -1167.329468 -95.701797 5135.590820
v -1901.112549 -540.299072 5320.783203
v -1901.112427 -568.343872 5320.783203
v -1901.112549 -540.299072 5011.756348
v -1901.112427 -568.343872 5011.756348
v -1871.723145 -521.750061 5031.959961
v -1871.723145 -521.750061 5300.579102
v -1362.379395 -568.343872 5011.756348
v -1362.379272 -540.299072 5011.756348
v -1362.379272 -568.343872 5320.783203
v -1362.379272 -540.299072 5320.783203
v -1362.379395 -521.750061 5031.959961
v -1362.379272 -521.750061 5300.579590
v -1565.632812 -521.750061 5222.604004
v -1565.632812 -521.750061 5174.908691
v -1471.343994 -521.750000 5222.604004
v -1471.343994 -521.750000 5174.908691
v -1565.632812 -20.304482 5222.604004
v -1565.632812 -20.304482 5174.908691
v -1471.343994 -20.304474 5222.604004
v -1471.343994 -20.304474 5174.908691
v -1483.511230 -342.270020 5174.908691
v -1483.511230 -187.452972 5174.908691
v -1483.511230 -187.453003 5222.604004
v -1483.511230 -342.270050 5222.604004
v -1553.465576 -187.453018 5222.604004
v -1553.465576 -342.270050 5222.604004
v -1553.465576 -342.270020 5174.908691
v -1553.465576 -187.452988 5174.908691
v -1481.843262 -365.183716 5222.604004
v -1555.133545 -365.183716 5222.604004
v -1481.843262 -365.183716 5174.908691
v -1555.133545 -365.183716 5174.908691
v -1481.843262 -365.183716 5122.752441
v -1483.511230 -342.270020 5122.752441
v -1555.133545 -365.183716 5122.752441
v -1553.465576 -342.270020 5122.752441
v -1483.511230 -342.270020 5146.208984
v -1553.465576 -342.270020 5146.208984
v -1555.133545 -365.183716 5146.208984
v -1481.843262 -365.183716 5146.208984
v -1553.465576 -303.389648 5122.752441
v -1483.511230 -303.389648 5122.752441
v -1483.511230 -303.389648 5146.208984
v -1553.465576 -303.389648 5146.208984
v -1479.547607 -133.002319 5174.908691
v -1557.429199 -133.002335 5174.908691
v -1479.547607 -133.002319 5222.604004
v -1557.429199 -133.002335 5222.604004
v -1480.943359 -152.176041 5222.604004
v -1556.033447 -152.176041 5222.604004
v -1480.943359 -152.176041 5174.908691
v -1556.033447 -152.176041 5174.908691
v -1480.943359 -152.176041 5118.295898
v -1479.547607 -133.002319 5118.295898
v -1556.033447 -152.176041 5118.295898
v -1557.429199 -133.002335 5118.295898
v -1480.943359 -152.176041 5135.590820
v -1479.547607 -133.002319 5135.590820
v -1557.429199 -133.002335 5135.590820
v -1556.033447 -152.176041 5135.590820
v -1557.429199 -95.701813 5118.295898
v -1479.547607 -95.701797 5118.295898
v -1479.547607 -95.701797 5135.590820
v -1557.429199 -95.701813 5135.590820
vt 0.658991 0.711135
vt 0.630003 0.687797
vt 0.658579 0.687476
vt 0.293924 0.698935
vt 0.322535 0.675275
vt 0.322535 0.698935
vt 0.696060 0.672490
vt 0.667242 0.695980
vt 0.667459 0.672320
vt 0.322535 0.698935
vt 0.351146 0.675274
vt 0.351146 0.698935
vt 0.322535 0.675274
vt 0.336841 0.660095
vt 0.696060 0.711281
vt 0.667459 0.711111
vt 0.658991 0.672320
vt 0.293924 0.675275
vt 0.308230 0.660095
vt 0.023075 0.684874
vt 0.036868 0.707710
vt 0.023075 0.707753
vt 0.336841 0.703162
vt 0.308230 0.703163
vt 0.051578 0.684858
vt 0.036868 0.684831
vt 0.630415 0.711456
vt 0.695843 0.696150
vt 0.630415 0.672640
vt 0.051578 0.707736
vt 0.788543 0.673701
vt 0.764807 0.698038
vt 0.761662 0.675794
vt 0.455168 0.712424
vt 0.465870 0.690827
vt 0.465870 0.712424
vt 0.749281 0.698070
vt 0.746119 0.675655
vt 0.788872 0.328498
vt 0.744500 0.358663
vt 0.791821 0.314693
vt 0.967827 0.684688
vt 0.927862 0.652902
vt 0.943524 0.650323
vt 0.926473 0.585049
vt 0.942114 0.582987
vt 0.465870 0.724839
vt 0.961957 0.382440
vt 0.954618 0.336885
vt 0.970224 0.337331
vt 0.953711 0.449417
vt 0.946381 0.382952
vt 0.945573 0.516125
vt 0.938114 0.450445
vt 0.929954 0.517670
vt 0.759860 0.361826
vt 0.737729 0.426362
vt 0.753107 0.429008
vt 0.735854 0.493835
vt 0.751253 0.495964
vt 0.738662 0.561393
vt 0.754080 0.563005
vt 0.741555 0.629225
vt 0.999686 0.315422
vt 0.999789 0.329867
vt 0.988772 0.329265
vt 0.780745 0.413612
vt 0.778743 0.484483
vt 0.781422 0.555439
vt 0.784187 0.626668
vt 0.756992 0.630320
vt 0.959552 0.314693
vt 0.975127 0.315310
vt 0.988054 0.413590
vt 0.999077 0.413838
vt 0.455168 0.690827
vt 0.465870 0.687509
vt 0.988696 0.673395
vt 0.999347 0.626469
vt 0.999718 0.673481
vt 0.988324 0.626221
vt 0.999116 0.555277
vt 0.988978 0.697077
vt 1.000000 0.697163
vt 0.988093 0.555028
vt 0.998893 0.484363
vt 0.971599 0.699154
vt 0.973946 0.684846
vt 0.975127 0.700303
vt 0.987870 0.484114
vt 0.791821 0.697241
vt 1.000000 0.314693
vt 0.132129 0.667711
vt 0.089987 0.694525
vt 0.089987 0.667711
vt 0.892519 0.658164
vt 0.886040 0.632153
vt 0.892519 0.629751
vt 0.847389 0.279547
vt 0.841062 0.314251
vt 0.841062 0.278542
vt 0.444466 0.688306
vt 0.437992 0.723083
vt 0.437992 0.687509
vt 0.203273 0.642360
vt 0.245414 0.615546
vt 0.245414 0.642360
vt 0.431567 0.721871
vt 0.431567 0.688298
vt 0.834500 0.313246
vt 0.834500 0.279547
vt 0.898935 0.632154
vt 0.898935 0.658968
vt 0.898935 0.712597
vt 0.892519 0.686577
vt 0.898935 0.685782
vt 0.892519 0.667635
vt 0.898935 0.667906
vt 0.203273 0.695988
vt 0.245414 0.669174
vt 0.245414 0.695988
vt 0.203273 0.651298
vt 0.245414 0.651298
vt 0.886040 0.712595
vt 0.892519 0.714990
vt 0.886040 0.658967
vt 0.132129 0.614082
vt 0.089987 0.640896
vt 0.089987 0.614082
vt 0.132129 0.658773
vt 0.089987 0.658773
vt 0.132129 0.640896
vt 0.089987 0.649835
vt 0.132129 0.649835
vt 0.886040 0.685781
vt 0.892519 0.677106
vt 0.886040 0.676843
vt 0.203273 0.669174
vt 0.245414 0.660236
vt 0.203273 0.660236
vt 0.898935 0.676844
vt 0.132129 0.694525
vt 0.847389 0.313246
vt 0.444466 0.721878
vt 0.203273 0.615546
vt 0.886040 0.667905
vt 0.903448 0.264798
vt 0.894594 0.302894
vt 0.892659 0.265172
vt 0.721402 0.696132
vt 0.728416 0.703526
vt 0.720897 0.707224
vt 0.868622 0.263324
vt 0.859469 0.299844
vt 0.857839 0.262923
vt 0.870252 0.300245
vt 0.861624 0.301728
vt 0.591110 0.614878
vt 0.598630 0.652623
vt 0.591110 0.652666
vt 0.082730 0.651877
vt 0.089987 0.614332
vt 0.089819 0.652078
vt 0.067513 0.614188
vt 0.075239 0.651829
vt 0.067345 0.651934
vt 0.075407 0.614082
vt 0.576071 0.652623
vt 0.583590 0.614878
vt 0.583590 0.652666
vt 0.000258 0.688529
vt 0.008147 0.687084
vt 0.001367 0.690418
vt 0.881038 0.300676
vt 0.871346 0.302090
vt 0.712872 0.696132
vt 0.705857 0.703526
vt 0.704341 0.694899
vt 0.713377 0.707224
vt 0.720897 0.673949
vt 0.712872 0.685040
vt 0.713377 0.673949
vt 0.721402 0.685040
vt 0.705857 0.677647
vt 0.704341 0.686273
vt 0.905383 0.154241
vt 0.896744 0.152713
vt 0.906472 0.152375
vt 0.022817 0.688529
vt 0.014927 0.687084
vt 0.015297 0.684831
vt 0.082898 0.761949
vt 0.075646 0.763721
vt 0.075407 0.761901
vt 0.916168 0.153809
vt 0.925919 0.151545
vt 0.926951 0.153320
vt 0.890799 0.302894
vt 0.881071 0.302478
vt 0.088793 0.763946
vt 0.082401 0.763765
vt 0.890197 0.264216
vt 0.879408 0.263755
vt 0.728416 0.677647
vt 0.729932 0.686273
vt 0.925016 0.263876
vt 0.916168 0.302088
vt 0.914234 0.264366
vt 0.905383 0.302520
vt 0.914539 0.190701
vt 0.913401 0.227573
vt 0.903753 0.191133
vt 0.902616 0.228005
vt 0.925321 0.190212
vt 0.924184 0.227083
vt 0.879104 0.190031
vt 0.870252 0.151848
vt 0.881038 0.152279
vt 0.867485 0.226422
vt 0.868318 0.189600
vt 0.878271 0.226853
vt 0.889892 0.190492
vt 0.891826 0.152740
vt 0.889059 0.227315
vt 0.583590 0.726259
vt 0.591110 0.763041
vt 0.583590 0.763041
vt 0.583590 0.689471
vt 0.591110 0.726259
vt 0.591110 0.689471
vt 0.576071 0.726216
vt 0.576071 0.762999
vt 0.576071 0.689429
vt 0.075265 0.725243
vt 0.075166 0.688568
vt 0.082756 0.725291
vt 0.082657 0.688616
vt 0.067513 0.762006
vt 0.067372 0.725348
vt 0.067273 0.688674
vt 0.089987 0.762150
vt 0.089846 0.725492
vt 0.089747 0.688818
vt 0.598630 0.726216
vt 0.598630 0.762999
vt 0.598630 0.689429
vt 0.859469 0.151447
vt 0.856702 0.226022
vt 0.857535 0.189199
vt 0.894594 0.154616
vt 0.892964 0.191507
vt 0.891826 0.228379
vt 0.007692 0.697086
vt 0.015383 0.697086
vt 0.021708 0.690418
vt 0.023075 0.698197
vt 0.008147 0.717090
vt 0.015383 0.707088
vt 0.014927 0.717090
vt 0.007692 0.707088
vt 0.021708 0.713755
vt 0.023075 0.705976
vt 0.001367 0.713755
vt 0.000000 0.705976
vt 0.916197 0.151986
vt 0.007777 0.684831
vt 0.068529 0.763817
vt 0.729932 0.694899
vt 0.598630 0.614835
vt 0.082898 0.614130
vt 0.576071 0.614835
vt 0.891826 0.301137
vt 0.926951 0.301598
vt 0.000000 0.698197
vt 0.132129 0.640896
vt 0.174270 0.614082
vt 0.174270 0.640896
vt 0.389009 0.672372
vt 0.395488 0.698383
vt 0.389009 0.700785
vt 0.418669 0.688513
vt 0.412342 0.723218
vt 0.412342 0.687509
vt 0.431567 0.688306
vt 0.425093 0.723083
vt 0.425093 0.687509
vt 0.567734 0.668957
vt 0.525592 0.695771
vt 0.525592 0.668957
vt 0.418669 0.721871
vt 0.418669 0.688298
vt 0.405780 0.722213
vt 0.405780 0.688513
vt 0.382593 0.698382
vt 0.382593 0.671568
vt 0.382593 0.617939
vt 0.389009 0.643959
vt 0.382593 0.644753
vt 0.389009 0.662901
vt 0.382593 0.662629
vt 0.567734 0.615329
vt 0.525592 0.642143
vt 0.525592 0.615329
vt 0.567734 0.660019
vt 0.525592 0.660019
vt 0.395488 0.617940
vt 0.389009 0.615546
vt 0.395488 0.671569
vt 0.132129 0.694525
vt 0.174270 0.667711
vt 0.174270 0.694525
vt 0.132129 0.649835
vt 0.174270 0.649835
vt 0.132129 0.667711
vt 0.174270 0.658773
vt 0.132129 0.658773
vt 0.395488 0.644754
vt 0.389009 0.653430
vt 0.395488 0.662631
vt 0.567734 0.642143
vt 0.525592 0.651081
vt 0.567734 0.651081
vt 0.382593 0.653691
vt 0.132129 0.614082
vt 0.418669 0.722213
vt 0.431567 0.721878
vt 0.567734 0.695771
vt 0.395488 0.653693
vt 0.436383 0.643714
vt 0.467743 0.684711
vt 0.440768 0.687142
vt 0.444466 0.690841
vt 0.455168 0.712527
vt 0.444466 0.712527
vt 0.425225 0.687509
vt 0.420813 0.643747
vt 0.463064 0.022139
vt 0.416992 0.054158
vt 0.467743 0.000000
vt 0.515436 0.664752
vt 0.472809 0.632176
vt 0.488357 0.626075
vt 0.467743 0.499417
vt 0.483292 0.494328
vt 0.455168 0.724990
vt 0.507965 0.132345
vt 0.503594 0.043568
vt 0.519225 0.043850
vt 0.495289 0.263590
vt 0.492302 0.133936
vt 0.488059 0.395067
vt 0.479571 0.266192
vt 0.472285 0.398679
vt 0.432188 0.060507
vt 0.405853 0.186786
vt 0.421095 0.192123
vt 0.405780 0.287670
vt 0.421316 0.291536
vt 0.406996 0.420389
vt 0.422523 0.423243
vt 0.413665 0.553035
vt 0.987468 0.316422
vt 0.987422 0.339459
vt 0.976406 0.338525
vt 0.449571 0.161901
vt 0.448174 0.268181
vt 0.449451 0.407553
vt 0.456180 0.546852
vt 0.429182 0.554876
vt 0.510004 0.000000
vt 0.525592 0.000615
vt 0.463155 0.638751
vt 0.975242 0.477265
vt 0.986265 0.477501
vt 0.455168 0.690841
vt 0.455168 0.687509
vt 0.975837 0.861791
vt 0.987469 0.953680
vt 0.976448 0.953884
vt 0.986268 0.722523
vt 0.986860 0.861906
vt 0.987870 0.999796
vt 0.976849 1.000000
vt 0.975127 0.583252
vt 0.975245 0.722409
vt 0.521049 0.687745
vt 0.521560 0.664649
vt 0.525592 0.689864
vt 0.986150 0.583366
vt 0.987870 0.314693
vt 0.903448 0.113253
vt 0.894594 0.151350
vt 0.892659 0.113628
vt 0.868708 0.685229
vt 0.861693 0.677835
vt 0.869213 0.674138
vt 0.868622 0.111877
vt 0.859469 0.148397
vt 0.857839 0.111476
vt 0.870252 0.148798
vt 0.861624 0.150281
vt 0.189309 0.614125
vt 0.196829 0.651870
vt 0.189309 0.651913
vt 0.942408 0.037794
vt 0.949665 0.000250
vt 0.949497 0.037996
vt 0.927191 0.000106
vt 0.934917 0.037746
vt 0.927023 0.037852
vt 0.935085 0.000000
vt 0.174270 0.651870
vt 0.181790 0.614125
vt 0.181790 0.651913
vt 0.621447 0.711664
vt 0.613558 0.713109
vt 0.620338 0.709775
vt 0.881038 0.149229
vt 0.871346 0.150642
vt 0.877238 0.685229
vt 0.884253 0.677835
vt 0.885769 0.686462
vt 0.876733 0.674138
vt 0.869213 0.707412
vt 0.877238 0.696321
vt 0.876733 0.707412
vt 0.868708 0.696321
vt 0.884253 0.703715
vt 0.885769 0.695088
vt 0.905383 0.002696
vt 0.896743 0.001168
vt 0.906472 0.000831
vt 0.598888 0.711664
vt 0.606777 0.713109
vt 0.606407 0.715362
vt 0.942576 0.147867
vt 0.935324 0.149639
vt 0.935085 0.147819
vt 0.916168 0.002264
vt 0.925919 0.000000
vt 0.926951 0.001775
vt 0.890799 0.151447
vt 0.881071 0.151031
vt 0.948471 0.149864
vt 0.942079 0.149683
vt 0.890197 0.112769
vt 0.879408 0.112308
vt 0.861693 0.703715
vt 0.860178 0.695088
vt 0.925016 0.112332
vt 0.916168 0.150543
vt 0.914234 0.112821
vt 0.905383 0.150975
vt 0.914539 0.039156
vt 0.913401 0.076028
vt 0.903753 0.039588
vt 0.902615 0.076460
vt 0.925321 0.038667
vt 0.924184 0.075539
vt 0.879104 0.038584
vt 0.870252 0.000400
vt 0.881038 0.000831
vt 0.867485 0.074975
vt 0.868318 0.038153
vt 0.878271 0.075406
vt 0.889892 0.039045
vt 0.891826 0.001293
vt 0.889059 0.075868
vt 0.181790 0.725506
vt 0.189309 0.762288
vt 0.181790 0.762288
vt 0.181790 0.688718
vt 0.189309 0.725506
vt 0.189309 0.688718
vt 0.174270 0.725463
vt 0.174270 0.762246
vt 0.174270 0.688676
vt 0.934943 0.111161
vt 0.934844 0.074486
vt 0.942434 0.111209
vt 0.942335 0.074534
vt 0.927191 0.147924
vt 0.927050 0.111266
vt 0.926951 0.074592
vt 0.949665 0.148068
vt 0.949524 0.111410
vt 0.949425 0.074736
vt 0.196829 0.725463
vt 0.196829 0.762246
vt 0.196829 0.688676
vt 0.859469 0.000000
vt 0.856702 0.074575
vt 0.857535 0.037752
vt 0.894594 0.003071
vt 0.892964 0.039963
vt 0.891826 0.076835
vt 0.614013 0.703107
vt 0.606322 0.703107
vt 0.599997 0.709775
vt 0.598630 0.701996
vt 0.613558 0.683103
vt 0.606322 0.693105
vt 0.606777 0.683103
vt 0.614013 0.693105
vt 0.599997 0.686437
vt 0.598630 0.694216
vt 0.620338 0.686437
vt 0.621705 0.701996
vt 0.916197 0.000441
vt 0.613927 0.715362
vt 0.928207 0.149735
vt 0.860178 0.686462
vt 0.196829 0.614082
vt 0.942576 0.000048
vt 0.174270 0.614082
vt 0.891826 0.149690
vt 0.926951 0.150054
vt 0.621705 0.694216
vt 0.598630 0.614835
vt 0.576614 0.307375
vt 0.598630 0.307460
vt 0.948960 0.314097
vt 0.926951 0.151545
vt 0.948960 0.151545
vt 0.562103 0.597424
vt 0.562103 0.306817
vt 0.189983 0.306324
vt 0.138692 0.190484
vt 0.189983 0.016033
vt 0.203272 0.000000
vt 0.013290 0.016033
vt 0.000000 0.000000
vt 0.547608 0.307622
vt 0.562103 0.598144
vt 0.547608 0.615245
vt 0.405780 0.000000
vt 0.203273 0.308023
vt 0.203273 0.000499
vt 0.525592 0.307707
vt 0.525592 0.615329
vt 0.635869 0.385571
vt 0.667242 0.314693
vt 0.667242 0.385571
vt 0.107319 0.244222
vt 0.138692 0.244222
vt 0.013290 0.306324
vt 0.107319 0.190484
vt 0.598630 0.683103
vt 0.630003 0.629365
vt 0.630003 0.683103
vt 0.853289 0.558979
vt 0.791821 0.629491
vt 0.797679 0.558764
vt 0.797705 0.196577
vt 0.735854 0.267326
vt 0.742139 0.196577
vt 0.598630 0.070581
vt 0.630003 0.000000
vt 0.630003 0.070581
vt 0.598630 0.216252
vt 0.630003 0.201842
vt 0.630003 0.216252
vt 0.598630 0.104683
vt 0.630003 0.104683
vt 0.855597 0.000000
vt 0.805094 0.097190
vt 0.805686 0.000000
vt 0.851650 0.413213
vt 0.800509 0.427401
vt 0.799318 0.413012
vt 0.850459 0.524785
vt 0.800509 0.524592
vt 0.635869 0.531316
vt 0.667242 0.516968
vt 0.667242 0.531316
vt 0.635869 0.516968
vt 0.667242 0.419816
vt 0.635869 0.629365
vt 0.667242 0.629365
vt 0.859147 0.314953
vt 0.791821 0.314693
vt 0.803127 0.098289
vt 0.743944 0.000000
vt 0.796235 0.000000
vt 0.598630 0.314693
vt 0.630003 0.314693
vt 0.598630 0.082590
vt 0.630003 0.082590
vt 0.798675 0.546731
vt 0.635869 0.397630
vt 0.667242 0.397630
vt 0.635869 0.419816
vt 0.852293 0.546938
vt 0.855005 0.097190
vt 0.803127 0.119337
vt 0.598630 0.000086
vt 0.948960 0.314097
vt 0.970967 0.151545
vt 0.970967 0.314097
vt 0.562103 0.016211
vt 0.576614 0.000000
vt 0.138692 0.422165
vt 0.189983 0.596616
vt 0.000000 0.614082
vt 0.203273 0.614082
vt 0.562103 0.016463
vt 0.547608 0.000000
vt 0.405780 0.615047
vt 0.203273 0.615546
vt 0.525592 0.000085
vt 0.735854 0.314693
vt 0.704481 0.244112
vt 0.735854 0.244112
vt 0.107319 0.368427
vt 0.107319 0.422165
vt 0.013290 0.596616
vt 0.834500 0.292411
vt 0.803127 0.238673
vt 0.834500 0.238673
vt 0.926473 0.629751
vt 0.865005 0.558764
vt 0.920615 0.558978
vt 0.000000 0.614082
vt 0.060989 0.684831
vt 0.005422 0.684831
vt 0.704481 0.314694
vt 0.735854 0.385571
vt 0.704481 0.385571
vt 0.704481 0.531316
vt 0.735854 0.516968
vt 0.735854 0.531316
vt 0.704481 0.516968
vt 0.735854 0.419816
vt 0.855005 0.216527
vt 0.805686 0.119337
vt 0.855597 0.119337
vt 0.917785 0.427593
vt 0.866644 0.413012
vt 0.918976 0.413213
vt 0.917785 0.524785
vt 0.867835 0.427401
vt 0.735854 0.112851
vt 0.704481 0.098442
vt 0.735854 0.098442
vt 0.735854 0.210010
vt 0.704481 0.112851
vt 0.704481 0.000000
vt 0.735854 0.000000
vt 0.859147 0.314693
vt 0.926473 0.314953
vt 0.795037 0.196577
vt 0.735854 0.098289
vt 0.803127 0.098289
vt 0.735854 0.629365
vt 0.704481 0.629365
vt 0.735854 0.397630
vt 0.704481 0.397630
vt 0.866001 0.546731
vt 0.919619 0.546938
vt 0.704481 0.232104
vt 0.735854 0.232104
vt 0.704481 0.210010
vt 0.867835 0.524592
vt 0.803127 0.238673
vt 0.805094 0.216527
vt 0.704481 0.419816
vt 0.576614 0.614749
vt 0.926951 0.314097
vt 0.562103 0.307303
vt 0.405780 0.307523
vt 0.635869 0.314693
vt 0.598630 0.629365
vt 0.859147 0.629751
vt 0.803127 0.267326
vt 0.598630 0.000000
vt 0.598630 0.201842
vt 0.850459 0.427593
vt 0.735854 0.098289
vt 0.856702 0.119337
vt 0.948960 0.151545
vt 0.138692 0.368427
vt 0.704481 0.314693
vt 0.803127 0.292411
vt 0.859147 0.629491
vt 0.067273 0.614082
vt 0.735854 0.314693
vt 0.742747 0.196577
vt 0.856702 0.238673
vt 0.601562 0.516968
vt 0.616991 0.492570
vt 0.616991 0.516968
vt 0.293924 0.657362
vt 0.275936 0.616427
vt 0.293925 0.615546
vt 0.648881 0.201842
vt 0.664311 0.216252
vt 0.648881 0.216252
vt 0.616991 0.531316
vt 0.807192 0.671633
vt 0.791821 0.629835
vt 0.807192 0.629797
vt 0.825999 0.671587
vt 0.825999 0.629751
vt 0.853378 0.278542
vt 0.834500 0.238673
vt 0.853378 0.238673
vt 0.799794 0.307195
vt 0.784365 0.267326
vt 0.799794 0.267326
vt 0.381668 0.700040
vt 0.351146 0.660213
vt 0.381668 0.660095
vt 0.275936 0.656340
vt 0.245414 0.616308
vt 0.664311 0.177442
vt 0.664311 0.201842
vt 0.610006 0.397630
vt 0.598630 0.385571
vt 0.610006 0.385571
vt 0.338259 0.616283
vt 0.353311 0.659981
vt 0.338259 0.659126
vt 0.655866 0.070581
vt 0.667242 0.047173
vt 0.667242 0.070581
vt 0.693008 0.629393
vt 0.704341 0.672228
vt 0.693008 0.672256
vt 0.667242 0.082590
vt 0.655866 0.082590
vt 0.667242 0.629456
vt 0.667242 0.672320
vt 0.848206 0.716058
vt 0.822343 0.671671
vt 0.848206 0.671671
vt 0.898935 0.629751
vt 0.910312 0.674138
vt 0.898935 0.674138
vt 0.353311 0.615546
vt 0.382593 0.660095
vt 0.610006 0.362164
vt 0.274696 0.657362
vt 0.245414 0.701946
vt 0.245414 0.657474
vt 0.685603 0.137252
vt 0.670174 0.112851
vt 0.685603 0.112851
vt 0.766377 0.308120
vt 0.784365 0.267326
vt 0.784365 0.309142
vt 0.670174 0.531316
vt 0.685603 0.516968
vt 0.685603 0.531316
vt 0.685603 0.098442
vt 0.860178 0.629751
vt 0.844806 0.671624
vt 0.844806 0.629788
vt 0.825999 0.671671
vt 0.825999 0.629835
vt 0.274696 0.697231
vt 0.293574 0.657362
vt 0.293574 0.697231
vt 0.051578 0.724700
vt 0.067007 0.684831
vt 0.067007 0.724700
vt 0.791821 0.711733
vt 0.822343 0.671671
vt 0.822343 0.711615
vt 0.735854 0.308001
vt 0.766377 0.268208
vt 0.670174 0.492570
vt 0.670174 0.516968
vt 0.667242 0.244112
vt 0.678619 0.232104
vt 0.678619 0.244112
vt 0.308977 0.615546
vt 0.293924 0.659126
vt 0.293924 0.616283
vt 0.667242 0.362164
vt 0.678619 0.385571
vt 0.667242 0.385571
vt 0.630003 0.672320
vt 0.641337 0.629428
vt 0.641337 0.672292
vt 0.667242 0.397630
vt 0.678619 0.397630
vt 0.667102 0.629365
vt 0.667102 0.672228
vt 0.860178 0.674138
vt 0.886040 0.629751
vt 0.886040 0.674138
vt 0.848206 0.716058
vt 0.859582 0.671671
vt 0.859582 0.716058
vt 0.338259 0.660095
vt 0.308977 0.659981
vt 0.678619 0.267521
vt 0.704341 0.673949
vt 0.733623 0.629365
vt 0.733623 0.673836
vt 0.601562 0.492570
vt 0.601562 0.531316
vt 0.791821 0.671671
vt 0.834500 0.278542
vt 0.784365 0.307195
vt 0.351146 0.700157
vt 0.245414 0.656221
vt 0.648881 0.177442
vt 0.598630 0.397630
vt 0.655866 0.047173
vt 0.704341 0.629365
vt 0.822343 0.716058
vt 0.910312 0.629751
vt 0.382593 0.615660
vt 0.598630 0.362164
vt 0.274696 0.701833
vt 0.670174 0.137252
vt 0.670174 0.098442
vt 0.860178 0.671587
vt 0.274696 0.657362
vt 0.051578 0.684831
vt 0.791821 0.671789
vt 0.735854 0.268089
vt 0.685603 0.492570
vt 0.667242 0.232104
vt 0.678619 0.362164
vt 0.630003 0.629456
vt 0.860178 0.629751
vt 0.848206 0.671671
vt 0.338259 0.615660
vt 0.667242 0.267521
vt 0.704341 0.629478
vn 0.0000 0.0000 1.0000
vn -0.9997 -0.0248 0.0000
vn 0.0000 0.0000 -1.0000
vn 0.9997 0.0248 0.0000
vn 0.0166 -0.6686 -0.7435
vn 0.0166 -0.6686 0.7435
vn -0.0237 0.9550 0.2958
vn -0.0237 0.9550 -0.2958
vn 0.9999 -0.0160 0.0000
vn 0.0381 -0.6357 -0.7710
vn -0.5211 -0.6033 -0.6037
vn 0.9974 -0.0720 0.0000
vn -0.0724 -0.6258 -0.7766
vn -0.0397 -0.6339 -0.7724
vn -0.0078 -0.6393 -0.7689
vn -0.0073 -0.6384 -0.7697
vn -0.0175 0.9532 -0.3019
vn 0.0185 -0.6399 -0.7682
vn 0.1059 0.9450 -0.3094
vn 0.9999 -0.0149 0.0000
vn -0.0238 0.9508 -0.3090
vn 0.0135 0.9509 -0.3092
vn -0.0556 0.9496 -0.3085
vn 0.0142 0.9509 -0.3092
vn 0.0598 0.9490 -0.3096
vn 0.0382 -0.6355 -0.7711
vn -0.3634 -0.5185 -0.7741
vn 0.0001 0.0000 1.0000
vn -0.0727 -0.6266 -0.7760
vn -0.0397 -0.6338 -0.7725
vn -0.0075 -0.6383 -0.7697
vn -0.0070 -0.6374 -0.7705
vn 0.0204 -0.6351 -0.7722
vn 0.1062 0.9457 -0.3071
vn -0.0237 0.9510 -0.3084
vn 0.2068 0.0051 -0.9784
vn -0.3667 -0.9304 0.0000
vn -0.4123 0.9110 0.0000
vn 0.3667 0.9304 0.0000
vn 0.4123 -0.9110 0.0000
vn -0.2069 -0.0051 -0.9783
vn -0.2069 -0.0051 -0.9784
vn 0.2069 0.0051 -0.9784
vn 0.2069 0.0051 -0.9783
vn 0.3666 0.9304 0.0000
vn -0.2067 -0.0051 -0.9784
vn -0.2068 -0.0051 -0.9784
vn 0.0130 -0.1647 0.9863
vn -0.9968 -0.0802 -0.0000
vn 0.0245 -0.1638 -0.9862
vn 0.5755 -0.0903 -0.8128
vn 0.0701 -0.8859 -0.4585
vn -0.0701 0.8859 0.4585
vn -0.0701 0.8859 -0.4585
vn -0.0789 0.9969 0.0000
vn 0.0701 -0.8859 0.4585
vn 0.0789 -0.9969 0.0000
vn 0.7759 -0.5474 0.3136
vn 0.5226 0.0421 -0.8516
vn 0.5756 -0.0902 0.8127
vn 0.7759 -0.5473 -0.3136
vn 0.4264 0.9046 0.0000
vn 0.5010 0.1825 0.8460
vn 0.5012 0.1825 -0.8459
vn 0.4468 0.8030 0.3944
vn -0.0245 0.1638 -0.9862
vn -0.0130 0.1647 0.9863
vn -0.0245 0.1637 0.9862
vn -0.0229 0.1639 0.9862
vn -0.0165 0.1644 0.9863
vn -0.0130 0.1647 -0.9863
vn -0.0165 0.1644 -0.9863
vn -0.0229 0.1639 -0.9862
vn 0.1479 -0.9890 0.0000
vn 0.1383 -0.9904 0.0000
vn 0.0997 -0.9950 0.0000
vn 0.1315 -0.8794 0.4576
vn 0.1229 -0.8805 0.4579
vn 0.0886 -0.8843 0.4584
vn -0.1479 0.9890 0.0000
vn -0.1383 0.9904 0.0000
vn -0.0996 0.9950 0.0000
vn -0.1315 0.8794 -0.4577
vn -0.1229 0.8805 -0.4579
vn -0.0886 0.8843 -0.4584
vn -0.1315 0.8794 0.4576
vn -0.1229 0.8805 0.4579
vn -0.0886 0.8843 0.4584
vn 0.1315 -0.8793 -0.4577
vn 0.1229 -0.8805 -0.4579
vn 0.0886 -0.8843 -0.4584
vn 0.0130 -0.1647 -0.9863
vn 0.0165 -0.1644 -0.9863
vn 0.0229 -0.1639 -0.9862
vn 0.0245 -0.1637 0.9862
vn 0.0229 -0.1639 0.9862
vn 0.0164 -0.1644 0.9863
vn 0.9968 0.0802 0.0000
vn 0.5226 0.0421 0.8515
vn 0.7934 -0.6087 0.0000
vn 0.4468 0.8030 -0.3944
vn 0.5756 -0.0903 -0.8127
vn 0.7759 -0.5473 0.3136
vn 0.5229 0.0421 -0.8514
vn 0.5756 -0.0902 0.8128
vn 0.4263 0.9046 0.0000
vn 0.5011 0.1825 0.8460
vn 0.5008 0.1825 -0.8461
vn 0.4470 0.8029 0.3944
vn -0.0131 0.1647 0.9863
vn 0.0996 -0.9950 0.0000
vn 0.1230 -0.8805 0.4579
vn -0.0997 0.9950 0.0000
vn 0.0165 -0.1644 0.9863
vn 0.5229 0.0421 0.8513
vn 0.4470 0.8029 -0.3944
vn 0.9967 0.0815 0.0000
vn 0.0273 -0.6338 -0.7730
vn -0.4051 -0.5530 -0.7281
vn 0.9996 -0.0279 0.0000
vn -0.0573 -0.6262 -0.7776
vn -0.0196 -0.6402 -0.7679
vn -0.0149 -0.6342 -0.7730
vn 0.0041 -0.6378 -0.7702
vn 0.0451 0.9513 -0.3049
vn 0.0173 -0.6385 -0.7694
vn 0.0952 0.9461 -0.3095
vn 0.9965 0.0836 0.0000
vn -0.0238 0.9504 -0.3100
vn -0.0047 0.9509 -0.3096
vn -0.0402 0.9498 -0.3103
vn 0.0223 0.9506 -0.3097
vn 0.0378 0.9501 -0.3097
vn 0.0273 -0.6336 -0.7732
vn -0.3110 -0.4928 -0.8127
vn -0.0575 -0.6270 -0.7769
vn -0.0181 -0.6334 -0.7736
vn 0.0042 -0.6368 -0.7710
vn 0.0182 -0.6336 -0.7734
vn 0.0953 0.9465 -0.3082
vn -0.0238 0.9506 -0.3094
vn -0.0047 0.9508 -0.3096
vn 0.0378 0.9501 -0.3096
vn 0.5754 -0.0903 -0.8128
vn 0.5228 0.0421 -0.8514
vn 0.7760 -0.5473 -0.3136
vn 0.5014 0.1824 -0.8457
vn -0.0131 0.1647 -0.9863
vn -0.1230 0.8805 0.4579
vn 0.1315 -0.8794 -0.4577
vn 0.4469 0.8030 -0.3944
vn 0.5759 -0.0902 -0.8126
vn 0.5226 0.0421 -0.8515
vn 0.7759 -0.5474 -0.3136
vn 0.5012 0.1824 0.8459
vn 0.5009 0.1825 -0.8461
vn -0.1315 0.8793 -0.4577
vn 0.1230 -0.8805 -0.4579
vn 0.5227 0.0421 0.8515
vn 0.4469 0.8029 -0.3944
vn -1.0000 0.0000 0.0000
vn 0.0000 -0.7366 0.6763
vn 0.0000 -1.0000 0.0000
vn -0.5337 -0.8457 0.0000
vn 0.0000 -0.7366 -0.6763
vn 0.0000 1.0000 0.0000
vn 0.9974 0.0726 0.0000
vn -0.9974 0.0726 0.0000
vn -0.9974 -0.0726 0.0000
vn 0.9974 -0.0726 0.0000
vn 1.0000 0.0000 0.0000
vn 0.9978 -0.0669 0.0000
vn -0.9978 -0.0669 0.0000
vn 0.5337 -0.8457 0.0000
s off
f 2/1/1 3/2/1 1/3/1
f 8/4/2 3/5/2 4/6/2
f 6/7/3 7/8/3 8/9/3
f 2/10/4 5/11/4 6/12/4
f 5/11/4 1/13/4 9/14/4
f 7/8/5 9/15/5 10/16/5
f 3/2/6 9/17/6 1/3/6
f 3/5/2 7/18/2 10/19/2
f 2/20/7 11/21/7 4/22/7
f 2/10/4 6/12/4 12/23/4
f 8/4/2 4/6/2 11/24/2
f 6/25/8 11/21/8 12/26/8
f 2/1/1 4/27/1 3/2/1
f 8/4/2 7/18/2 3/5/2
f 6/7/3 5/28/3 7/8/3
f 2/10/4 1/13/4 5/11/4
f 7/8/5 5/28/5 9/15/5
f 3/2/6 10/29/6 9/17/6
f 2/20/7 12/26/7 11/21/7
f 6/25/8 8/30/8 11/21/8
f 41/31/3 14/32/3 40/33/3
f 14/34/9 20/35/9 18/36/9
f 40/33/10 22/37/10 42/38/10
f 15/39/11 21/40/11 23/41/11
f 19/42/1 21/43/1 17/44/1
f 17/44/1 36/45/1 35/46/1
f 14/34/12 18/36/12 22/47/12
f 32/48/1 42/49/1 43/50/1
f 33/51/1 39/52/1 32/48/1
f 34/53/1 38/54/1 33/51/1
f 35/46/1 37/55/1 34/53/1
f 13/56/13 36/57/13 21/40/13
f 24/58/14 37/59/14 36/57/14
f 25/60/15 38/61/15 37/59/15
f 26/62/16 39/63/16 38/61/16
f 23/64/17 45/65/17 15/66/17
f 13/56/3 28/67/3 24/58/3
f 24/58/3 29/68/3 25/60/3
f 25/60/3 30/69/3 26/62/3
f 26/62/3 31/70/3 27/71/3
f 43/50/1 22/72/1 18/73/1
f 27/71/18 42/38/18 39/63/18
f 27/71/3 41/31/3 40/33/3
f 28/74/19 45/65/19 48/75/19
f 20/35/20 16/76/20 44/77/20
f 41/78/21 51/79/21 46/80/21
f 31/81/22 50/82/22 51/79/22
f 16/83/23 46/80/23 44/84/23
f 30/85/24 49/86/24 50/82/24
f 23/87/1 45/88/1 47/89/1
f 29/90/25 48/75/25 49/86/25
f 41/31/3 16/91/3 14/32/3
f 14/34/9 16/76/9 20/35/9
f 40/33/26 14/32/26 22/37/26
f 15/39/27 13/56/27 21/40/27
f 19/42/28 23/87/28 21/43/28
f 17/44/1 21/43/1 36/45/1
f 32/48/1 39/52/1 42/49/1
f 33/51/1 38/54/1 39/52/1
f 34/53/1 37/55/1 38/54/1
f 35/46/1 36/45/1 37/55/1
f 13/56/29 24/58/29 36/57/29
f 24/58/30 25/60/30 37/59/30
f 25/60/31 26/62/31 38/61/31
f 26/62/32 27/71/32 39/63/32
f 23/64/3 47/92/3 45/65/3
f 13/56/3 15/39/3 28/67/3
f 24/58/3 28/67/3 29/68/3
f 25/60/3 29/68/3 30/69/3
f 26/62/3 30/69/3 31/70/3
f 43/50/1 42/49/1 22/72/1
f 27/71/33 40/33/33 42/38/33
f 27/71/3 31/70/3 41/31/3
f 28/74/34 15/66/34 45/65/34
f 41/78/35 31/81/35 51/79/35
f 31/81/22 30/85/22 50/82/22
f 16/83/23 41/78/23 46/80/23
f 30/85/24 29/90/24 49/86/24
f 23/87/1 19/42/1 45/88/1
f 29/90/25 28/74/25 48/75/25
f 65/93/2 57/94/2 71/95/2
f 73/96/36 52/97/36 61/98/36
f 57/99/37 61/100/37 63/101/37
f 55/102/38 62/103/38 60/104/38
f 69/105/4 52/106/4 67/107/4
f 60/104/39 58/108/39 53/109/39
f 63/101/40 52/110/40 59/111/40
f 73/96/41 54/112/41 65/113/41
f 55/114/42 72/115/42 64/116/42
f 83/117/41 65/113/41 75/118/41
f 58/119/4 66/120/4 53/121/4
f 79/122/4 67/107/4 77/123/4
f 53/124/36 72/115/36 60/125/36
f 83/117/43 67/126/43 73/96/43
f 55/127/2 70/128/2 56/129/2
f 75/130/2 71/95/2 81/131/2
f 64/132/2 80/133/2 70/128/2
f 74/134/2 81/131/2 80/133/2
f 66/135/36 82/136/36 72/115/36
f 76/137/36 83/117/36 82/136/36
f 68/138/4 76/139/4 66/120/4
f 78/140/4 77/123/4 76/139/4
f 64/116/42 82/136/42 74/141/42
f 74/141/42 83/117/42 75/118/42
f 65/93/2 54/142/2 57/94/2
f 73/96/44 67/126/44 52/97/44
f 57/99/37 54/143/37 61/100/37
f 55/102/38 56/144/38 62/103/38
f 69/105/4 59/145/4 52/106/4
f 60/104/45 62/103/45 58/108/45
f 63/101/40 61/100/40 52/110/40
f 73/96/46 61/98/46 54/112/46
f 55/114/42 60/125/42 72/115/42
f 83/117/47 73/96/47 65/113/47
f 58/119/4 68/138/4 66/120/4
f 79/122/4 69/105/4 67/107/4
f 53/124/44 66/135/44 72/115/44
f 83/117/44 77/146/44 67/126/44
f 55/127/2 64/132/2 70/128/2
f 75/130/2 65/93/2 71/95/2
f 64/132/2 74/134/2 80/133/2
f 74/134/2 75/130/2 81/131/2
f 66/135/44 76/137/44 82/136/44
f 76/137/44 77/146/44 83/117/44
f 68/138/4 78/140/4 76/139/4
f 78/140/4 79/122/4 77/123/4
f 64/116/47 72/115/47 82/136/47
f 74/141/47 82/136/47 83/117/47
f 145/147/48 86/148/48 115/149/48
f 111/150/49 90/151/49 94/152/49
f 139/153/50 88/154/50 121/155/50
f 107/156/51 151/157/51 88/154/51
f 94/158/52 123/159/52 133/160/52
f 127/161/53 87/162/53 114/163/53
f 91/164/54 124/165/54 118/166/54
f 93/167/55 127/161/55 124/165/55
f 115/168/56 95/169/56 130/170/56
f 95/169/57 133/160/57 130/170/57
f 84/171/58 157/172/58 156/173/58
f 106/174/59 150/175/59 107/156/59
f 109/176/49 86/177/49 103/178/49
f 111/150/49 95/179/49 109/176/49
f 93/180/49 108/181/49 92/182/49
f 110/183/49 109/176/49 108/181/49
f 87/184/49 108/181/49 102/185/49
f 102/185/49 109/176/49 103/178/49
f 100/186/60 156/187/60 160/188/60
f 88/189/61 153/190/61 99/191/61
f 97/192/62 155/193/62 96/194/62
f 101/195/63 149/196/63 85/197/63
f 106/174/64 154/198/64 161/199/64
f 97/192/65 149/200/65 152/201/65
f 120/202/66 106/174/66 136/203/66
f 136/203/3 107/156/3 139/153/3
f 91/204/49 110/183/49 93/180/49
f 104/205/49 111/150/49 110/183/49
f 114/206/67 102/207/67 142/208/67
f 142/208/1 103/209/1 145/147/1
f 144/210/1 100/186/1 101/195/1
f 143/211/1 147/212/1 144/210/1
f 142/208/1 146/213/1 143/211/1
f 112/214/68 101/195/68 85/197/68
f 113/215/69 144/210/69 112/214/69
f 114/206/70 143/211/70 113/215/70
f 138/216/3 105/217/3 104/218/3
f 138/216/3 140/219/3 141/220/3
f 137/221/3 139/153/3 140/219/3
f 118/222/71 104/218/71 91/223/71
f 118/222/72 137/221/72 138/216/72
f 119/224/73 136/203/73 137/221/73
f 132/225/74 99/226/74 98/227/74
f 131/228/75 135/229/75 132/225/75
f 130/170/76 134/230/76 131/228/76
f 117/231/77 98/227/77 84/232/77
f 116/233/78 132/225/78 117/231/78
f 115/168/79 131/228/79 116/233/79
f 126/234/80 97/192/80 96/194/80
f 125/235/81 129/236/81 126/234/81
f 124/165/82 128/237/82 125/235/82
f 89/238/83 126/234/83 96/194/83
f 120/239/84 125/235/84 126/234/84
f 119/240/85 124/165/85 125/235/85
f 129/236/86 85/241/86 97/192/86
f 128/237/87 112/242/87 129/236/87
f 127/161/88 113/243/88 128/237/88
f 99/226/89 121/244/89 88/245/89
f 135/229/90 122/246/90 121/244/90
f 134/230/91 123/159/91 122/246/91
f 141/220/92 90/247/92 105/217/92
f 141/220/93 122/248/93 123/249/93
f 140/219/94 121/155/94 122/248/94
f 147/212/95 84/250/95 100/186/95
f 146/213/96 117/251/96 147/212/96
f 145/147/97 116/252/97 146/213/97
f 159/253/98 156/173/98 157/172/98
f 158/254/98 151/255/98 150/256/98
f 159/253/98 153/190/98 158/254/98
f 152/257/98 162/258/98 155/259/98
f 163/260/98 158/254/98 162/258/98
f 154/261/98 162/258/98 161/262/98
f 161/262/98 158/254/98 150/256/98
f 149/263/98 163/260/98 152/257/98
f 148/264/98 159/253/98 163/260/98
f 101/195/99 160/188/99 148/265/99
f 99/191/100 157/172/100 98/266/100
f 96/194/101 154/267/101 89/238/101
f 145/147/48 103/209/48 86/148/48
f 111/150/49 105/268/49 90/151/49
f 139/153/50 107/156/50 88/154/50
f 107/156/102 150/175/102 151/157/102
f 94/158/52 90/269/52 123/159/52
f 127/161/53 92/270/53 87/162/53
f 91/164/54 93/167/54 124/165/54
f 93/167/55 92/270/55 127/161/55
f 115/168/56 86/271/56 95/169/56
f 95/169/57 94/158/57 133/160/57
f 84/171/103 98/266/103 157/172/103
f 106/174/104 161/199/104 150/175/104
f 109/176/49 95/179/49 86/177/49
f 111/150/49 94/152/49 95/179/49
f 93/180/49 110/183/49 108/181/49
f 110/183/49 111/150/49 109/176/49
f 87/184/49 92/182/49 108/181/49
f 102/185/49 108/181/49 109/176/49
f 100/186/105 84/250/105 156/187/105
f 88/189/61 151/255/61 153/190/61
f 97/192/106 152/201/106 155/193/106
f 101/195/107 148/265/107 149/196/107
f 106/174/108 89/272/108 154/198/108
f 97/192/109 85/241/109 149/200/109
f 120/202/66 89/272/66 106/174/66
f 136/203/3 106/174/3 107/156/3
f 91/204/49 104/205/49 110/183/49
f 104/205/49 105/268/49 111/150/49
f 114/206/110 87/273/110 102/207/110
f 142/208/1 102/207/1 103/209/1
f 144/210/1 147/212/1 100/186/1
f 143/211/1 146/213/1 147/212/1
f 142/208/1 145/147/1 146/213/1
f 112/214/68 144/210/68 101/195/68
f 113/215/69 143/211/69 144/210/69
f 114/206/70 142/208/70 143/211/70
f 138/216/3 141/220/3 105/217/3
f 138/216/3 137/221/3 140/219/3
f 137/221/3 136/203/3 139/153/3
f 118/222/71 138/216/71 104/218/71
f 118/222/72 119/224/72 137/221/72
f 119/224/73 120/202/73 136/203/73
f 132/225/74 135/229/74 99/226/74
f 131/228/75 134/230/75 135/229/75
f 130/170/111 133/160/111 134/230/111
f 117/231/77 132/225/77 98/227/77
f 116/233/112 131/228/112 132/225/112
f 115/168/79 130/170/79 131/228/79
f 126/234/80 129/236/80 97/192/80
f 125/235/81 128/237/81 129/236/81
f 124/165/113 127/161/113 128/237/113
f 89/238/83 120/239/83 126/234/83
f 120/239/84 119/240/84 125/235/84
f 119/240/85 118/166/85 124/165/85
f 129/236/86 112/242/86 85/241/86
f 128/237/87 113/243/87 112/242/87
f 127/161/88 114/163/88 113/243/88
f 99/226/89 135/229/89 121/244/89
f 135/229/90 134/230/90 122/246/90
f 134/230/91 133/160/91 123/159/91
f 141/220/92 123/249/92 90/247/92
f 141/220/93 140/219/93 122/248/93
f 140/219/94 139/153/94 121/155/94
f 147/212/95 117/251/95 84/250/95
f 146/213/96 116/252/96 117/251/96
f 145/147/114 115/149/114 116/252/114
f 159/253/98 160/274/98 156/173/98
f 158/254/98 153/190/98 151/255/98
f 159/253/98 157/172/98 153/190/98
f 152/257/98 163/260/98 162/258/98
f 163/260/98 159/253/98 158/254/98
f 154/261/98 155/259/98 162/258/98
f 161/262/98 162/258/98 158/254/98
f 149/263/98 148/264/98 163/260/98
f 148/264/98 160/274/98 159/253/98
f 101/195/115 100/186/115 160/188/115
f 99/191/100 153/190/100 157/172/100
f 96/194/116 155/193/116 154/267/116
f 177/275/2 169/276/2 183/277/2
f 185/278/36 164/279/36 173/280/36
f 169/281/37 173/282/37 175/283/37
f 167/284/38 174/285/38 172/286/38
f 181/287/4 164/288/4 179/289/4
f 172/286/39 170/290/39 165/291/39
f 175/283/40 164/292/40 171/293/40
f 185/278/47 166/294/47 177/295/47
f 167/296/42 184/297/42 176/298/42
f 195/299/41 177/295/41 187/300/41
f 170/301/4 178/302/4 165/303/4
f 191/304/4 179/289/4 189/305/4
f 165/306/36 184/297/36 172/307/36
f 195/299/43 179/308/43 185/278/43
f 167/309/2 182/310/2 168/311/2
f 187/312/2 183/277/2 193/313/2
f 176/314/2 192/315/2 182/310/2
f 186/316/2 193/313/2 192/315/2
f 178/317/36 194/318/36 184/297/36
f 194/318/36 189/319/36 195/299/36
f 180/320/4 188/321/4 178/302/4
f 190/322/4 189/305/4 188/321/4
f 176/298/42 194/318/42 186/323/42
f 186/323/42 195/299/42 187/300/42
f 177/275/2 166/324/2 169/276/2
f 185/278/44 179/308/44 164/279/44
f 169/281/37 166/325/37 173/282/37
f 167/284/38 168/326/38 174/285/38
f 181/287/4 171/327/4 164/288/4
f 172/286/45 174/285/45 170/290/45
f 175/283/40 173/282/40 164/292/40
f 185/278/47 173/280/47 166/294/47
f 167/296/47 172/307/47 184/297/47
f 195/299/47 185/278/47 177/295/47
f 170/301/4 180/320/4 178/302/4
f 191/304/4 181/287/4 179/289/4
f 165/306/43 178/317/43 184/297/43
f 195/299/44 189/319/44 179/308/44
f 167/309/2 176/314/2 182/310/2
f 187/312/2 177/275/2 183/277/2
f 176/314/2 186/316/2 192/315/2
f 186/316/2 187/312/2 193/313/2
f 178/317/44 188/328/44 194/318/44
f 194/318/44 188/328/44 189/319/44
f 180/320/4 190/322/4 188/321/4
f 190/322/4 191/304/4 189/305/4
f 176/298/47 184/297/47 194/318/47
f 186/323/47 194/318/47 195/299/47
f 223/329/3 199/330/3 197/331/3
f 199/332/117 201/333/117 197/334/117
f 223/329/118 205/335/118 225/336/118
f 198/337/119 204/338/119 206/339/119
f 202/340/1 204/341/1 200/342/1
f 200/342/1 219/343/1 218/344/1
f 197/334/120 201/333/120 205/345/120
f 215/346/1 225/347/1 226/348/1
f 216/349/1 222/350/1 215/346/1
f 217/351/1 221/352/1 216/349/1
f 218/344/1 220/353/1 217/351/1
f 196/354/121 219/355/121 204/338/121
f 207/356/122 220/357/122 219/355/122
f 208/358/123 221/359/123 220/357/123
f 209/360/124 222/361/124 221/359/124
f 206/362/125 228/363/125 198/364/125
f 196/354/3 211/365/3 207/356/3
f 207/356/3 212/366/3 208/358/3
f 208/358/3 213/367/3 209/360/3
f 209/360/3 214/368/3 210/369/3
f 226/348/1 205/370/1 201/371/1
f 210/369/126 225/336/126 222/361/126
f 210/369/3 224/372/3 223/329/3
f 211/373/127 228/363/127 231/374/127
f 203/375/128 199/332/128 227/376/128
f 214/377/129 229/378/129 224/379/129
f 214/377/130 233/380/130 234/381/130
f 224/379/131 227/382/131 199/383/131
f 212/384/132 233/380/132 213/385/132
f 206/386/1 228/387/1 230/388/1
f 212/384/133 231/374/133 232/389/133
f 223/329/3 224/372/3 199/330/3
f 199/332/117 203/375/117 201/333/117
f 223/329/134 197/331/134 205/335/134
f 198/337/135 196/354/135 204/338/135
f 202/340/1 206/386/1 204/341/1
f 200/342/1 204/341/1 219/343/1
f 215/346/1 222/350/1 225/347/1
f 216/349/1 221/352/1 222/350/1
f 217/351/1 220/353/1 221/352/1
f 218/344/1 219/343/1 220/353/1
f 196/354/136 207/356/136 219/355/136
f 207/356/137 208/358/137 220/357/137
f 208/358/123 209/360/123 221/359/123
f 209/360/138 210/369/138 222/361/138
f 206/362/3 230/390/3 228/363/3
f 196/354/3 198/337/3 211/365/3
f 207/356/3 211/365/3 212/366/3
f 208/358/3 212/366/3 213/367/3
f 209/360/3 213/367/3 214/368/3
f 226/348/1 225/347/1 205/370/1
f 210/369/139 223/329/139 225/336/139
f 210/369/3 214/368/3 224/372/3
f 211/373/140 198/364/140 228/363/140
f 214/377/141 234/381/141 229/378/141
f 214/377/142 213/385/142 233/380/142
f 224/379/131 229/378/131 227/382/131
f 212/384/132 232/389/132 233/380/132
f 206/386/1 202/340/1 228/387/1
f 212/384/143 211/373/143 231/374/143
f 296/391/48 237/392/48 266/393/48
f 262/394/49 241/395/49 245/396/49
f 290/397/50 239/398/50 272/399/50
f 258/400/144 302/401/144 239/398/144
f 245/402/52 274/403/52 284/404/52
f 278/405/53 238/406/53 265/407/53
f 242/408/54 275/409/54 269/410/54
f 244/411/55 278/405/55 275/409/55
f 266/412/56 246/413/56 281/414/56
f 246/413/57 284/404/57 281/414/57
f 235/415/58 308/416/58 307/417/58
f 257/418/145 301/419/145 258/400/145
f 260/420/49 237/421/49 254/422/49
f 262/394/49 246/423/49 260/420/49
f 244/424/49 259/425/49 243/426/49
f 261/427/49 260/420/49 259/425/49
f 238/428/49 259/425/49 253/429/49
f 253/429/49 260/420/49 254/422/49
f 251/430/60 307/431/60 311/432/60
f 239/433/146 304/434/146 250/435/146
f 248/436/106 306/437/106 247/438/106
f 252/439/63 300/440/63 236/441/63
f 257/418/147 305/442/147 312/443/147
f 248/436/65 300/444/65 303/445/65
f 271/446/66 257/418/66 287/447/66
f 287/447/3 258/400/3 290/397/3
f 242/448/49 261/427/49 244/424/49
f 255/449/49 262/394/49 261/427/49
f 265/450/67 253/451/67 293/452/67
f 293/452/1 254/453/1 296/391/1
f 295/454/1 251/430/1 252/439/1
f 294/455/1 298/456/1 295/454/1
f 293/452/1 297/457/1 294/455/1
f 263/458/68 252/439/68 236/441/68
f 264/459/69 295/454/69 263/458/69
f 265/450/70 294/455/70 264/459/70
f 289/460/3 256/461/3 255/462/3
f 289/460/3 291/463/3 292/464/3
f 288/465/3 290/397/3 291/463/3
f 269/466/148 255/462/148 242/467/148
f 269/466/72 288/465/72 289/460/72
f 270/468/73 287/447/73 288/465/73
f 283/469/74 250/470/74 249/471/74
f 282/472/75 286/473/75 283/469/75
f 281/414/111 285/474/111 282/472/111
f 268/475/77 249/471/77 235/476/77
f 267/477/78 283/469/78 268/475/78
f 266/412/79 282/472/79 267/477/79
f 277/478/80 248/436/80 247/438/80
f 276/479/81 280/480/81 277/478/81
f 275/409/82 279/481/82 276/479/82
f 240/482/83 277/478/83 247/438/83
f 271/483/84 276/479/84 277/478/84
f 270/484/85 275/409/85 276/479/85
f 280/480/86 236/485/86 248/436/86
f 279/481/149 263/486/149 280/480/149
f 278/405/88 264/487/88 279/481/88
f 250/470/150 272/488/150 239/489/150
f 286/473/90 273/490/90 272/488/90
f 285/474/91 274/403/91 273/490/91
f 292/464/92 241/491/92 256/461/92
f 292/464/93 273/492/93 274/493/93
f 291/463/94 272/399/94 273/492/94
f 298/456/95 235/494/95 251/430/95
f 297/457/96 268/495/96 298/456/96
f 296/391/114 267/496/114 297/457/114
f 310/497/98 307/417/98 308/416/98
f 309/498/98 302/499/98 301/500/98
f 309/498/98 308/416/98 304/434/98
f 303/501/98 313/502/98 306/503/98
f 314/504/98 309/498/98 313/502/98
f 305/505/98 313/502/98 312/506/98
f 313/502/98 301/500/98 312/506/98
f 300/507/98 314/504/98 303/501/98
f 314/504/98 311/508/98 310/497/98
f 252/439/99 311/432/99 299/509/99
f 249/510/100 304/434/100 308/416/100
f 247/438/151 305/511/151 240/482/151
f 296/391/48 254/453/48 237/392/48
f 262/394/49 256/512/49 241/395/49
f 290/397/50 258/400/50 239/398/50
f 258/400/152 301/419/152 302/401/152
f 245/402/52 241/513/52 274/403/52
f 278/405/53 243/514/53 238/406/53
f 242/408/54 244/411/54 275/409/54
f 244/411/55 243/514/55 278/405/55
f 266/412/56 237/515/56 246/413/56
f 246/413/57 245/402/57 284/404/57
f 235/415/103 249/510/103 308/416/103
f 257/418/153 312/443/153 301/419/153
f 260/420/49 246/423/49 237/421/49
f 262/394/49 245/396/49 246/423/49
f 244/424/49 261/427/49 259/425/49
f 261/427/49 262/394/49 260/420/49
f 238/428/49 243/426/49 259/425/49
f 253/429/49 259/425/49 260/420/49
f 251/430/105 235/494/105 307/431/105
f 239/433/154 302/499/154 304/434/154
f 248/436/62 303/445/62 306/437/62
f 252/439/155 299/509/155 300/440/155
f 257/418/156 240/516/156 305/442/156
f 248/436/109 236/485/109 300/444/109
f 271/446/66 240/516/66 257/418/66
f 287/447/3 257/418/3 258/400/3
f 242/448/49 255/449/49 261/427/49
f 255/449/49 256/512/49 262/394/49
f 265/450/67 238/517/67 253/451/67
f 293/452/1 253/451/1 254/453/1
f 295/454/1 298/456/1 251/430/1
f 294/455/1 297/457/1 298/456/1
f 293/452/1 296/391/1 297/457/1
f 263/458/68 295/454/68 252/439/68
f 264/459/69 294/455/69 295/454/69
f 265/450/70 293/452/70 294/455/70
f 289/460/3 292/464/3 256/461/3
f 289/460/3 288/465/3 291/463/3
f 288/465/3 287/447/3 290/397/3
f 269/466/71 289/460/71 255/462/71
f 269/466/72 270/468/72 288/465/72
f 270/468/73 271/446/73 287/447/73
f 283/469/74 286/473/74 250/470/74
f 282/472/75 285/474/75 286/473/75
f 281/414/111 284/404/111 285/474/111
f 268/475/77 283/469/77 249/471/77
f 267/477/112 282/472/112 283/469/112
f 266/412/79 281/414/79 282/472/79
f 277/478/80 280/480/80 248/436/80
f 276/479/81 279/481/81 280/480/81
f 275/409/82 278/405/82 279/481/82
f 240/482/157 271/483/157 277/478/157
f 271/483/84 270/484/84 276/479/84
f 270/484/85 269/410/85 275/409/85
f 280/480/86 263/486/86 236/485/86
f 279/481/87 264/487/87 263/486/87
f 278/405/88 265/407/88 264/487/88
f 250/470/150 286/473/150 272/488/150
f 286/473/158 285/474/158 273/490/158
f 285/474/91 284/404/91 274/403/91
f 292/464/92 274/493/92 241/491/92
f 292/464/93 291/463/93 273/492/93
f 291/463/94 290/397/94 272/399/94
f 298/456/95 268/495/95 235/494/95
f 297/457/96 267/496/96 268/495/96
f 296/391/114 266/393/114 267/496/114
f 310/497/98 311/508/98 307/417/98
f 309/498/98 304/434/98 302/499/98
f 309/498/98 310/497/98 308/416/98
f 303/501/98 314/504/98 313/502/98
f 314/504/98 310/497/98 309/498/98
f 305/505/98 306/503/98 313/502/98
f 313/502/98 309/498/98 301/500/98
f 300/507/98 299/518/98 314/504/98
f 314/504/98 299/518/98 311/508/98
f 252/439/159 251/430/159 311/432/159
f 249/510/100 250/435/100 304/434/100
f 247/438/160 306/437/160 305/511/160
f 318/519/1 380/520/1 379/521/1
f 316/522/161 317/523/161 318/524/161
f 380/520/162 319/525/162 383/526/162
f 384/527/163 321/528/163 320/529/163
f 315/530/164 319/531/164 317/532/164
f 382/533/165 320/534/165 315/535/165
f 318/536/166 381/537/166 316/538/166
f 381/539/3 315/535/3 316/540/3
f 353/541/167 327/542/167 355/543/167
f 384/527/163 324/544/163 323/545/163
f 383/546/163 322/547/163 324/544/163
f 320/529/163 322/547/163 319/531/163
f 328/548/163 325/549/163 327/550/163
f 355/551/3 325/552/3 356/553/3
f 354/554/1 328/555/1 353/556/1
f 356/557/168 326/558/168 354/559/168
f 338/560/169 335/561/169 340/562/169
f 335/561/161 333/563/161 336/564/161
f 335/565/1 330/566/1 329/567/1
f 337/568/3 334/569/3 338/570/3
f 334/569/3 331/571/3 333/572/3
f 339/573/170 332/574/170 337/575/170
f 329/576/171 331/577/171 332/574/171
f 324/578/172 337/575/172 323/579/172
f 323/580/3 338/570/3 321/581/3
f 324/582/1 340/583/1 339/584/1
f 321/585/173 340/562/173 322/586/173
f 358/587/168 354/559/168 360/588/168
f 358/589/3 355/551/3 356/553/3
f 359/590/167 355/543/167 357/591/167
f 330/592/167 357/591/167 331/577/167
f 333/572/3 357/593/3 358/589/3
f 336/594/1 359/595/1 330/566/1
f 336/564/168 358/587/168 360/588/168
f 380/520/1 376/596/1 379/521/1
f 375/597/171 374/598/171 376/599/171
f 380/520/162 377/600/162 375/601/162
f 385/602/163 384/527/163 378/603/163
f 375/604/174 378/603/174 373/605/174
f 378/606/165 382/533/165 373/607/165
f 381/537/166 376/608/166 374/609/166
f 374/610/3 382/533/3 381/539/3
f 391/611/168 417/612/168 419/613/168
f 384/527/163 388/614/163 383/546/163
f 383/546/163 386/615/163 377/616/163
f 386/615/163 378/603/163 377/616/163
f 389/617/163 392/618/163 391/619/163
f 389/620/3 419/621/3 420/622/3
f 392/623/1 418/624/1 417/625/1
f 390/626/167 420/627/167 418/628/167
f 404/629/170 398/630/170 402/631/170
f 399/632/171 397/633/171 398/630/171
f 394/634/1 399/635/1 393/636/1
f 398/637/3 401/638/3 402/639/3
f 397/640/3 396/641/3 398/637/3
f 396/642/169 403/643/169 401/644/169
f 395/645/161 393/646/161 396/642/161
f 401/644/173 388/647/173 387/648/173
f 402/639/3 387/649/3 385/650/3
f 403/651/1 386/652/1 388/653/1
f 404/629/172 385/654/172 386/655/172
f 418/628/167 422/656/167 424/657/167
f 420/622/3 421/658/3 422/659/3
f 419/613/168 423/660/168 421/661/168
f 421/661/168 394/662/168 395/645/168
f 422/659/3 395/663/3 397/640/3
f 394/634/1 424/664/1 400/665/1
f 400/666/167 422/656/167 397/633/167
f 318/519/1 317/667/1 380/520/1
f 316/522/161 315/668/161 317/523/161
f 380/520/162 317/667/162 319/525/162
f 384/527/163 323/545/163 321/528/163
f 315/530/164 320/529/164 319/531/164
f 382/533/165 384/669/165 320/534/165
f 318/536/166 379/670/166 381/537/166
f 381/539/3 382/533/3 315/535/3
f 353/541/167 328/671/167 327/542/167
f 384/527/163 383/546/163 324/544/163
f 383/546/163 319/531/163 322/547/163
f 320/529/163 321/528/163 322/547/163
f 328/548/163 326/672/163 325/549/163
f 355/551/3 327/673/3 325/552/3
f 354/554/1 326/674/1 328/555/1
f 356/557/168 325/675/168 326/558/168
f 338/560/169 334/676/169 335/561/169
f 335/561/161 334/676/161 333/563/161
f 335/565/1 336/594/1 330/566/1
f 337/568/3 332/677/3 334/569/3
f 334/569/3 332/677/3 331/571/3
f 339/573/170 329/576/170 332/574/170
f 329/576/171 330/592/171 331/577/171
f 324/578/172 339/573/172 337/575/172
f 323/580/3 337/568/3 338/570/3
f 324/582/1 322/678/1 340/583/1
f 321/585/173 338/560/173 340/562/173
f 358/587/168 356/557/168 354/559/168
f 358/589/3 357/593/3 355/551/3
f 359/590/167 353/541/167 355/543/167
f 330/592/167 359/590/167 357/591/167
f 333/572/3 331/571/3 357/593/3
f 336/594/1 360/679/1 359/595/1
f 336/564/168 333/563/168 358/587/168
f 380/520/1 375/601/1 376/596/1
f 375/597/171 373/680/171 374/598/171
f 380/520/162 383/526/162 377/600/162
f 385/602/163 387/681/163 384/527/163
f 375/604/174 377/616/174 378/603/174
f 378/606/165 384/669/165 382/533/165
f 381/537/166 379/670/166 376/608/166
f 374/610/3 373/607/3 382/533/3
f 391/611/168 392/682/168 417/612/168
f 384/527/163 387/681/163 388/614/163
f 383/546/163 388/614/163 386/615/163
f 386/615/163 385/602/163 378/603/163
f 389/617/163 390/683/163 392/618/163
f 389/620/3 391/684/3 419/621/3
f 392/623/1 390/685/1 418/624/1
f 390/626/167 389/686/167 420/627/167
f 404/629/170 399/632/170 398/630/170
f 399/632/171 400/666/171 397/633/171
f 394/634/1 400/665/1 399/635/1
f 398/637/3 396/641/3 401/638/3
f 397/640/3 395/663/3 396/641/3
f 396/642/169 393/646/169 403/643/169
f 395/645/161 394/662/161 393/646/161
f 401/644/173 403/643/173 388/647/173
f 402/639/3 401/638/3 387/649/3
f 403/651/1 404/687/1 386/652/1
f 404/629/172 402/631/172 385/654/172
f 418/628/167 420/627/167 422/656/167
f 420/622/3 419/621/3 421/658/3
f 419/613/168 417/612/168 423/660/168
f 421/661/168 423/660/168 394/662/168
f 422/659/3 421/658/3 395/663/3
f 394/634/1 423/688/1 424/664/1
f 400/666/167 424/657/167 422/656/167
f 342/689/171 351/690/171 345/691/171
f 343/692/1 342/693/1 341/694/1
f 346/695/169 343/696/169 347/697/169
f 348/698/170 342/689/170 345/691/170
f 347/699/166 341/700/166 348/701/166
f 340/702/166 348/701/166 339/703/166
f 339/573/170 345/691/170 329/576/170
f 335/561/169 347/697/169 340/562/169
f 329/704/163 346/705/163 335/706/163
f 351/707/163 349/708/163 352/709/163
f 345/710/3 352/711/3 346/712/3
f 344/713/1 350/714/1 342/693/1
f 346/695/161 349/715/161 344/716/161
f 365/717/167 362/718/167 366/719/167
f 363/720/1 362/721/1 361/722/1
f 367/723/161 369/724/161 364/725/161
f 368/726/166 361/727/166 365/728/166
f 367/723/168 363/729/168 368/730/168
f 354/559/168 368/730/168 360/588/168
f 360/731/166 365/728/166 359/732/166
f 353/733/163 367/734/163 354/735/163
f 359/590/167 366/719/167 353/541/167
f 371/736/163 369/737/163 372/738/163
f 364/739/1 370/740/1 362/721/1
f 362/718/171 371/741/171 366/719/171
f 367/742/3 371/743/3 372/744/3
f 415/745/161 406/746/161 409/747/161
f 406/748/1 407/749/1 405/750/1
f 407/751/170 410/752/170 411/753/170
f 406/746/169 412/754/169 409/747/169
f 405/755/166 411/756/166 412/757/166
f 412/757/166 404/758/166 403/759/166
f 409/747/169 403/643/169 393/646/169
f 411/753/170 399/632/170 404/629/170
f 410/760/163 393/761/163 399/762/163
f 413/763/163 415/764/163 416/765/163
f 416/766/3 409/767/3 410/768/3
f 414/769/1 408/770/1 406/748/1
f 413/771/171 410/752/171 408/772/171
f 426/773/168 429/774/168 430/775/168
f 426/776/1 427/777/1 425/778/1
f 433/779/171 431/780/171 428/781/171
f 425/782/166 432/783/166 429/784/166
f 427/785/167 431/780/167 432/786/167
f 432/786/167 418/628/167 424/657/167
f 429/784/166 424/787/166 423/788/166
f 431/789/163 417/790/163 418/791/163
f 430/775/168 423/660/168 417/612/168
f 433/792/163 435/793/163 436/794/163
f 426/776/1 433/795/1 428/796/1
f 435/797/161 426/773/161 430/775/161
f 436/798/3 430/799/3 431/800/3
f 342/689/171 350/801/171 351/690/171
f 343/692/1 344/713/1 342/693/1
f 346/695/169 344/716/169 343/696/169
f 348/698/170 341/802/170 342/689/170
f 347/699/166 343/803/166 341/700/166
f 340/702/166 347/699/166 348/701/166
f 339/573/170 348/698/170 345/691/170
f 335/561/169 346/695/169 347/697/169
f 329/704/163 345/804/163 346/705/163
f 351/707/163 350/805/163 349/708/163
f 345/710/3 351/806/3 352/711/3
f 344/713/1 349/807/1 350/714/1
f 346/695/161 352/808/161 349/715/161
f 365/717/167 361/809/167 362/718/167
f 363/720/1 364/739/1 362/721/1
f 367/723/161 372/810/161 369/724/161
f 368/726/166 363/811/166 361/727/166
f 367/723/168 364/725/168 363/729/168
f 354/559/168 367/723/168 368/730/168
f 360/731/166 368/726/166 365/728/166
f 353/733/163 366/812/163 367/734/163
f 359/590/167 365/717/167 366/719/167
f 371/736/163 370/813/163 369/737/163
f 364/739/1 369/814/1 370/740/1
f 362/718/171 370/815/171 371/741/171
f 367/742/3 366/816/3 371/743/3
f 415/745/161 414/817/161 406/746/161
f 406/748/1 408/770/1 407/749/1
f 407/751/170 408/772/170 410/752/170
f 406/746/169 405/818/169 412/754/169
f 405/755/166 407/819/166 411/756/166
f 412/757/166 411/756/166 404/758/166
f 409/747/169 412/754/169 403/643/169
f 411/753/170 410/752/170 399/632/170
f 410/760/163 409/820/163 393/761/163
f 413/763/163 414/821/163 415/764/163
f 416/766/3 415/822/3 409/767/3
f 414/769/1 413/823/1 408/770/1
f 413/771/171 416/824/171 410/752/171
f 426/773/168 425/825/168 429/774/168
f 426/776/1 428/796/1 427/777/1
f 433/779/171 436/826/171 431/780/171
f 425/782/166 427/827/166 432/783/166
f 427/785/167 428/781/167 431/780/167
f 432/786/167 431/780/167 418/628/167
f 429/784/166 432/783/166 424/787/166
f 431/789/163 430/828/163 417/790/163
f 430/775/168 429/774/168 423/660/168
f 433/792/163 434/829/163 435/793/163
f 426/776/1 434/830/1 433/795/1
f 435/797/161 434/831/161 426/773/161
f 436/798/3 435/832/3 430/799/3
